lab 5/task 1/simulation/qsim/lab5_task1.msim.vcd
$comment
	File created using the following command:
		vcd file lab5_task1.msim.vcd -direction
$end
$date
	Wed Oct 25 10:55:23 2017
$end
$version
	ModelSim Version 10.5b
$end
$timescale
	1ps
$end

$scope module binary_encoder_8to3_vhd_vec_tst $end
$var wire 1 ! any $end
$var wire 1 " W [7] $end
$var wire 1 # W [6] $end
$var wire 1 $ W [5] $end
$var wire 1 % W [4] $end
$var wire 1 & W [3] $end
$var wire 1 ' W [2] $end
$var wire 1 ( W [1] $end
$var wire 1 ) W [0] $end
$var wire 1 * Y [2] $end
$var wire 1 + Y [1] $end
$var wire 1 , Y [0] $end

$scope module i1 $end
$var wire 1 - gnd $end
$var wire 1 . vcc $end
$var wire 1 / unknown $end
$var wire 1 0 devoe $end
$var wire 1 1 devclrn $end
$var wire 1 2 devpor $end
$var wire 1 3 ww_devoe $end
$var wire 1 4 ww_devclrn $end
$var wire 1 5 ww_devpor $end
$var wire 1 6 ww_W [7] $end
$var wire 1 7 ww_W [6] $end
$var wire 1 8 ww_W [5] $end
$var wire 1 9 ww_W [4] $end
$var wire 1 : ww_W [3] $end
$var wire 1 ; ww_W [2] $end
$var wire 1 < ww_W [1] $end
$var wire 1 = ww_W [0] $end
$var wire 1 > ww_Y [2] $end
$var wire 1 ? ww_Y [1] $end
$var wire 1 @ ww_Y [0] $end
$var wire 1 A ww_any $end
$var wire 1 B \Y[0]~output_o\ $end
$var wire 1 C \Y[1]~output_o\ $end
$var wire 1 D \Y[2]~output_o\ $end
$var wire 1 E \any~output_o\ $end
$var wire 1 F \W[3]~input_o\ $end
$var wire 1 G \W[7]~input_o\ $end
$var wire 1 H \W[1]~input_o\ $end
$var wire 1 I \W[5]~input_o\ $end
$var wire 1 J \Mux3~0_combout\ $end
$var wire 1 K \W[2]~input_o\ $end
$var wire 1 L \W[6]~input_o\ $end
$var wire 1 M \Mux1~0_combout\ $end
$var wire 1 N \W[4]~input_o\ $end
$var wire 1 O \Mux0~0_combout\ $end
$var wire 1 P \W[0]~input_o\ $end
$var wire 1 Q \Mux3~1_combout\ $end
$var wire 1 R \Mux3~2_combout\ $end
$var wire 1 S \ALT_INV_Mux3~0_combout\ $end
$var wire 1 T \ALT_INV_Mux0~0_combout\ $end
$var wire 1 U \ALT_INV_Mux3~2_combout\ $end
$var wire 1 V \ALT_INV_Mux1~0_combout\ $end
$upscope $end
$upscope $end
$enddefinitions $end
#0
$dumpvars
0!
0-
1.
x/
10
11
12
13
14
15
0A
0B
0C
0D
0E
0F
0G
0H
0I
1J
0K
0L
1M
0N
1O
0P
1Q
1R
0S
0T
0U
0V
0"
0#
0$
0%
0&
0'
0(
0)
06
07
08
09
0:
0;
0<
0=
0>
0?
0@
0*
0+
0,
$end
#250000
1)
1=
1P
0Q
0R
1U
1E
1A
1!
#500000
0)
1(
0=
1<
1H
0P
1Q
0J
1S
1B
1@
1,
#750000
1)
1=
1P
0Q
#1000000
0)
0(
1'
0=
0<
1;
1K
0H
0P
1J
0M
1V
0S
0B
1C
0@
1?
0,
1+
#1250000
1)
1=
1P
#1500000
0)
1(
0=
1<
1H
0P
0J
1S
1B
1@
1,
#1750000
1)
1=
1P
#2000000
0)
0(
0'
1&
0=
0<
0;
1:
1F
0K
0H
0P
1Q
#2250000
1)
1=
1P
0Q
#2500000
0)
1(
0=
1<
1H
0P
1Q
#2750000
1)
1=
1P
0Q
#3000000
0)
0(
1'
0=
0<
1;
1K
0H
0P
#3250000
1)
1=
1P
#3500000
0)
1(
0=
1<
1H
0P
#3750000
1)
1=
1P
#4000000
0)
0(
0'
0&
1%
0=
0<
0;
0:
19
1N
0F
0K
0H
0P
1J
1M
0O
1T
0V
0S
0B
0C
1D
0@
0?
1>
0,
0+
1*
#4250000
1)
1=
1P
#4500000
0)
1(
0=
1<
1H
0P
0J
1S
1B
1@
1,
#4750000
1)
1=
1P
#5000000
0)
0(
1'
0=
0<
1;
1K
0H
0P
1J
0M
1V
0S
0B
1C
0@
1?
0,
1+
#5250000
1)
1=
1P
#5500000
0)
1(
0=
1<
1H
0P
0J
1S
1B
1@
1,
#5750000
1)
1=
1P
#6000000
0)
0(
0'
1&
0=
0<
0;
1:
1F
0K
0H
0P
#6250000
1)
1=
1P
#6500000
0)
1(
0=
1<
1H
0P
#6750000
1)
1=
1P
#7000000
0)
0(
1'
0=
0<
1;
1K
0H
0P
#7250000
1)
1=
1P
#7500000
0)
1(
0=
1<
1H
0P
#7750000
1)
1=
1P
#8000000
0)
0(
0'
0&
0%
1$
0=
0<
0;
0:
09
18
1I
0N
0F
0K
0H
0P
1M
1Q
0V
0C
0?
0+
#8250000
1)
1=
1P
0Q
#8500000
0)
1(
0=
1<
1H
0P
1Q
#8750000
1)
1=
1P
0Q
#9000000
0)
0(
1'
0=
0<
1;
1K
0H
0P
0M
1V
1C
1?
1+
#9250000
1)
1=
1P
#9500000
0)
1(
0=
1<
1H
0P
#9750000
1)
1=
1P
#10000000
0)
0(
0'
1&
0=
0<
0;
1:
1F
0K
0H
0P
1Q
#10250000
1)
1=
1P
0Q
#10500000
0)
1(
0=
1<
1H
0P
1Q
#10750000
1)
1=
1P
0Q
#11000000
0)
0(
1'
0=
0<
1;
1K
0H
0P
#11250000
1)
1=
1P
#11500000
0)
1(
0=
1<
1H
0P
#11750000
1)
1=
1P
#12000000
0)
0(
0'
0&
1%
0=
0<
0;
0:
19
1N
0F
0K
0H
0P
1M
0V
0C
0?
0+
#12250000
1)
1=
1P
#12500000
0)
1(
0=
1<
1H
0P
#12750000
1)
1=
1P
#13000000
0)
0(
1'
0=
0<
1;
1K
0H
0P
0M
1V
1C
1?
1+
#13250000
1)
1=
1P
#13500000
0)
1(
0=
1<
1H
0P
#13750000
1)
1=
1P
#14000000
0)
0(
0'
1&
0=
0<
0;
1:
1F
0K
0H
0P
#14250000
1)
1=
1P
#14500000
0)
1(
0=
1<
1H
0P
#14750000
1)
1=
1P
#15000000
0)
0(
1'
0=
0<
1;
1K
0H
0P
#15250000
1)
1=
1P
#15500000
0)
1(
0=
1<
1H
0P
#15750000
1)
1=
1P
#16000000
0)
0(
0'
0&
0%
0$
1#
0=
0<
0;
0:
09
08
17
1L
0I
0N
0F
0K
0H
0P
1J
0S
0B
0@
0,
#16250000
1)
1=
1P
#16500000
0)
1(
0=
1<
1H
0P
0J
1S
1B
1@
1,
#16750000
1)
1=
1P
#17000000
0)
0(
1'
0=
0<
1;
1K
0H
0P
1J
0S
0B
0@
0,
#17250000
1)
1=
1P
#17500000
0)
1(
0=
1<
1H
0P
0J
1S
1B
1@
1,
#17750000
1)
1=
1P
#18000000
0)
0(
0'
1&
0=
0<
0;
1:
1F
0K
0H
0P
#18250000
1)
1=
1P
#18500000
0)
1(
0=
1<
1H
0P
#18750000
1)
1=
1P
#19000000
0)
0(
1'
0=
0<
1;
1K
0H
0P
#19250000
1)
1=
1P
#19500000
0)
1(
0=
1<
1H
0P
#19750000
1)
1=
1P
#20000000
0)
0(
0'
0&
1%
0=
0<
0;
0:
19
1N
0F
0K
0H
0P
1J
0S
0B
0@
0,
#20250000
1)
1=
1P
#20500000
0)
1(
0=
1<
1H
0P
0J
1S
1B
1@
1,
#20750000
1)
1=
1P
#21000000
0)
0(
1'
0=
0<
1;
1K
0H
0P
1J
0S
0B
0@
0,
#21250000
1)
1=
1P
#21500000
0)
1(
0=
1<
1H
0P
0J
1S
1B
1@
1,
#21750000
1)
1=
1P
#22000000
0)
0(
0'
1&
0=
0<
0;
1:
1F
0K
0H
0P
#22250000
1)
1=
1P
#22500000
0)
1(
0=
1<
1H
0P
#22750000
1)
1=
1P
#23000000
0)
0(
1'
0=
0<
1;
1K
0H
0P
#23250000
1)
1=
1P
#23500000
0)
1(
0=
1<
1H
0P
#23750000
1)
1=
1P
#24000000
0)
0(
0'
0&
0%
1$
0=
0<
0;
0:
09
18
1I
0N
0F
0K
0H
0P
#24250000
1)
1=
1P
#24500000
0)
1(
0=
1<
1H
0P
#24750000
1)
1=
1P
#25000000
0)
0(
1'
0=
0<
1;
1K
0H
0P
#25250000
1)
1=
1P
#25500000
0)
1(
0=
1<
1H
0P
#25750000
1)
1=
1P
#26000000
0)
0(
0'
1&
0=
0<
0;
1:
1F
0K
0H
0P
#26250000
1)
1=
1P
#26500000
0)
1(
0=
1<
1H
0P
#26750000
1)
1=
1P
#27000000
0)
0(
1'
0=
0<
1;
1K
0H
0P
#27250000
1)
1=
1P
#27500000
0)
1(
0=
1<
1H
0P
#27750000
1)
1=
1P
#28000000
0)
0(
0'
0&
1%
0=
0<
0;
0:
19
1N
0F
0K
0H
0P
#28250000
1)
1=
1P
#28500000
0)
1(
0=
1<
1H
0P
#28750000
1)
1=
1P
#29000000
0)
0(
1'
0=
0<
1;
1K
0H
0P
#29250000
1)
1=
1P
#29500000
0)
1(
0=
1<
1H
0P
#29750000
1)
1=
1P
#30000000
0)
0(
0'
1&
0=
0<
0;
1:
1F
0K
0H
0P
#30250000
1)
1=
1P
#30500000
0)
1(
0=
1<
1H
0P
#30750000
1)
1=
1P
#31000000
0)
0(
1'
0=
0<
1;
1K
0H
0P
#31250000
1)
1=
1P
#31500000
0)
1(
0=
1<
1H
0P
#31750000
1)
1=
1P
#32000000
0)
0(
0'
0&
0%
0$
0#
1"
0=
0<
0;
0:
09
08
07
16
1G
0L
0I
0N
0F
0K
0H
0P
1Q
#32250000
1)
1=
1P
0Q
#32500000
0)
1(
0=
1<
1H
0P
1Q
#32750000
1)
1=
1P
0Q
#33000000
0)
0(
1'
0=
0<
1;
1K
0H
0P
#33250000
1)
1=
1P
#33500000
0)
1(
0=
1<
1H
0P
#33750000
1)
1=
1P
#34000000
0)
0(
0'
1&
0=
0<
0;
1:
1F
0K
0H
0P
1Q
#34250000
1)
1=
1P
0Q
#34500000
0)
1(
0=
1<
1H
0P
1Q
#34750000
1)
1=
1P
0Q
#35000000
0)
0(
1'
0=
0<
1;
1K
0H
0P
#35250000
1)
1=
1P
#35500000
0)
1(
0=
1<
1H
0P
#35750000
1)
1=
1P
#36000000
0)
0(
0'
0&
1%
0=
0<
0;
0:
19
1N
0F
0K
0H
0P
#36250000
1)
1=
1P
#36500000
0)
1(
0=
1<
1H
0P
#36750000
1)
1=
1P
#37000000
0)
0(
1'
0=
0<
1;
1K
0H
0P
#37250000
1)
1=
1P
#37500000
0)
1(
0=
1<
1H
0P
#37750000
1)
1=
1P
#38000000
0)
0(
0'
1&
0=
0<
0;
1:
1F
0K
0H
0P
#38250000
1)
1=
1P
#38500000
0)
1(
0=
1<
1H
0P
#38750000
1)
1=
1P
#39000000
0)
0(
1'
0=
0<
1;
1K
0H
0P
#39250000
1)
1=
1P
#39500000
0)
1(
0=
1<
1H
0P
#39750000
1)
1=
1P
#40000000
0)
0(
0'
0&
0%
1$
0=
0<
0;
0:
09
18
1I
0N
0F
0K
0H
0P
1Q
#40250000
1)
1=
1P
0Q
#40500000
0)
1(
0=
1<
1H
0P
1Q
#40750000
1)
1=
1P
0Q
#41000000
0)
0(
1'
0=
0<
1;
1K
0H
0P
#41250000
1)
1=
1P
#41500000
0)
1(
0=
1<
1H
0P
#41750000
1)
1=
1P
#42000000
0)
0(
0'
1&
0=
0<
0;
1:
1F
0K
0H
0P
1Q
#42250000
1)
1=
1P
0Q
#42500000
0)
1(
0=
1<
1H
0P
1Q
#42750000
1)
1=
1P
0Q
#43000000
0)
0(
1'
0=
0<
1;
1K
0H
0P
#43250000
1)
1=
1P
#43500000
0)
1(
0=
1<
1H
0P
#43750000
1)
1=
1P
#44000000
0)
0(
0'
0&
1%
0=
0<
0;
0:
19
1N
0F
0K
0H
0P
#44250000
1)
1=
1P
#44500000
0)
1(
0=
1<
1H
0P
#44750000
1)
1=
1P
#45000000
0)
0(
1'
0=
0<
1;
1K
0H
0P
#45250000
1)
1=
1P
#45500000
0)
1(
0=
1<
1H
0P
#45750000
1)
1=
1P
#46000000
0)
0(
0'
1&
0=
0<
0;
1:
1F
0K
0H
0P
#46250000
1)
1=
1P
#46500000
0)
1(
0=
1<
1H
0P
#46750000
1)
1=
1P
#47000000
0)
0(
1'
0=
0<
1;
1K
0H
0P
#47250000
1)
1=
1P
#47500000
0)
1(
0=
1<
1H
0P
#47750000
1)
1=
1P
#48000000
0)
0(
0'
0&
0%
0$
1#
0=
0<
0;
0:
09
08
17
1L
0I
0N
0F
0K
0H
0P
#48250000
1)
1=
1P
#48500000
0)
1(
0=
1<
1H
0P
#48750000
1)
1=
1P
#49000000
0)
0(
1'
0=
0<
1;
1K
0H
0P
#49250000
1)
1=
1P
#49500000
0)
1(
0=
1<
1H
0P
#49750000
1)
1=
1P
#50000000
0)
0(
0'
1&
0=
0<
0;
1:
1F
0K
0H
0P
#50250000
1)
1=
1P
#50500000
0)
1(
0=
1<
1H
0P
#50750000
1)
1=
1P
#51000000
0)
0(
1'
0=
0<
1;
1K
0H
0P
#51250000
1)
1=
1P
#51500000
0)
1(
0=
1<
1H
0P
#51750000
1)
1=
1P
#52000000
0)
0(
0'
0&
1%
0=
0<
0;
0:
19
1N
0F
0K
0H
0P
#52250000
1)
1=
1P
#52500000
0)
1(
0=
1<
1H
0P
#52750000
1)
1=
1P
#53000000
0)
0(
1'
0=
0<
1;
1K
0H
0P
#53250000
1)
1=
1P
#53500000
0)
1(
0=
1<
1H
0P
#53750000
1)
1=
1P
#54000000
0)
0(
0'
1&
0=
0<
0;
1:
1F
0K
0H
0P
#54250000
1)
1=
1P
#54500000
0)
1(
0=
1<
1H
0P
#54750000
1)
1=
1P
#55000000
0)
0(
1'
0=
0<
1;
1K
0H
0P
#55250000
1)
1=
1P
#55500000
0)
1(
0=
1<
1H
0P
#55750000
1)
1=
1P
#56000000
0)
0(
0'
0&
0%
1$
0=
0<
0;
0:
09
18
1I
0N
0F
0K
0H
0P
#56250000
1)
1=
1P
#56500000
0)
1(
0=
1<
1H
0P
#56750000
1)
1=
1P
#57000000
0)
0(
1'
0=
0<
1;
1K
0H
0P
#57250000
1)
1=
1P
#57500000
0)
1(
0=
1<
1H
0P
#57750000
1)
1=
1P
#58000000
0)
0(
0'
1&
0=
0<
0;
1:
1F
0K
0H
0P
#58250000
1)
1=
1P
#58500000
0)
1(
0=
1<
1H
0P
#58750000
1)
1=
1P
#59000000
0)
0(
1'
0=
0<
1;
1K
0H
0P
#59250000
1)
1=
1P
#59500000
0)
1(
0=
1<
1H
0P
#59750000
1)
1=
1P
#60000000
0)
0(
0'
0&
1%
0=
0<
0;
0:
19
1N
0F
0K
0H
0P
#60250000
1)
1=
1P
#60500000
0)
1(
0=
1<
1H
0P
#60750000
1)
1=
1P
#61000000
0)
0(
1'
0=
0<
1;
1K
0H
0P
#61250000
1)
1=
1P
#61500000
0)
1(
0=
1<
1H
0P
#61750000
1)
1=
1P
#62000000
0)
0(
0'
1&
0=
0<
0;
1:
1F
0K
0H
0P
#62250000
1)
1=
1P
#62500000
0)
1(
0=
1<
1H
0P
#62750000
1)
1=
1P
#63000000
0)
0(
1'
0=
0<
1;
1K
0H
0P
#63250000
1)
1=
1P
#63500000
0)
1(
0=
1<
1H
0P
#63750000
1)
1=
1P
