lab 7/TASK 3/simulation/qsim/lab7_task3.msim.vcd
$comment
	File created using the following command:
		vcd file lab7_task3.msim.vcd -direction
$end
$date
	Wed Nov 08 18:01:57 2017
$end
$version
	ModelSim Version 10.5b
$end
$timescale
	1ps
$end

$scope module toggle_reg_nbit_vhd_vec_tst $end
$var wire 1 ! clk $end
$var wire 1 " D [3] $end
$var wire 1 # D [2] $end
$var wire 1 $ D [1] $end
$var wire 1 % D [0] $end
$var wire 1 & LD $end
$var wire 1 ' Q [3] $end
$var wire 1 ( Q [2] $end
$var wire 1 ) Q [1] $end
$var wire 1 * Q [0] $end
$var wire 1 + SET $end
$var wire 1 , T $end

$scope module i1 $end
$var wire 1 - gnd $end
$var wire 1 . vcc $end
$var wire 1 / unknown $end
$var wire 1 0 devoe $end
$var wire 1 1 devclrn $end
$var wire 1 2 devpor $end
$var wire 1 3 ww_devoe $end
$var wire 1 4 ww_devclrn $end
$var wire 1 5 ww_devpor $end
$var wire 1 6 ww_clk $end
$var wire 1 7 ww_SET $end
$var wire 1 8 ww_T $end
$var wire 1 9 ww_LD $end
$var wire 1 : ww_D [3] $end
$var wire 1 ; ww_D [2] $end
$var wire 1 < ww_D [1] $end
$var wire 1 = ww_D [0] $end
$var wire 1 > ww_Q [3] $end
$var wire 1 ? ww_Q [2] $end
$var wire 1 @ ww_Q [1] $end
$var wire 1 A ww_Q [0] $end
$var wire 1 B \clk~input_o\ $end
$var wire 1 C \SET~input_o\ $end
$var wire 1 D \T~input_o\ $end
$var wire 1 E \LD~input_o\ $end
$var wire 1 F \D[0]~input_o\ $end
$var wire 1 G \D[1]~input_o\ $end
$var wire 1 H \D[2]~input_o\ $end
$var wire 1 I \D[3]~input_o\ $end
$var wire 1 J \Q[0]~output_o\ $end
$var wire 1 K \Q[1]~output_o\ $end
$var wire 1 L \Q[2]~output_o\ $end
$var wire 1 M \Q[3]~output_o\ $end
$upscope $end
$upscope $end
$enddefinitions $end
#0
$dumpvars
0!
1&
1+
1,
0-
1.
x/
10
11
12
13
14
15
06
17
18
19
0B
1C
1D
1E
0F
0G
0H
0I
0J
0K
0L
0M
0"
0#
0$
0%
0:
0;
0<
0=
0>
0?
0@
0A
0'
0(
0)
0*
$end
#31250
1!
16
1B
#62500
0!
0,
06
08
0D
0B
#93750
1!
16
1B
#125000
0!
0+
06
07
0C
0B
#156250
1!
16
1B
#187500
0!
1,
06
18
1D
0B
#218750
1!
16
1B
#250000
0!
0,
0&
06
08
09
0E
0D
0B
#281250
1!
16
1B
#312500
0!
1,
1&
06
18
19
1E
1D
0B
#343750
1!
16
1B
#375000
0!
0,
06
08
0D
0B
#406250
1!
16
1B
#437500
0!
06
0B
#468750
1!
16
1B
#500000
0!
1,
0&
06
18
09
0E
1D
0B
#531250
1!
16
1B
#562500
0!
0,
1&
06
08
19
1E
0D
0B
#593750
1!
16
1B
#625000
0!
0&
06
09
0E
0B
#656250
1!
16
1B
#687500
0!
1&
06
19
1E
0B
#718750
1!
16
1B
#750000
0!
0&
06
09
0E
0B
#781250
1!
16
1B
#812500
0!
1&
06
19
1E
0B
#843750
1!
16
1B
#875000
0!
0&
1,
06
09
18
1D
0E
0B
#906250
1!
16
1B
#937500
0!
1&
0,
06
19
08
0D
1E
0B
#968750
1!
16
1B
#1000000
0!
0&
1,
06
09
18
1D
0E
0B
#1031250
1!
16
1B
#1062500
0!
1&
0,
06
19
08
0D
1E
0B
#1093750
1!
16
1B
#1125000
0!
0&
06
09
0E
0B
#1156250
1!
16
1B
#1187500
0!
1&
1,
06
19
18
1D
1E
0B
#1218750
1!
16
1B
#1250000
0!
0&
0,
06
09
08
0D
0E
0B
#1281250
1!
16
1B
#1312500
0!
1,
06
18
1D
0B
#1343750
1!
16
1B
#1375000
0!
0,
1&
06
08
19
1E
0D
0B
#1406250
1!
16
1B
#1437500
0!
06
0B
#1468750
1!
16
1B
#1500000
0!
1,
06
18
1D
0B
#1531250
1!
16
1B
#1562500
0!
0,
0&
06
08
09
0E
0D
0B
#1593750
1!
16
1B
#1625000
0!
1,
06
18
1D
0B
#1656250
1!
16
1B
#1687500
0!
0,
06
08
0D
0B
#1718750
1!
16
1B
#1750000
0!
1,
1&
06
18
19
1E
1D
0B
#1781250
1!
16
1B
#1812500
0!
0&
06
09
0E
0B
#1843750
1!
16
1B
#1875000
0!
1&
06
19
1E
0B
#1906250
1!
16
1B
#1937500
0!
0,
06
08
0D
0B
#1968750
1!
16
1B
#2000000
0!
06
0B
#2031250
1!
16
1B
#2062500
0!
0&
06
09
0E
0B
#2093750
1!
16
1B
#2125000
0!
06
0B
#2156250
1!
16
1B
#2187500
0!
1&
06
19
1E
0B
#2218750
1!
16
1B
#2250000
0!
1,
06
18
1D
0B
#2281250
1!
16
1B
#2312500
0!
0&
06
09
0E
0B
#2343750
1!
16
1B
#2375000
0!
06
0B
#2406250
1!
16
1B
#2437500
0!
06
0B
#2468750
1!
16
1B
#2500000
0!
0,
06
08
0D
0B
#2531250
1!
16
1B
#2562500
0!
1,
1&
06
18
19
1E
1D
0B
#2593750
1!
16
1B
#2625000
0!
0,
06
08
0D
0B
#2656250
1!
16
1B
#2687500
0!
1,
06
18
1D
0B
#2718750
1!
16
1B
#2750000
0!
0,
06
08
0D
0B
#2781250
1!
16
1B
#2812500
0!
0&
06
09
0E
0B
#2843750
1!
16
1B
#2875000
0!
1,
06
18
1D
0B
#2906250
1!
16
1B
#2937500
0!
0,
1&
06
08
19
1E
0D
0B
#2968750
1!
16
1B
#3000000
0!
1,
06
18
1D
0B
#3031250
1!
16
1B
#3062500
0!
0,
0&
06
08
09
0E
0D
0B
#3093750
1!
16
1B
#3125000
0!
1,
1&
06
18
19
1E
1D
0B
#3156250
1!
16
1B
#3187500
0!
0,
06
08
0D
0B
#3218750
1!
16
1B
#3250000
0!
06
0B
#3281250
1!
16
1B
#3312500
0!
06
0B
#3343750
1!
16
1B
#3375000
0!
1,
0&
06
18
09
0E
1D
0B
#3406250
1!
16
1B
#3437500
0!
06
0B
#3468750
1!
16
1B
#3500000
0!
06
0B
#3531250
1!
16
1B
#3562500
0!
1&
06
19
1E
0B
#3593750
1!
16
1B
#3625000
0!
0&
0,
06
09
08
0D
0E
0B
#3656250
1!
16
1B
#3687500
0!
06
0B
#3718750
1!
16
1B
#3750000
0!
06
0B
#3781250
1!
16
1B
#3812500
0!
1&
06
19
1E
0B
#3843750
1!
16
1B
#3875000
0!
0&
06
09
0E
0B
#3906250
1!
16
1B
#3937500
0!
1&
06
19
1E
0B
#3968750
1!
16
1B
#4000000
0!
06
0B
#4031250
1!
16
1B
#4062500
0!
06
0B
#4093750
1!
16
1B
#4125000
0!
1,
06
18
1D
0B
#4156250
1!
16
1B
#4187500
0!
06
0B
#4218750
1!
16
1B
#4250000
0!
06
0B
#4281250
1!
16
1B
#4312500
0!
0,
0&
06
08
09
0E
0D
0B
#4343750
1!
16
1B
#4375000
0!
1,
06
18
1D
0B
#4406250
1!
16
1B
#4437500
0!
1&
06
19
1E
0B
#4468750
1!
16
1B
#4500000
0!
0,
06
08
0D
0B
#4531250
1!
16
1B
#4562500
0!
06
0B
#4593750
1!
16
1B
#4625000
0!
1,
06
18
1D
0B
#4656250
1!
16
1B
#4687500
0!
0,
06
08
0D
0B
#4718750
1!
16
1B
#4750000
0!
0&
06
09
0E
0B
#4781250
1!
16
1B
#4812500
0!
1&
06
19
1E
0B
#4843750
1!
16
1B
#4875000
0!
0&
1,
06
09
18
1D
0E
0B
#4906250
1!
16
1B
#4937500
0!
0,
06
08
0D
0B
#4968750
1!
16
1B
#5000000
0!
06
0B
#5031250
1!
16
1B
#5062500
0!
06
0B
#5093750
1!
16
1B
#5125000
0!
1,
1&
06
18
19
1E
1D
0B
#5156250
1!
16
1B
#5187500
0!
0&
06
09
0E
0B
#5218750
1!
16
1B
#5250000
0!
1&
06
19
1E
0B
#5281250
1!
16
1B
#5312500
0!
0&
06
09
0E
0B
#5343750
1!
16
1B
#5375000
0!
06
0B
#5406250
1!
16
1B
#5437500
0!
0,
06
08
0D
0B
#5468750
1!
16
1B
#5500000
0!
1,
1&
06
18
19
1E
1D
0B
#5531250
1!
16
1B
#5562500
0!
06
0B
#5593750
1!
16
1B
#5625000
0!
0&
06
09
0E
0B
#5656250
1!
16
1B
#5687500
0!
1&
0,
06
19
08
0D
1E
0B
#5718750
1!
16
1B
#5750000
0!
1,
06
18
1D
0B
#5781250
1!
16
1B
#5812500
0!
0,
06
08
0D
0B
#5843750
1!
16
1B
#5875000
0!
06
0B
#5906250
1!
16
1B
#5937500
0!
1,
0&
06
18
09
0E
1D
0B
#5968750
1!
16
1B
#6000000
0!
0,
06
08
0D
0B
#6031250
1!
16
1B
#6062500
0!
1,
1&
06
18
19
1E
1D
0B
#6093750
1!
16
1B
#6125000
0!
0,
0&
06
08
09
0E
0D
0B
#6156250
1!
16
1B
#6187500
0!
1&
06
19
1E
0B
#6218750
1!
16
1B
#6250000
0!
06
0B
#6281250
1!
16
1B
#6312500
0!
1,
06
18
1D
0B
#6343750
1!
16
1B
#6375000
0!
0,
06
08
0D
0B
#6406250
1!
16
1B
#6437500
0!
1,
06
18
1D
0B
#6468750
1!
16
1B
#6500000
0!
0&
06
09
0E
0B
#6531250
1!
16
1B
#6562500
0!
1&
0,
06
19
08
0D
1E
0B
#6593750
1!
16
1B
#6625000
0!
0&
06
09
0E
0B
#6656250
1!
16
1B
#6687500
0!
1&
1,
06
19
18
1D
1E
0B
#6718750
1!
16
1B
#6750000
0!
0&
0,
06
09
08
0D
0E
0B
#6781250
1!
16
1B
#6812500
0!
1&
06
19
1E
0B
#6843750
1!
16
1B
#6875000
0!
0&
06
09
0E
0B
#6906250
1!
16
1B
#6937500
0!
06
0B
#6968750
1!
16
1B
#7000000
0!
1&
1+
06
19
17
1C
1E
0B
#7031250
1!
16
1B
#7062500
0!
0&
1,
06
09
18
1D
0E
0B
#7093750
1!
16
1B
#7125000
0!
0,
0+
06
08
07
0C
0D
0B
#7156250
1!
16
1B
#7187500
0!
06
0B
#7218750
1!
16
1B
#7250000
0!
06
0B
#7281250
1!
16
1B
#7312500
0!
1,
1&
06
18
19
1E
1D
0B
#7343750
1!
16
1B
#7375000
0!
0,
06
08
0D
0B
#7406250
1!
16
1B
#7437500
0!
06
0B
#7468750
1!
16
1B
#7500000
0!
0&
06
09
0E
0B
#7531250
1!
16
1B
#7562500
0!
1,
06
18
1D
0B
#7593750
1!
16
1B
#7625000
0!
0,
06
08
0D
0B
#7656250
1!
16
1B
#7687500
0!
06
0B
#7718750
1!
16
1B
#7750000
0!
1&
06
19
1E
0B
#7781250
1!
16
1B
#7812500
0!
1,
06
18
1D
0B
#7843750
1!
16
1B
#7875000
0!
06
0B
#7906250
1!
16
1B
#7937500
0!
0,
06
08
0D
0B
#7968750
1!
16
1B
