lab 9/task 2/simulation/qsim/lab9_task2.msim.vcd
$comment
	File created using the following command:
		vcd file lab9_task2.msim.vcd -direction
$end
$date
	Tue Dec 05 15:39:03 2017
$end
$version
	ModelSim Version 10.5b
$end
$timescale
	1ps
$end

$scope module arbite_vhd_vec_tst $end
$var wire 1 ! clk $end
$var wire 1 " G [0] $end
$var wire 1 # G [1] $end
$var wire 1 $ G [2] $end
$var wire 1 % R [0] $end
$var wire 1 & R [1] $end
$var wire 1 ' R [2] $end
$var wire 1 ( rst $end

$scope module i1 $end
$var wire 1 ) gnd $end
$var wire 1 * vcc $end
$var wire 1 + unknown $end
$var wire 1 , devoe $end
$var wire 1 - devclrn $end
$var wire 1 . devpor $end
$var wire 1 / ww_devoe $end
$var wire 1 0 ww_devclrn $end
$var wire 1 1 ww_devpor $end
$var wire 1 2 ww_clk $end
$var wire 1 3 ww_R [0] $end
$var wire 1 4 ww_R [1] $end
$var wire 1 5 ww_R [2] $end
$var wire 1 6 ww_rst $end
$var wire 1 7 ww_G [0] $end
$var wire 1 8 ww_G [1] $end
$var wire 1 9 ww_G [2] $end
$var wire 1 : \G[2]~output_o\ $end
$var wire 1 ; \G[1]~output_o\ $end
$var wire 1 < \G[0]~output_o\ $end
$var wire 1 = \clk~input_o\ $end
$var wire 1 > \R[2]~input_o\ $end
$var wire 1 ? \R[1]~input_o\ $end
$var wire 1 @ \R[0]~input_o\ $end
$var wire 1 A \Selector0~1_combout\ $end
$var wire 1 B \rst~input_o\ $end
$var wire 1 C \presentState.IDLE~q\ $end
$var wire 1 D \Selector1~0_combout\ $end
$var wire 1 E \presentState.GNT_DEV0~q\ $end
$var wire 1 F \Selector3~0_combout\ $end
$var wire 1 G \Selector2~0_combout\ $end
$var wire 1 H \presentState.GNT_DEV1~q\ $end
$var wire 1 I \Selector0~0_combout\ $end
$var wire 1 J \Selector3~1_combout\ $end
$var wire 1 K \presentState.GNT_DEV2~q\ $end
$var wire 1 L \ALT_INV_rst~input_o\ $end
$upscope $end
$upscope $end
$enddefinitions $end
#0
$dumpvars
0!
1(
0)
1*
x+
1,
1-
1.
1/
10
11
02
16
0:
0;
0<
0=
1>
0?
0@
1A
1B
0C
0D
0E
1F
0G
0H
0I
1J
0K
0L
0%
0&
1'
03
04
15
07
08
09
0"
0#
0$
$end
#25000
1!
12
1=
#50000
0!
0(
0'
1&
1%
02
06
05
14
13
1@
1?
0>
0B
0=
1L
1G
0J
1D
0F
0G
#75000
1!
12
1=
1C
1E
1<
17
1"
#100000
0!
0%
02
03
0@
0=
0D
1F
1G
#125000
1!
12
1=
0E
1H
0F
1;
0<
18
07
1#
0"
#150000
0!
1'
0&
02
15
04
0?
1>
0=
0G
1I
1J
#175000
1!
12
1=
0H
1K
1:
0;
19
08
1$
0#
#200000
0!
0'
1%
02
05
13
1@
0>
0=
0A
0J
#225000
1!
12
1=
0C
0K
0I
1D
1A
0:
09
0$
#250000
0!
1'
0%
02
15
03
0@
1>
0=
0D
1F
1J
#275000
1!
12
1=
1C
1K
1I
0F
1:
19
1$
#300000
0!
1%
02
13
1@
0=
#325000
1!
12
1=
#350000
0!
0'
02
05
0>
0=
0A
0J
#375000
1!
12
1=
0C
0K
0I
1D
1A
0:
09
0$
#400000
0!
1'
1&
02
15
14
1?
1>
0=
#425000
1!
12
1=
1C
1E
1<
17
1"
#450000
0!
0%
02
03
0@
0=
0D
1F
1G
#475000
1!
12
1=
0E
1H
0F
1;
0<
18
07
1#
0"
#500000
0!
0&
02
04
0?
0=
0G
1I
1J
#525000
1!
12
1=
0H
1K
1:
0;
19
08
1$
0#
#550000
0!
1&
1%
0'
02
05
14
13
1@
1?
0>
0=
0A
0J
#575000
1!
12
1=
0C
0K
0I
1D
1A
0:
09
0$
#600000
0!
0&
1'
02
15
04
0?
1>
0=
#625000
1!
12
1=
1C
1E
1<
17
1"
#650000
0!
1&
0'
02
05
14
1?
0>
0=
#675000
1!
12
1=
#700000
0!
0&
02
04
0?
0=
#725000
1!
12
1=
#750000
0!
1&
1'
0%
02
15
14
03
0@
1?
1>
0=
0D
1F
1G
#775000
1!
12
1=
0E
1H
0F
1;
0<
18
07
1#
0"
#800000
0!
0&
02
04
0?
0=
0G
1I
1J
#825000
1!
12
1=
0H
1K
1:
0;
19
08
1$
0#
#850000
0!
1&
1%
02
14
13
1@
1?
0=
#875000
1!
12
1=
#900000
0!
0%
02
03
0@
0=
#925000
1!
12
1=
#950000
0!
1%
0'
02
05
13
1@
0>
0=
0A
0J
#975000
1!
12
1=
0C
0K
0I
1D
1A
0:
09
0$
#1000000
0!
1'
0&
02
15
04
0?
1>
0=
#1025000
1!
12
1=
1C
1E
1<
17
1"
#1050000
0!
0'
0%
02
05
03
0@
0>
0=
0D
1F
0A
#1075000
1!
12
1=
0C
0E
0<
07
0"
#1100000
0!
1'
02
15
1>
0=
1A
1J
#1125000
1!
12
1=
1C
1K
1I
0F
1:
19
1$
#1150000
0!
0'
1&
02
05
14
1?
0>
0=
0A
0J
#1175000
1!
12
1=
0C
0K
0I
1F
1G
1A
0:
09
0$
#1200000
0!
02
0=
#1225000
1!
12
1=
1C
1H
0F
1;
18
1#
#1250000
0!
1%
02
13
1@
0=
#1275000
1!
12
1=
#1300000
0!
1'
0&
02
15
04
0?
1>
0=
0G
1I
1J
#1325000
1!
12
1=
0H
1K
1:
0;
19
08
1$
0#
#1350000
0!
0'
1&
0%
02
05
14
03
0@
1?
0>
0=
0A
0J
#1375000
1!
12
1=
0C
0K
0I
1F
1G
1A
0:
09
0$
#1400000
0!
1%
02
13
1@
0=
1D
0F
0G
#1425000
1!
12
1=
1C
1E
1<
17
1"
#1450000
0!
1'
0&
02
15
04
0?
1>
0=
#1475000
1!
12
1=
#1500000
0!
1&
0%
02
14
03
0@
1?
0=
0D
1F
1G
#1525000
1!
12
1=
0E
1H
0F
1;
0<
18
07
1#
0"
#1550000
0!
1%
0'
02
05
13
1@
0>
0=
#1575000
1!
12
1=
#1600000
0!
0%
0&
02
04
03
0@
0?
0=
0G
1I
0A
#1625000
1!
12
1=
0C
0H
0I
1F
0;
08
0#
#1650000
0!
1%
1&
1'
02
15
14
13
1@
1?
1>
0=
1A
1G
1D
0F
0G
#1675000
1!
12
1=
1C
1E
1<
17
1"
#1700000
0!
02
0=
#1725000
1!
12
1=
#1750000
0!
0'
02
05
0>
0=
#1775000
1!
12
1=
#1800000
0!
1'
0%
02
15
03
0@
1>
0=
0D
1F
1G
#1825000
1!
12
1=
0E
1H
0F
1;
0<
18
07
1#
0"
#1850000
0!
1%
0&
02
04
13
1@
0?
0=
0G
1I
1J
#1875000
1!
12
1=
0H
1K
1:
0;
19
08
1$
0#
#1900000
0!
1&
02
14
1?
0=
#1925000
1!
12
1=
#1950000
0!
0%
02
03
0@
0=
#1975000
1!
12
1=
#2000000
0!
1%
02
13
1@
0=
#2025000
1!
12
1=
#2050000
0!
0%
02
03
0@
0=
#2075000
1!
12
1=
#2100000
0!
0&
0'
02
05
04
0?
0>
0=
0A
0J
#2125000
1!
12
1=
0C
0K
0I
1F
0:
09
0$
#2150000
0!
1&
1'
02
15
14
1?
1>
0=
1A
1G
#2175000
1!
12
1=
1C
1H
0F
1;
18
1#
#2200000
0!
02
0=
#2225000
1!
12
1=
#2250000
0!
0'
1%
02
05
13
1@
0>
0=
#2275000
1!
12
1=
#2300000
0!
1'
0&
02
15
04
0?
1>
0=
0G
1I
1J
#2325000
1!
12
1=
0H
1K
1:
0;
19
08
1$
0#
#2350000
0!
0'
02
05
0>
0=
0A
0J
#2375000
1!
12
1=
0C
0K
0I
1D
1A
0:
09
0$
#2400000
0!
1&
0%
02
14
03
0@
1?
0=
0D
1F
1G
#2425000
1!
12
1=
1C
1H
0F
1;
18
1#
#2450000
0!
02
0=
#2475000
1!
12
1=
#2500000
0!
0&
1%
1'
02
15
04
13
1@
0?
1>
0=
0G
1I
1J
#2525000
1!
12
1=
0H
1K
1:
0;
19
08
1$
0#
#2550000
0!
1&
0%
0'
02
05
14
03
0@
1?
0>
0=
0A
0J
#2575000
1!
12
1=
0C
0K
0I
1F
1G
1A
0:
09
0$
#2600000
0!
02
0=
#2625000
1!
12
1=
1C
1H
0F
1;
18
1#
#2650000
0!
1%
1'
02
15
13
1@
1>
0=
#2675000
1!
12
1=
#2700000
0!
0%
02
03
0@
0=
#2725000
1!
12
1=
#2750000
0!
1%
02
13
1@
0=
#2775000
1!
12
1=
#2800000
0!
02
0=
#2825000
1!
12
1=
#2850000
0!
0%
0'
0&
02
05
04
03
0@
0?
0>
0=
0G
1I
0A
#2875000
1!
12
1=
0C
0H
0I
1F
0;
08
0#
#2900000
0!
1%
1'
02
15
13
1@
1>
0=
1A
1J
1D
0F
0J
#2925000
1!
12
1=
1C
1E
1<
17
1"
#2950000
0!
0%
1&
02
14
03
0@
1?
0=
0D
1F
1G
#2975000
1!
12
1=
0E
1H
0F
1;
0<
18
07
1#
0"
#3000000
0!
1%
0&
02
04
13
1@
0?
0=
0G
1I
1J
#3025000
1!
12
1=
0H
1K
1:
0;
19
08
1$
0#
#3050000
0!
0%
1&
0'
02
05
14
03
0@
1?
0>
0=
0A
0J
#3075000
1!
12
1=
0C
0K
0I
1F
1G
1A
0:
09
0$
#3100000
0!
0&
1'
02
15
04
0?
1>
0=
0G
1J
#3125000
1!
12
1=
1C
1K
1I
0F
1:
19
1$
#3150000
0!
1&
0'
1%
02
05
14
13
1@
1?
0>
0=
0A
0J
#3175000
1!
12
1=
0C
0K
0I
1D
1A
0:
09
0$
#3200000
0!
1'
0%
02
15
03
0@
1>
0=
0D
1F
1G
#3225000
1!
12
1=
1C
1H
0F
1;
18
1#
#3250000
0!
1%
0&
02
04
13
1@
0?
0=
0G
1I
1J
#3275000
1!
12
1=
0H
1K
1:
0;
19
08
1$
0#
#3300000
0!
1&
0'
02
05
14
1?
0>
0=
0A
0J
#3325000
1!
12
1=
0C
0K
0I
1D
1A
0:
09
0$
#3350000
0!
1'
02
15
1>
0=
#3375000
1!
12
1=
1C
1E
1<
17
1"
#3400000
0!
0'
0%
02
05
03
0@
0>
0=
0D
1F
1G
#3425000
1!
12
1=
0E
1H
0F
1;
0<
18
07
1#
0"
#3450000
0!
1%
0&
02
04
13
1@
0?
0=
0G
1I
0A
#3475000
1!
12
1=
0C
0H
0I
1D
1A
0;
08
0#
#3500000
0!
0%
1&
02
14
03
0@
1?
0=
0D
1F
1G
#3525000
1!
12
1=
1C
1H
0F
1;
18
1#
#3550000
0!
1%
02
13
1@
0=
#3575000
1!
12
1=
#3600000
0!
0&
02
04
0?
0=
0G
1I
0A
#3625000
1!
12
1=
0C
0H
0I
1D
1A
0;
08
0#
#3650000
0!
1&
0%
1'
02
15
14
03
0@
1?
1>
0=
0D
1F
1G
#3675000
1!
12
1=
1C
1H
0F
1;
18
1#
#3700000
0!
1%
0'
02
05
13
1@
0>
0=
#3725000
1!
12
1=
#3750000
0!
1'
0&
02
15
04
0?
1>
0=
0G
1I
1J
#3775000
1!
12
1=
0H
1K
1:
0;
19
08
1$
0#
#3800000
0!
1&
0%
02
14
03
0@
1?
0=
#3825000
1!
12
1=
#3850000
0!
0&
1%
0'
02
05
04
13
1@
0?
0>
0=
0A
0J
#3875000
1!
12
1=
0C
0K
0I
1D
1A
0:
09
0$
#3900000
0!
02
0=
#3925000
1!
12
1=
1C
1E
1<
17
1"
#3950000
0!
1&
1'
02
15
14
1?
1>
0=
#3975000
1!
12
1=
