lab 3/task 1/simulation/qsim/lab3_tassk1.msim.vcd
$comment
	File created using the following command:
		vcd file lab3_tassk1.msim.vcd -direction
$end
$date
	Thu Oct 12 17:54:10 2017
$end
$version
	ModelSim Version 10.5b
$end
$timescale
	1ps
$end

$scope module compare_signed_2bit_vhd_vec_tst $end
$var wire 1 ! A [1] $end
$var wire 1 " A [0] $end
$var wire 1 # B [1] $end
$var wire 1 $ B [0] $end
$var wire 1 % E $end
$var wire 1 & G $end
$var wire 1 ' L $end

$scope module i1 $end
$var wire 1 ( gnd $end
$var wire 1 ) vcc $end
$var wire 1 * unknown $end
$var wire 1 + devoe $end
$var wire 1 , devclrn $end
$var wire 1 - devpor $end
$var wire 1 . ww_devoe $end
$var wire 1 / ww_devclrn $end
$var wire 1 0 ww_devpor $end
$var wire 1 1 ww_A [1] $end
$var wire 1 2 ww_A [0] $end
$var wire 1 3 ww_B [1] $end
$var wire 1 4 ww_B [0] $end
$var wire 1 5 ww_L $end
$var wire 1 6 ww_E $end
$var wire 1 7 ww_G $end
$var wire 1 8 \L~output_o\ $end
$var wire 1 9 \E~output_o\ $end
$var wire 1 : \G~output_o\ $end
$var wire 1 ; \B[0]~input_o\ $end
$var wire 1 < \A[1]~input_o\ $end
$var wire 1 = \A[0]~input_o\ $end
$var wire 1 > \B[1]~input_o\ $end
$var wire 1 ? \mux0|f~0_combout\ $end
$var wire 1 @ \E~0_combout\ $end
$var wire 1 A \mux1|f~0_combout\ $end
$var wire 1 B \ALT_INV_E~0_combout\ $end
$upscope $end
$upscope $end
$enddefinitions $end
#0
$dumpvars
0%
0&
0'
0(
1)
x*
1+
1,
1-
1.
1/
10
05
06
07
08
09
0:
x;
x<
x=
x>
x?
x@
xA
xB
0!
0"
0#
0$
01
02
03
04
$end
#761
0;
0<
0=
0>
#3148
x9
x6
x%
#3634
x8
x5
x'
#4213
0?
#4412
x:
x7
x&
#4422
0A
0@
1B
#7570
19
16
1%
#7823
08
05
0'
#8901
0:
07
0&
#125000
1$
14
#125596
1;
#128744
1@
0B
#128745
1?
#131882
09
06
0%
#132370
18
15
1'
#250000
0$
1#
04
13
#250596
1>
#250761
0;
#253214
0?
#253224
1A
#256824
08
05
0'
#257636
1:
17
1&
#375000
1$
14
#375596
1;
#500000
0$
0#
1"
04
03
12
#500596
1=
#500761
0>
0;
#503633
0A
#503639
1?
#503979
0@
0?
1B
#504194
1A
#504211
1@
0B
#507127
19
16
1%
#507264
18
15
1'
#507349
09
06
0%
#507589
08
05
0'
#508112
0:
07
0&
#508606
1:
17
1&
#625000
1$
14
#625596
1;
#628728
0A
#628739
0@
1B
#631887
19
16
1%
#633207
0:
07
0&
#750000
0$
1#
04
13
#750596
1>
#750761
0;
#753224
1A
1@
0B
#756362
09
06
0%
#757636
1:
17
1&
#875000
1$
14
#875596
1;
#1000000
0$
0#
0"
1!
04
03
02
11
#1000596
1<
#1000761
0=
0>
0;
#1003633
0A
#1003639
1?
#1007264
18
15
1'
#1008112
0:
07
0&
#1125000
1$
14
#1125596
1;
#1250000
0$
1#
04
13
#1250596
1>
#1250761
0;
#1254202
0?
#1254206
0@
1B
#1257354
19
16
1%
#1257812
08
05
0'
#1375000
1$
14
#1375596
1;
#1378744
1@
0B
#1378745
1?
#1381882
09
06
0%
#1382370
18
15
1'
#1500000
0$
0#
1"
04
03
12
#1500596
1=
#1500761
0>
0;
#1625000
1$
14
#1625596
1;
#1750000
0$
1#
04
13
#1750596
1>
#1750761
0;
#1753214
0@
0?
1B
#1754194
1A
#1754211
1@
0B
#1756362
19
16
1%
#1756824
08
05
0'
#1757349
09
06
0%
#1758606
1:
17
1&
#1875000
1$
14
#1875596
1;
#1878728
0A
#1878739
0@
1B
#1881887
19
16
1%
#1883207
0:
07
0&
