lab 8/task 2/simulation/qsim/lab8_task2.msim.vcd
$comment
	File created using the following command:
		vcd file lab8_task2.msim.vcd -direction
$end
$date
	Tue Nov 21 14:44:17 2017
$end
$version
	ModelSim Version 10.5b
$end
$timescale
	1ps
$end

$scope module ring_count_nbit_vhd_vec_tst $end
$var wire 1 ! clk $end
$var wire 1 " en $end
$var wire 1 # Q [1] $end
$var wire 1 $ Q [0] $end
$var wire 1 % rst $end

$scope module i1 $end
$var wire 1 & gnd $end
$var wire 1 ' vcc $end
$var wire 1 ( unknown $end
$var wire 1 ) devoe $end
$var wire 1 * devclrn $end
$var wire 1 + devpor $end
$var wire 1 , ww_devoe $end
$var wire 1 - ww_devclrn $end
$var wire 1 . ww_devpor $end
$var wire 1 / ww_clk $end
$var wire 1 0 ww_en $end
$var wire 1 1 ww_rst $end
$var wire 1 2 ww_Q [1] $end
$var wire 1 3 ww_Q [0] $end
$var wire 1 4 \Q[0]~output_o\ $end
$var wire 1 5 \Q[1]~output_o\ $end
$var wire 1 6 \clk~input_o\ $end
$var wire 1 7 \Qtemp[1]~1_combout\ $end
$var wire 1 8 \rst~input_o\ $end
$var wire 1 9 \en~input_o\ $end
$var wire 1 : \Qtemp[0]~0_combout\ $end
$var wire 1 ; Qtemp [1] $end
$var wire 1 < Qtemp [0] $end
$var wire 1 = \ALT_INV_rst~input_o\ $end
$var wire 1 > ALT_INV_Qtemp [1] $end
$upscope $end
$upscope $end
$enddefinitions $end
#0
$dumpvars
0!
0"
1%
0&
1'
x(
1)
1*
1+
1,
1-
1.
0/
00
11
04
15
06
17
18
09
1:
0=
12
03
0;
0<
1>
1#
0$
$end
#62500
1!
1/
16
#125000
0!
1"
0%
0/
10
01
08
19
06
1=
#187500
1!
0"
1/
00
09
16
#250000
0!
1"
0/
10
19
06
#312500
1!
1/
16
1;
1<
0>
07
0:
14
05
13
02
1$
0#
#375000
0!
0/
06
#437500
1!
0"
1/
00
09
16
#500000
0!
1"
0/
10
19
06
#562500
1!
0"
1/
00
09
16
#625000
0!
1"
0/
10
19
06
#687500
1!
1/
16
0;
0<
1>
17
1:
04
15
03
12
0$
1#
#750000
0!
0"
0/
00
09
06
#812500
1!
1/
16
#875000
0!
0/
06
#937500
1!
1"
1/
10
19
16
1;
1<
0>
07
0:
14
05
13
02
1$
0#
#1000000
0!
0/
06
#1062500
1!
1/
16
0;
0<
1>
17
1:
04
15
03
12
0$
1#
#1125000
0!
0/
06
#1187500
1!
1/
16
1;
1<
0>
07
0:
14
05
13
02
1$
0#
#1250000
0!
0"
0/
00
09
06
#1312500
1!
1/
16
#1375000
0!
1"
0/
10
19
06
#1437500
1!
1/
16
0;
0<
1>
17
1:
04
15
03
12
0$
1#
#1500000
0!
0"
0/
00
09
06
#1562500
1!
1/
16
#1625000
0!
1"
0/
10
19
06
#1687500
1!
0"
1/
00
09
16
#1750000
0!
1"
0/
10
19
06
#1812500
1!
1/
16
1;
1<
0>
07
0:
14
05
13
02
1$
0#
#1875000
0!
0/
06
#1937500
1!
0"
1/
00
09
16
#2000000
0!
0/
06
#2062500
1!
1"
1/
10
19
16
0;
0<
1>
17
1:
04
15
03
12
0$
1#
#2125000
0!
0/
06
#2187500
1!
1/
16
1;
1<
0>
07
0:
14
05
13
02
1$
0#
#2250000
0!
0/
06
#2312500
1!
0"
1/
00
09
16
#2375000
0!
1"
0/
10
19
06
#2437500
1!
1/
16
0;
0<
1>
17
1:
04
15
03
12
0$
1#
#2500000
0!
0/
06
#2562500
1!
1/
16
1;
1<
0>
07
0:
14
05
13
02
1$
0#
#2625000
0!
0"
0/
00
09
06
#2687500
1!
1/
16
#2750000
0!
0/
06
#2812500
1!
1/
16
#2875000
0!
1"
0/
10
19
06
#2937500
1!
0"
1/
00
09
16
#3000000
0!
1"
0/
10
19
06
#3062500
1!
1/
16
0;
0<
1>
17
1:
04
15
03
12
0$
1#
#3125000
0!
0/
06
#3187500
1!
1/
16
1;
1<
0>
07
0:
14
05
13
02
1$
0#
#3250000
0!
0"
0/
00
09
06
#3312500
1!
1"
1/
10
19
16
0;
0<
1>
17
1:
04
15
03
12
0$
1#
#3375000
0!
0"
0/
00
09
06
#3437500
1!
1/
16
#3500000
0!
1"
0/
10
19
06
#3562500
1!
1/
16
1;
1<
0>
07
0:
14
05
13
02
1$
0#
#3625000
0!
0/
06
#3687500
1!
1/
16
0;
0<
1>
17
1:
04
15
03
12
0$
1#
#3750000
0!
0"
0/
00
09
06
#3812500
1!
1"
1/
10
19
16
1;
1<
0>
07
0:
14
05
13
02
1$
0#
#3875000
0!
0/
06
#3937500
1!
0"
1/
00
09
16
#4000000
0!
1"
0/
10
19
06
#4062500
1!
0"
1/
00
09
16
#4125000
0!
0/
06
#4187500
1!
1/
16
#4250000
0!
0/
06
#4312500
1!
1"
1/
10
19
16
0;
0<
1>
17
1:
04
15
03
12
0$
1#
#4375000
0!
0"
0/
00
09
06
#4437500
1!
1"
1/
10
19
16
1;
1<
0>
07
0:
14
05
13
02
1$
0#
#4500000
0!
0"
0/
00
09
06
#4562500
1!
1/
16
#4625000
0!
1"
0/
10
19
06
#4687500
1!
0"
1/
00
09
16
#4750000
0!
1"
0/
10
19
06
#4812500
1!
1/
16
0;
0<
1>
17
1:
04
15
03
12
0$
1#
#4875000
0!
0/
06
#4937500
1!
1/
16
1;
1<
0>
07
0:
14
05
13
02
1$
0#
#5000000
0!
0"
0/
00
09
06
#5062500
1!
1/
16
#5125000
0!
0/
06
#5187500
1!
1"
1/
10
19
16
0;
0<
1>
17
1:
04
15
03
12
0$
1#
#5250000
0!
0"
0/
00
09
06
#5312500
1!
1/
16
#5375000
0!
1"
0/
10
19
06
#5437500
1!
1/
16
1;
1<
0>
07
0:
14
05
13
02
1$
0#
#5500000
0!
0/
06
#5562500
1!
1/
16
0;
0<
1>
17
1:
04
15
03
12
0$
1#
#5625000
0!
0"
0/
00
09
06
#5687500
1!
1"
1/
10
19
16
1;
1<
0>
07
0:
14
05
13
02
1$
0#
#5750000
0!
0/
06
#5812500
1!
0"
1/
00
09
16
#5875000
0!
1"
0/
10
19
06
#5937500
1!
1/
16
0;
0<
1>
17
1:
04
15
03
12
0$
1#
#6000000
0!
0"
0/
00
09
06
#6062500
1!
1/
16
#6125000
0!
1"
0/
10
19
06
#6187500
1!
1/
16
1;
1<
0>
07
0:
14
05
13
02
1$
0#
#6250000
0!
0/
06
#6312500
1!
1/
16
0;
0<
1>
17
1:
04
15
03
12
0$
1#
#6375000
0!
0/
06
#6437500
1!
0"
1/
00
09
16
#6500000
0!
1"
0/
10
19
06
#6562500
1!
0"
1/
00
09
16
#6625000
0!
1"
0/
10
19
06
#6687500
1!
1/
16
1;
1<
0>
07
0:
14
05
13
02
1$
0#
#6750000
0!
0"
0/
00
09
06
#6812500
1!
1/
16
#6875000
0!
0/
06
#6937500
1!
1/
16
#7000000
0!
0/
06
#7062500
1!
1"
1/
10
19
16
0;
0<
1>
17
1:
04
15
03
12
0$
1#
#7125000
0!
0"
1%
0/
00
11
18
09
06
0=
#7187500
1!
1/
16
#7250000
0!
0%
0/
01
08
06
1=
#7312500
1!
1"
1/
10
19
16
1;
1<
0>
07
0:
14
05
13
02
1$
0#
#7375000
0!
0"
0/
00
09
06
#7437500
1!
1/
16
#7500000
0!
0/
06
#7562500
1!
1"
1/
10
19
16
0;
0<
1>
17
1:
04
15
03
12
0$
1#
#7625000
0!
0/
06
#7687500
1!
0"
1/
00
09
16
#7750000
0!
1"
0/
10
19
06
#7812500
1!
1/
16
1;
1<
0>
07
0:
14
05
13
02
1$
0#
#7875000
0!
0/
06
#7937500
1!
1/
16
0;
0<
1>
17
1:
04
15
03
12
0$
1#
