lab 8/task 2/simulation/qsim/lab8_task2.msim.vcd
$comment
	File created using the following command:
		vcd file lab8_task2.msim.vcd -direction
$end
$date
	Mon Nov 13 17:12:49 2017
$end
$version
	ModelSim Version 10.5b
$end
$timescale
	1ps
$end

$scope module ring_count_nbit_vhd_vec_tst $end
$var wire 1 ! clk $end
$var wire 1 " en $end
$var wire 1 # Q [8] $end
$var wire 1 $ Q [7] $end
$var wire 1 % Q [6] $end
$var wire 1 & Q [5] $end
$var wire 1 ' Q [4] $end
$var wire 1 ( Q [3] $end
$var wire 1 ) Q [2] $end
$var wire 1 * Q [1] $end
$var wire 1 + Q [0] $end
$var wire 1 , rst $end

$scope module i1 $end
$var wire 1 - gnd $end
$var wire 1 . vcc $end
$var wire 1 / unknown $end
$var wire 1 0 devoe $end
$var wire 1 1 devclrn $end
$var wire 1 2 devpor $end
$var wire 1 3 ww_devoe $end
$var wire 1 4 ww_devclrn $end
$var wire 1 5 ww_devpor $end
$var wire 1 6 ww_clk $end
$var wire 1 7 ww_en $end
$var wire 1 8 ww_rst $end
$var wire 1 9 ww_Q [8] $end
$var wire 1 : ww_Q [7] $end
$var wire 1 ; ww_Q [6] $end
$var wire 1 < ww_Q [5] $end
$var wire 1 = ww_Q [4] $end
$var wire 1 > ww_Q [3] $end
$var wire 1 ? ww_Q [2] $end
$var wire 1 @ ww_Q [1] $end
$var wire 1 A ww_Q [0] $end
$var wire 1 B \en~input_o\ $end
$var wire 1 C \Q[0]~output_o\ $end
$var wire 1 D \Q[1]~output_o\ $end
$var wire 1 E \Q[2]~output_o\ $end
$var wire 1 F \Q[3]~output_o\ $end
$var wire 1 G \Q[4]~output_o\ $end
$var wire 1 H \Q[5]~output_o\ $end
$var wire 1 I \Q[6]~output_o\ $end
$var wire 1 J \Q[7]~output_o\ $end
$var wire 1 K \Q[8]~output_o\ $end
$var wire 1 L \clk~input_o\ $end
$var wire 1 M \Qtemp[7]~1_combout\ $end
$var wire 1 N \rst~input_o\ $end
$var wire 1 O \Qtemp[6]~0_combout\ $end
$var wire 1 P Qtemp [8] $end
$var wire 1 Q Qtemp [7] $end
$var wire 1 R Qtemp [6] $end
$var wire 1 S Qtemp [5] $end
$var wire 1 T Qtemp [4] $end
$var wire 1 U Qtemp [3] $end
$var wire 1 V Qtemp [2] $end
$var wire 1 W Qtemp [1] $end
$var wire 1 X Qtemp [0] $end
$var wire 1 Y ALT_INV_Qtemp [7] $end
$var wire 1 Z \ALT_INV_rst~input_o\ $end
$upscope $end
$upscope $end
$enddefinitions $end
#0
$dumpvars
0!
0"
1,
0-
1.
x/
10
11
12
13
14
15
06
07
18
0B
0C
0D
0E
0F
0G
0H
0I
1J
0K
0L
1M
1N
1O
0Z
09
1:
0;
0<
0=
0>
0?
0@
0A
xP
0Q
0R
0S
0T
0U
0V
0W
0X
1Y
0#
1$
0%
0&
0'
0(
0)
0*
0+
$end
#62500
1!
16
1L
#125000
0!
1"
0,
06
17
08
0N
1B
0L
1Z
#187500
1!
0"
16
07
0B
1L
1Q
1R
0Y
0O
1I
0J
1;
0:
1%
0$
#250000
0!
1"
06
17
1B
0L
#312500
1!
16
1L
0R
1S
1H
0I
1<
0;
1&
0%
#375000
0!
06
0L
#437500
1!
0"
16
07
0B
1L
0S
1T
1G
0H
1=
0<
1'
0&
#500000
0!
1"
06
17
1B
0L
#562500
1!
0"
16
07
0B
1L
0T
1U
1F
0G
1>
0=
1(
0'
#625000
0!
1"
06
17
1B
0L
#687500
1!
16
1L
0U
1V
1E
0F
1?
0>
1)
0(
#750000
0!
0"
06
07
0B
0L
#812500
1!
16
1L
0V
1W
1D
0E
1@
0?
1*
0)
#875000
0!
06
0L
#937500
1!
1"
16
17
1B
1L
0W
1X
0M
1C
0D
1A
0@
1+
0*
#1000000
0!
06
0L
#1062500
1!
16
1L
0Q
0X
1Y
1M
1O
0C
1J
0A
1:
0+
1$
#1125000
0!
06
0L
#1187500
1!
16
1L
1Q
1R
0Y
0O
1I
0J
1;
0:
1%
0$
#1250000
0!
0"
06
07
0B
0L
#1312500
1!
16
1L
0R
1S
1H
0I
1<
0;
1&
0%
#1375000
0!
1"
06
17
1B
0L
#1437500
1!
16
1L
0S
1T
1G
0H
1=
0<
1'
0&
#1500000
0!
0"
06
07
0B
0L
#1562500
1!
16
1L
0T
1U
1F
0G
1>
0=
1(
0'
#1625000
0!
1"
06
17
1B
0L
#1687500
1!
0"
16
07
0B
1L
0U
1V
1E
0F
1?
0>
1)
0(
#1750000
0!
1"
06
17
1B
0L
#1812500
1!
16
1L
0V
1W
1D
0E
1@
0?
1*
0)
#1875000
0!
06
0L
#1937500
1!
0"
16
07
0B
1L
0W
1X
0M
1C
0D
1A
0@
1+
0*
#2000000
0!
06
0L
#2062500
1!
1"
16
17
1B
1L
0Q
0X
1Y
1M
1O
0C
1J
0A
1:
0+
1$
#2125000
0!
06
0L
#2187500
1!
16
1L
1Q
1R
0Y
0O
1I
0J
1;
0:
1%
0$
#2250000
0!
06
0L
#2312500
1!
0"
16
07
0B
1L
0R
1S
1H
0I
1<
0;
1&
0%
#2375000
0!
1"
06
17
1B
0L
#2437500
1!
16
1L
0S
1T
1G
0H
1=
0<
1'
0&
#2500000
0!
06
0L
#2562500
1!
16
1L
0T
1U
1F
0G
1>
0=
1(
0'
#2625000
0!
0"
06
07
0B
0L
#2687500
1!
16
1L
0U
1V
1E
0F
1?
0>
1)
0(
#2750000
0!
06
0L
#2812500
1!
16
1L
0V
1W
1D
0E
1@
0?
1*
0)
#2875000
0!
1"
06
17
1B
0L
#2937500
1!
0"
16
07
0B
1L
0W
1X
0M
1C
0D
1A
0@
1+
0*
#3000000
0!
1"
06
17
1B
0L
#3062500
1!
16
1L
0Q
0X
1Y
1M
1O
0C
1J
0A
1:
0+
1$
#3125000
0!
06
0L
#3187500
1!
16
1L
1Q
1R
0Y
0O
1I
0J
1;
0:
1%
0$
#3250000
0!
0"
06
07
0B
0L
#3312500
1!
1"
16
17
1B
1L
0R
1S
1H
0I
1<
0;
1&
0%
#3375000
0!
0"
06
07
0B
0L
#3437500
1!
16
1L
0S
1T
1G
0H
1=
0<
1'
0&
#3500000
0!
1"
06
17
1B
0L
#3562500
1!
16
1L
0T
1U
1F
0G
1>
0=
1(
0'
#3625000
0!
06
0L
#3687500
1!
16
1L
0U
1V
1E
0F
1?
0>
1)
0(
#3750000
0!
0"
06
07
0B
0L
#3812500
1!
1"
16
17
1B
1L
0V
1W
1D
0E
1@
0?
1*
0)
#3875000
0!
06
0L
#3937500
1!
0"
16
07
0B
1L
0W
1X
0M
1C
0D
1A
0@
1+
0*
#4000000
0!
1"
06
17
1B
0L
#4062500
1!
0"
16
07
0B
1L
0Q
0X
1Y
1M
1O
0C
1J
0A
1:
0+
1$
#4125000
0!
06
0L
#4187500
1!
16
1L
1Q
1R
0Y
0O
1I
0J
1;
0:
1%
0$
#4250000
0!
06
0L
#4312500
1!
1"
16
17
1B
1L
0R
1S
1H
0I
1<
0;
1&
0%
#4375000
0!
0"
06
07
0B
0L
#4437500
1!
1"
16
17
1B
1L
0S
1T
1G
0H
1=
0<
1'
0&
#4500000
0!
0"
06
07
0B
0L
#4562500
1!
16
1L
0T
1U
1F
0G
1>
0=
1(
0'
#4625000
0!
1"
06
17
1B
0L
#4687500
1!
0"
16
07
0B
1L
0U
1V
1E
0F
1?
0>
1)
0(
#4750000
0!
1"
06
17
1B
0L
#4812500
1!
16
1L
0V
1W
1D
0E
1@
0?
1*
0)
#4875000
0!
06
0L
#4937500
1!
16
1L
0W
1X
0M
1C
0D
1A
0@
1+
0*
#5000000
0!
0"
06
07
0B
0L
#5062500
1!
16
1L
0Q
0X
1Y
1M
1O
0C
1J
0A
1:
0+
1$
#5125000
0!
06
0L
#5187500
1!
1"
16
17
1B
1L
1Q
1R
0Y
0O
1I
0J
1;
0:
1%
0$
#5250000
0!
0"
06
07
0B
0L
#5312500
1!
16
1L
0R
1S
1H
0I
1<
0;
1&
0%
#5375000
0!
1"
06
17
1B
0L
#5437500
1!
16
1L
0S
1T
1G
0H
1=
0<
1'
0&
#5500000
0!
06
0L
#5562500
1!
16
1L
0T
1U
1F
0G
1>
0=
1(
0'
#5625000
0!
0"
06
07
0B
0L
#5687500
1!
1"
16
17
1B
1L
0U
1V
1E
0F
1?
0>
1)
0(
#5750000
0!
06
0L
#5812500
1!
0"
16
07
0B
1L
0V
1W
1D
0E
1@
0?
1*
0)
#5875000
0!
1"
06
17
1B
0L
#5937500
1!
16
1L
0W
1X
0M
1C
0D
1A
0@
1+
0*
#6000000
0!
0"
06
07
0B
0L
#6062500
1!
16
1L
0Q
0X
1Y
1M
1O
0C
1J
0A
1:
0+
1$
#6125000
0!
1"
06
17
1B
0L
#6187500
1!
16
1L
1Q
1R
0Y
0O
1I
0J
1;
0:
1%
0$
#6250000
0!
06
0L
#6312500
1!
16
1L
0R
1S
1H
0I
1<
0;
1&
0%
#6375000
0!
06
0L
#6437500
1!
0"
16
07
0B
1L
0S
1T
1G
0H
1=
0<
1'
0&
#6500000
0!
1"
06
17
1B
0L
#6562500
1!
0"
16
07
0B
1L
0T
1U
1F
0G
1>
0=
1(
0'
#6625000
0!
1"
06
17
1B
0L
#6687500
1!
16
1L
0U
1V
1E
0F
1?
0>
1)
0(
#6750000
0!
0"
06
07
0B
0L
#6812500
1!
16
1L
0V
1W
1D
0E
1@
0?
1*
0)
#6875000
0!
06
0L
#6937500
1!
16
1L
0W
1X
0M
1C
0D
1A
0@
1+
0*
#7000000
0!
06
0L
#7062500
1!
1"
16
17
1B
1L
0Q
0X
1Y
1M
1O
0C
1J
0A
1:
0+
1$
#7125000
0!
0"
1,
06
07
18
1N
0B
0L
0Z
#7187500
1!
16
1L
#7250000
0!
0,
06
08
0N
0L
1Z
#7312500
1!
1"
16
17
1B
1L
1Q
1R
0Y
0O
1I
0J
1;
0:
1%
0$
#7375000
0!
0"
06
07
0B
0L
#7437500
1!
16
1L
0R
1S
1H
0I
1<
0;
1&
0%
#7500000
0!
06
0L
#7562500
1!
1"
16
17
1B
1L
0S
1T
1G
0H
1=
0<
1'
0&
#7625000
0!
06
0L
#7687500
1!
0"
16
07
0B
1L
0T
1U
1F
0G
1>
0=
1(
0'
#7750000
0!
1"
06
17
1B
0L
#7812500
1!
16
1L
0U
1V
1E
0F
1?
0>
1)
0(
#7875000
0!
06
0L
#7937500
1!
16
1L
0V
1W
1D
0E
1@
0?
1*
0)
