lab 8/task 1/simulation/qsim/lab8_task1.msim.vcd
$comment
	File created using the following command:
		vcd file lab8_task1.msim.vcd -direction
$end
$date
	Wed Nov 15 16:48:05 2017
$end
$version
	ModelSim Version 10.5b
$end
$timescale
	1ps
$end

$scope module super_reg_nbit_vhd_vec_tst $end
$var wire 1 ! clk $end
$var wire 1 " D [2] $end
$var wire 1 # D [1] $end
$var wire 1 $ D [0] $end
$var wire 1 % en $end
$var wire 1 & load $end
$var wire 1 ' op [2] $end
$var wire 1 ( op [1] $end
$var wire 1 ) op [0] $end
$var wire 1 * Q [2] $end
$var wire 1 + Q [1] $end
$var wire 1 , Q [0] $end
$var wire 1 - rst $end
$var wire 1 . SLout $end
$var wire 1 / SRout $end
$var wire 1 0 TC $end

$scope module i1 $end
$var wire 1 1 gnd $end
$var wire 1 2 vcc $end
$var wire 1 3 unknown $end
$var wire 1 4 devoe $end
$var wire 1 5 devclrn $end
$var wire 1 6 devpor $end
$var wire 1 7 ww_devoe $end
$var wire 1 8 ww_devclrn $end
$var wire 1 9 ww_devpor $end
$var wire 1 : ww_clk $end
$var wire 1 ; ww_en $end
$var wire 1 < ww_rst $end
$var wire 1 = ww_load $end
$var wire 1 > ww_op [2] $end
$var wire 1 ? ww_op [1] $end
$var wire 1 @ ww_op [0] $end
$var wire 1 A ww_D [2] $end
$var wire 1 B ww_D [1] $end
$var wire 1 C ww_D [0] $end
$var wire 1 D ww_Q [2] $end
$var wire 1 E ww_Q [1] $end
$var wire 1 F ww_Q [0] $end
$var wire 1 G ww_SLout $end
$var wire 1 H ww_SRout $end
$var wire 1 I ww_TC $end
$var wire 1 J \Q[0]~output_o\ $end
$var wire 1 K \Q[1]~output_o\ $end
$var wire 1 L \Q[2]~output_o\ $end
$var wire 1 M \SLout~output_o\ $end
$var wire 1 N \SRout~output_o\ $end
$var wire 1 O \TC~output_o\ $end
$var wire 1 P \clk~input_o\ $end
$var wire 1 Q \load~input_o\ $end
$var wire 1 R \D[0]~input_o\ $end
$var wire 1 S \op[1]~input_o\ $end
$var wire 1 T \op[2]~input_o\ $end
$var wire 1 U \D[1]~input_o\ $end
$var wire 1 V \op[0]~input_o\ $end
$var wire 1 W \Qtemp~3_combout\ $end
$var wire 1 X \D[2]~input_o\ $end
$var wire 1 Y \Mux2~0_combout\ $end
$var wire 1 Z \Mux0~0_combout\ $end
$var wire 1 [ \Add0~0_combout\ $end
$var wire 1 \ \Mux0~1_combout\ $end
$var wire 1 ] \Qtemp~7_combout\ $end
$var wire 1 ^ \rst~input_o\ $end
$var wire 1 _ \en~input_o\ $end
$var wire 1 ` \Qtemp~4_combout\ $end
$var wire 1 a \Qtemp~5_combout\ $end
$var wire 1 b \Qtemp~6_combout\ $end
$var wire 1 c \Qtemp~0_combout\ $end
$var wire 1 d \Qtemp~1_combout\ $end
$var wire 1 e \Qtemp~2_combout\ $end
$var wire 1 f \TC~0_combout\ $end
$var wire 1 g \TC~1_combout\ $end
$var wire 1 h Qtemp [2] $end
$var wire 1 i Qtemp [1] $end
$var wire 1 j Qtemp [0] $end
$var wire 1 k \ALT_INV_rst~input_o\ $end
$upscope $end
$upscope $end
$enddefinitions $end
#0
$dumpvars
0!
1%
1&
1-
0.
0/
00
01
12
x3
14
15
16
17
18
19
0:
1;
1<
1=
0G
0H
0I
0J
0K
0L
0M
0N
0O
0P
1Q
1R
0S
0T
1U
0V
0W
0X
0Y
0Z
0[
0\
0]
1^
1_
0`
0a
1b
0c
0d
1e
0f
0g
0k
0"
1#
1$
0'
0(
0)
0>
0?
0@
0A
1B
1C
0D
0E
0F
0h
0i
0j
0*
0+
0,
$end
#62500
1!
0#
0&
1:
0B
0=
0Q
0U
1P
0b
0e
#125000
0!
0$
0-
0%
0:
0C
0<
0;
0_
0^
0R
0P
1k
#187500
1!
1$
1%
1#
1"
1:
1C
1B
1A
1;
1_
1X
1U
1R
1P
#250000
0!
0#
1&
0:
0B
1=
1Q
0U
0P
1]
1e
#312500
1!
0$
0"
1:
0C
0A
0X
0R
1P
1h
1j
0e
0]
1[
1`
1a
1J
1N
1L
1M
1F
1H
1D
1G
1,
1*
1/
1.
#375000
0!
1#
0&
0:
1B
0=
0Q
1U
0P
1b
#437500
1!
1:
1P
0h
1i
0j
1Y
1Z
0[
0`
0a
1\
0J
0N
1K
0L
0M
1]
0b
0F
0H
1E
0D
0G
0,
1+
0*
0/
0.
#500000
0!
0#
1$
0:
1C
0B
0U
1R
0P
#562500
1!
0$
0%
1:
0C
0;
0_
0R
1P
#625000
0!
1$
1%
1&
1"
0:
1C
1A
1;
1=
1Q
1_
1X
1R
0P
1e
#687500
1!
0$
0%
1#
1:
0C
1B
0;
0_
1U
0R
1P
0e
1b
#750000
0!
0#
0:
0B
0U
0P
0b
#812500
1!
0&
1:
0=
0Q
1P
#875000
0!
1&
1$
0"
0:
1=
1C
0A
0X
1R
1Q
0P
1e
0]
#937500
1!
0&
1"
1#
1:
0=
1B
1A
1X
1U
0Q
1P
0e
1]
#1000000
0!
0"
0#
0$
0:
0C
0B
0A
0X
0U
0R
0P
#1062500
1!
1#
1$
1&
1:
1C
1B
1=
1Q
1U
1R
1P
0]
1b
1e
#1125000
0!
0$
0&
1"
1%
0:
0C
1A
0=
1;
1_
0Q
1X
0R
0P
1]
0b
0e
#1187500
1!
0#
1:
0B
0U
1P
1h
0i
0Y
0Z
1[
0\
0K
1L
1M
0]
0E
1D
1G
0+
1*
1.
#1250000
0!
0"
0%
0:
0A
0;
0_
0X
0P
#1312500
1!
1%
1&
1:
1;
1=
1Q
1_
1P
0h
0[
0L
0M
0D
0G
0*
0.
#1375000
0!
0&
1$
0:
0=
1C
1R
0Q
0P
#1437500
1!
1&
0%
1:
1=
0;
0_
1Q
1P
1e
#1500000
0!
0&
1#
0:
0=
1B
1U
0Q
0P
0e
#1562500
1!
0#
0$
1"
1:
0C
0B
1A
1X
0U
0R
1P
#1625000
0!
1#
1$
0"
1&
0:
1C
1B
0A
1=
1Q
0X
1U
1R
0P
1b
1e
#1687500
1!
0#
0&
1:
0B
0=
0Q
0U
1P
0b
0e
#1750000
0!
1&
1%
0:
1=
1;
1_
1Q
0P
1e
#1812500
1!
0&
0%
1:
0=
0;
0_
0Q
1P
0e
#1875000
0!
1&
1%
1#
0$
1"
0:
1=
1;
0C
1B
1A
1X
1U
0R
1_
1Q
0P
1b
1]
#1937500
1!
0%
0#
1$
0"
1:
0;
1C
0B
0A
0X
0U
1R
0_
1P
1e
0b
0]
#2000000
0!
1%
1#
0$
0:
1;
0C
1B
1U
0R
1_
0P
0e
1b
#2062500
1!
0#
1:
0B
0U
1P
1i
0b
1Y
1Z
1\
1K
1E
1+
#2125000
0!
1#
0%
1"
0:
1B
1A
0;
0_
1X
1U
0P
1b
1]
#2187500
1!
0#
0&
1:
0B
0=
0Q
0U
1P
0b
#2250000
0!
1#
1%
1$
0:
1C
1B
1;
1_
1U
1R
0P
#2312500
1!
0#
0%
1:
0B
0;
0_
0U
1P
#2375000
0!
1#
0$
1&
0:
0C
1B
1=
1Q
1U
0R
0P
1b
#2437500
1!
0#
1$
0"
1:
1C
0B
0A
0X
0U
1R
1P
1e
0b
0]
#2500000
0!
1#
0$
1"
0&
1%
0:
0C
1B
1A
0=
1;
1_
0Q
1X
1U
0R
0P
1]
0e
#2562500
1!
0#
1$
0"
0%
1:
1C
0B
0A
0;
0_
0X
0U
1R
1P
#2625000
0!
1#
0:
1B
1U
0P
#2687500
1!
0$
1"
1&
1:
0C
1A
1=
1Q
1X
0R
1P
1b
#2750000
0!
0&
0#
0:
0=
0B
0U
0Q
0P
0b
#2812500
1!
1&
1%
1:
1=
1;
1_
1Q
1P
1h
0i
0Y
0Z
1[
0\
0K
1L
1M
0E
1D
1G
0+
1*
1.
#2875000
0!
1$
0"
0:
1C
0A
0X
1R
0P
1e
0]
#2937500
1!
0$
0&
1#
1:
0C
1B
0=
0Q
1U
0R
1P
0h
1j
0e
0[
1`
1a
1J
1N
0L
0M
1b
1F
1H
0D
0G
1,
0*
1/
0.
#3000000
0!
0%
0:
0;
0_
0P
#3062500
1!
1"
1:
1A
1X
1P
#3125000
0!
0"
1$
0#
0:
1C
0B
0A
0X
0U
1R
0P
#3187500
1!
1"
1%
1:
1A
1;
1_
1X
1P
1i
0j
0`
1Y
1Z
1\
0a
0J
0N
1K
0b
1]
0F
0H
1E
0,
1+
0/
#3250000
0!
0"
0%
0$
1#
1&
0:
0C
1B
0A
0;
1=
1Q
0_
0X
1U
0R
0P
0]
1b
#3312500
1!
1"
1:
1A
1X
1P
1]
#3375000
0!
0"
1%
1$
0#
0:
1C
0B
0A
1;
1_
0X
0U
1R
0P
1e
0b
0]
#3437500
1!
0$
1:
0C
0R
1P
0i
1j
0e
1`
0Y
0Z
0\
1a
1J
1N
0K
1F
1H
0E
1,
0+
1/
#3500000
0!
1$
1"
0&
0:
1C
1A
0=
0Q
1X
1R
0P
1b
#3562500
1!
1:
1P
1i
0j
0`
1Y
1Z
1\
0a
0J
0N
1K
0b
1]
0F
0H
1E
0,
1+
0/
#3625000
0!
0"
1&
0%
1#
0:
1B
0A
1=
0;
0_
1Q
0X
1U
0P
0]
1b
1e
#3687500
1!
1"
1:
1A
1X
1P
1]
#3750000
0!
0&
1%
0#
0:
0=
1;
0B
0U
1_
0Q
0P
0e
0b
#3812500
1!
1&
0$
1:
1=
0C
0R
1Q
1P
1h
0i
0Y
0Z
1[
0\
0K
1L
1M
0E
1D
1G
0+
1*
1.
#3875000
0!
0&
0%
1#
0:
0=
0;
1B
1U
0_
0Q
0P
0]
#3937500
1!
0"
1:
0A
0X
1P
#4000000
0!
1"
1&
0:
1A
1=
1Q
1X
0P
1]
1b
#4062500
1!
0"
1%
1$
1:
1C
0A
1;
1_
0X
1R
1P
1e
0]
1i
1Y
1Z
1\
1K
1E
1+
#4125000
0!
0#
0:
0B
0U
0P
0b
#4187500
1!
1#
1"
0$
1:
0C
1B
1A
1X
1U
0R
1P
0h
0i
1j
0e
1b
1]
0Y
0Z
0[
1`
1a
0\
1J
1N
0K
0L
0M
1F
1H
0E
0D
0G
1,
0+
0*
1/
0.
#4250000
0!
0"
0%
0:
0A
0;
0_
0X
0P
0]
#4312500
1!
1%
0#
1:
1;
0B
0U
1_
1P
1i
0j
0b
0`
1Y
1Z
1\
0a
0J
0N
1K
0F
0H
1E
0,
1+
0/
#4375000
0!
1#
0:
1B
1U
0P
1b
#4437500
1!
0#
1"
0&
1:
0B
1A
0=
0Q
1X
0U
1P
1]
0b
#4500000
0!
1#
1&
1$
0:
1C
1B
1=
1Q
1U
1R
0P
1b
1e
#4562500
1!
0"
0%
1:
0A
0;
0_
0X
1P
0]
#4625000
0!
1"
1%
0#
0$
0:
0C
0B
1A
1;
1_
1X
0U
0R
0P
0e
0b
1]
#4687500
1!
0"
0%
1#
1$
0&
1:
1C
1B
0A
0;
0=
0Q
0_
0X
1U
1R
1P
#4750000
0!
1"
1%
1&
0:
1A
1;
1=
1Q
1_
1X
0P
1b
1e
#4812500
1!
0%
0&
0#
1:
0;
0=
0B
0U
0Q
0_
1P
0e
0b
#4875000
0!
1&
1#
0:
1=
1B
1U
1Q
0P
1e
1b
#4937500
1!
0&
0#
1%
0$
1:
0=
0C
0B
1;
1_
0U
0R
0Q
1P
0e
0b
1h
1j
1`
1f
1a
1J
1N
1L
1M
1b
1F
1H
1D
1G
1,
1*
1/
1.
#5000000
0!
0:
0P
#5062500
1!
1&
1#
0%
0"
1:
1=
1B
0A
0;
0_
0X
1U
1Q
1P
0]
#5125000
0!
0&
1"
0:
0=
1A
1X
0Q
0P
1]
#5187500
1!
1%
1$
1:
1;
1C
1R
1_
1P
0j
1[
0`
0f
0a
0J
0N
0b
0F
0H
0,
0/
#5250000
0!
0%
0$
1&
0#
0:
0;
0C
0B
1=
1Q
0U
0R
0_
0P
#5312500
1!
1%
1$
1#
1:
1;
1C
1B
1U
1R
1_
1P
0i
1e
1b
0Y
0Z
0\
0K
0E
0+
#5375000
0!
0$
0#
0"
0:
0C
0B
0A
0X
0U
0R
0P
0e
0b
0]
#5437500
1!
1"
0%
0&
1:
1A
0;
0=
0Q
0_
1X
1P
#5500000
0!
0"
1%
1&
0:
0A
1;
1=
1Q
1_
0X
0P
#5562500
1!
1"
0%
0&
1$
1#
1:
1C
1B
1A
0;
0=
0Q
0_
1X
1U
1R
1P
#5625000
0!
0:
0P
#5687500
1!
1%
1&
1:
1;
1=
1Q
1_
1P
0h
1]
1b
1e
0[
0L
0M
0D
0G
0*
0.
#5750000
0!
0&
0#
0:
0=
0B
0U
0Q
0P
0]
0e
0b
#5812500
1!
1#
0%
0"
0$
1:
0C
1B
0A
0;
0_
0X
1U
0R
1P
#5875000
0!
1%
1"
1$
1&
0:
1;
1C
1A
1=
1Q
1X
1R
1_
0P
1]
1b
1e
#5937500
1!
0#
1:
0B
0U
1P
1h
1i
1j
0b
1Y
1Z
1`
1f
1a
1\
1J
1N
1K
1L
1M
1F
1H
1E
1D
1G
1,
1+
1*
1/
1.
#6000000
0!
0%
0"
0&
0:
0;
0A
0=
0Q
0X
0_
0P
1b
0e
#6062500
1!
1%
1"
1&
1#
0$
1:
1;
0C
1B
1A
1=
1Q
1X
1U
0R
1_
1P
0j
1[
0`
0f
0a
0J
0N
0F
0H
0,
0/
#6125000
0!
0%
0&
0:
0;
0=
0Q
0_
0P
0b
#6187500
1!
0#
1$
1:
1C
0B
0U
1R
1P
#6250000
0!
1#
0$
1%
1&
0:
0C
1B
1;
1=
1Q
1_
1U
0R
0P
1b
#6312500
1!
1:
1P
#6375000
0!
0#
1$
0&
0:
1C
0B
0=
0Q
0U
1R
0P
0b
#6437500
1!
1#
0$
0"
1:
0C
1B
0A
0X
1U
0R
1P
0i
0Y
0Z
0\
0K
0]
0E
0+
#6500000
0!
1$
1"
0%
0:
1C
1A
0;
0_
1X
1R
0P
#6562500
1!
0"
1%
0#
1:
0B
0A
1;
1_
0X
0U
1P
0h
0[
0L
0M
0D
0G
0*
0.
#6625000
0!
1"
1#
0:
1B
1A
1X
1U
0P
#6687500
1!
0$
1:
0C
0R
1P
#6750000
0!
0"
0#
0:
0B
0A
0X
0U
0P
#6812500
1!
1#
1$
0%
1:
1C
1B
0;
0_
1U
1R
1P
#6875000
0!
0#
1%
1"
1&
0:
0B
1A
1;
1=
1Q
1_
1X
0U
0P
1]
1e
#6937500
1!
0"
0&
1:
0A
0=
0Q
0X
1P
1h
1j
0]
0e
1[
1`
1a
1J
1N
1L
1M
1b
1F
1H
1D
1G
1,
1*
1/
1.
#7000000
0!
1#
1-
0:
1B
1<
1^
1U
0P
0k
0h
0j
0[
0`
0a
0J
0N
0L
0M
0b
0F
0H
0D
0G
0,
0*
0/
0.
#7062500
1!
0#
0$
1:
0C
0B
0U
0R
1P
#7125000
0!
0-
0%
0:
0<
0;
0_
0^
0P
1k
#7187500
1!
1"
1:
1A
1X
1P
#7250000
0!
0"
1%
1#
1&
0:
1B
0A
1;
1=
1Q
1_
0X
1U
0P
1b
#7312500
1!
0%
0#
1:
0;
0B
0U
0_
1P
0b
#7375000
0!
0&
0:
0=
0Q
0P
#7437500
1!
1&
1%
1#
1"
1:
1=
1;
1B
1A
1X
1U
1_
1Q
1P
1b
1]
#7500000
0!
0&
0%
0#
1$
0:
0=
0;
1C
0B
0U
1R
0_
0Q
0P
0]
0b
#7562500
1!
1#
0"
1:
1B
0A
0X
1U
1P
#7625000
0!
0#
1"
1%
0:
0B
1A
1;
1_
1X
0U
0P
#7687500
1!
0"
0%
1&
1:
0A
0;
1=
1Q
0_
0X
1P
1e
#7750000
0!
1"
1%
0&
0$
0:
0C
1A
1;
0=
0Q
1_
1X
0R
0P
0e
#7812500
1!
0"
0%
1&
1#
1:
1B
0A
0;
1=
1Q
0_
0X
1U
1P
1b
#7875000
0!
1%
1$
0:
1;
1C
1R
1_
0P
1e
#7937500
1!
0$
1"
0&
1:
0C
1A
0=
0Q
1X
0R
1P
1i
1j
0b
0e
1`
1Y
1Z
1[
1\
1a
1J
1N
1K
1b
1]
1F
1H
1E
1,
1+
1/
