Midterm review/task 2/simulation/qsim/lab3_task2.msim.vcd
$comment
	File created using the following command:
		vcd file lab3_task2.msim.vcd -direction
$end
$date
	Thu Nov 02 16:16:25 2017
$end
$version
	ModelSim Version 10.5b
$end
$timescale
	1ps
$end

$scope module combo_network_vhd_vec_tst $end
$var wire 1 ! G $end
$var wire 1 " H $end
$var wire 1 # X [1] $end
$var wire 1 $ X [0] $end
$var wire 1 % Y [1] $end
$var wire 1 & Y [0] $end

$scope module i1 $end
$var wire 1 ' gnd $end
$var wire 1 ( vcc $end
$var wire 1 ) unknown $end
$var wire 1 * devoe $end
$var wire 1 + devclrn $end
$var wire 1 , devpor $end
$var wire 1 - ww_devoe $end
$var wire 1 . ww_devclrn $end
$var wire 1 / ww_devpor $end
$var wire 1 0 ww_X [1] $end
$var wire 1 1 ww_X [0] $end
$var wire 1 2 ww_Y [1] $end
$var wire 1 3 ww_Y [0] $end
$var wire 1 4 ww_G $end
$var wire 1 5 ww_H $end
$var wire 1 6 \G~output_o\ $end
$var wire 1 7 \H~output_o\ $end
$var wire 1 8 \X[1]~input_o\ $end
$var wire 1 9 \Y[1]~input_o\ $end
$var wire 1 : \X[0]~input_o\ $end
$var wire 1 ; \Y[0]~input_o\ $end
$var wire 1 < \mux0|Mux0~0_combout\ $end
$var wire 1 = \mux1|Mux0~0_combout\ $end
$var wire 1 > \mux1|ALT_INV_Mux0~0_combout\ $end
$upscope $end
$upscope $end
$enddefinitions $end
#0
$dumpvars
0!
0"
0'
1(
x)
1*
1+
1,
1-
1.
1/
04
05
06
07
x8
x9
x:
x;
x<
x=
x>
0#
0$
0%
0&
00
01
02
03
$end
#735
08
0;
#745
0:
#755
09
#3402
x7
x5
x"
#3450
x6
x4
x!
#4344
0<
#4715
1=
0>
#7705
06
04
0!
#8159
07
05
0"
#31250
1#
10
#31879
18
#62500
0#
1$
11
00
#63139
1:
#63235
08
#66479
0=
1>
#66486
1<
#66981
0<
#69837
17
15
1"
#69936
16
14
1!
#70342
06
04
0!
#93750
1#
10
#94379
18
#97819
1<
#101269
16
14
1!
#125000
0#
0$
01
00
#125735
08
#125745
0:
#129344
0<
#129351
1=
0>
#132705
06
04
0!
#132795
07
05
0"
#156250
1#
10
#156879
18
#187500
0#
1$
11
00
#188139
1:
#188235
08
#191479
0=
1>
#191486
1<
#191981
0<
#194837
17
15
1"
#194936
16
14
1!
#195342
06
04
0!
#218750
1#
10
#219379
18
#222819
1<
#226269
16
14
1!
#250000
0#
0$
1&
01
00
13
#250629
1;
#250735
08
#250745
0:
#253848
1=
0>
#254344
0<
#254345
0=
1>
#257292
07
05
0"
#257703
17
15
1"
#257705
06
04
0!
#281250
1#
10
#281879
18
#285319
1<
#288769
16
14
1!
#312500
0#
1$
11
00
#313139
1:
#313235
08
#316485
1=
0>
#316981
0<
#319929
07
05
0"
#320342
06
04
0!
#343750
1#
10
#344379
18
#347819
1<
#351269
16
14
1!
#375000
0#
0$
01
00
#375735
08
#375745
0:
#379344
0<
#379345
0=
1>
#382703
17
15
1"
#382705
06
04
0!
#406250
1#
10
#406879
18
#410319
1<
#413769
16
14
1!
#437500
0#
1$
11
00
#438139
1:
#438235
08
#441485
1=
0>
#441981
0<
#444929
07
05
0"
#445342
06
04
0!
#468750
1#
10
#469379
18
#472819
1<
#476269
16
14
1!
#500000
0#
0$
0&
1%
01
00
03
12
#500649
19
#500735
0;
08
#500745
0:
#504344
0<
#504345
0=
1>
#507703
17
15
1"
#507705
06
04
0!
#531250
1#
10
#531879
18
#535315
1=
0>
#535319
1<
#538759
07
05
0"
#538769
16
14
1!
#562500
0#
1$
11
00
#563139
1:
#563235
08
#593750
1#
10
#594379
18
#625000
0#
0$
01
00
#625735
08
#625745
0:
#629344
0<
#629345
0=
1>
#632703
17
15
1"
#632705
06
04
0!
#656250
1#
10
#656879
18
#660315
1=
0>
#660319
1<
#663759
07
05
0"
#663769
16
14
1!
#687500
0#
1$
11
00
#688139
1:
#688235
08
#718750
1#
10
#719379
18
#750000
0#
0$
1&
01
00
13
#750629
1;
#750735
08
#750745
0:
#753833
0<
#754345
0=
1>
#754351
1<
#757194
06
04
0!
#757703
17
15
1"
#757801
16
14
1!
#781250
1#
10
#781879
18
#785315
1=
0>
#788759
07
05
0"
#812500
0#
1$
11
00
#813139
1:
#813235
08
#816479
0<
#816981
0=
1>
#819840
06
04
0!
#820339
17
15
1"
#843750
1#
10
#844379
18
#847815
1=
0>
#851259
07
05
0"
#875000
0#
0$
01
00
#875735
08
#875745
0:
#879345
0=
1>
#879351
1<
#882703
17
15
1"
#882801
16
14
1!
#906250
1#
10
#906879
18
#910315
1=
0>
#913759
07
05
0"
#937500
0#
1$
11
00
#938139
1:
#938235
08
#941479
0<
#941981
0=
1>
#944840
06
04
0!
#945339
17
15
1"
#968750
1#
10
#969379
18
#972815
1=
0>
#976259
07
05
0"
#1000000
0#
0$
0&
0%
01
00
03
02
#1000735
0;
08
#1000745
0:
#1000755
09
#1004212
1<
#1004344
0<
#1004345
0=
1>
#1004715
1=
0>
#1007662
16
14
1!
#1007703
17
15
1"
#1007705
06
04
0!
#1008159
07
05
0"
#1031250
1#
10
#1031879
18
#1062500
0#
1$
11
00
#1063139
1:
#1063235
08
#1066479
0=
1>
#1066486
1<
#1066981
0<
#1069837
17
15
1"
#1069936
16
14
1!
#1070342
06
04
0!
#1093750
1#
10
#1094379
18
#1097819
1<
#1101269
16
14
1!
#1125000
0#
0$
01
00
#1125735
08
#1125745
0:
#1129344
0<
#1129351
1=
0>
#1132705
06
04
0!
#1132795
07
05
0"
#1156250
1#
10
#1156879
18
#1187500
0#
1$
11
00
#1188139
1:
#1188235
08
#1191479
0=
1>
#1191486
1<
#1191981
0<
#1194837
17
15
1"
#1194936
16
14
1!
#1195342
06
04
0!
#1218750
1#
10
#1219379
18
#1222819
1<
#1226269
16
14
1!
#1250000
0#
0$
1&
01
00
13
#1250629
1;
#1250735
08
#1250745
0:
#1253848
1=
0>
#1254344
0<
#1254345
0=
1>
#1257292
07
05
0"
#1257703
17
15
1"
#1257705
06
04
0!
#1281250
1#
10
#1281879
18
#1285319
1<
#1288769
16
14
1!
#1312500
0#
1$
11
00
#1313139
1:
#1313235
08
#1316485
1=
0>
#1316981
0<
#1319929
07
05
0"
#1320342
06
04
0!
#1343750
1#
10
#1344379
18
#1347819
1<
#1351269
16
14
1!
#1375000
0#
0$
01
00
#1375735
08
#1375745
0:
#1379344
0<
#1379345
0=
1>
#1382703
17
15
1"
#1382705
06
04
0!
#1406250
1#
10
#1406879
18
#1410319
1<
#1413769
16
14
1!
#1437500
0#
1$
11
00
#1438139
1:
#1438235
08
#1441485
1=
0>
#1441981
0<
#1444929
07
05
0"
#1445342
06
04
0!
#1468750
1#
10
#1469379
18
#1472819
1<
#1476269
16
14
1!
#1500000
0#
0$
0&
1%
01
00
03
12
#1500649
19
#1500735
0;
08
#1500745
0:
#1504344
0<
#1504345
0=
1>
#1507703
17
15
1"
#1507705
06
04
0!
#1531250
1#
10
#1531879
18
#1535315
1=
0>
#1535319
1<
#1538759
07
05
0"
#1538769
16
14
1!
#1562500
0#
1$
11
00
#1563139
1:
#1563235
08
#1593750
1#
10
#1594379
18
#1625000
0#
0$
01
00
#1625735
08
#1625745
0:
#1629344
0<
#1629345
0=
1>
#1632703
17
15
1"
#1632705
06
04
0!
#1656250
1#
10
#1656879
18
#1660315
1=
0>
#1660319
1<
#1663759
07
05
0"
#1663769
16
14
1!
#1687500
0#
1$
11
00
#1688139
1:
#1688235
08
#1718750
1#
10
#1719379
18
#1750000
0#
0$
1&
01
00
13
#1750629
1;
#1750735
08
#1750745
0:
#1753833
0<
#1754345
0=
1>
#1754351
1<
#1757194
06
04
0!
#1757703
17
15
1"
#1757801
16
14
1!
#1781250
1#
10
#1781879
18
#1785315
1=
0>
#1788759
07
05
0"
#1812500
0#
1$
11
00
#1813139
1:
#1813235
08
#1816479
0<
#1816981
0=
1>
#1819840
06
04
0!
#1820339
17
15
1"
#1843750
1#
10
#1844379
18
#1847815
1=
0>
#1851259
07
05
0"
#1875000
0#
0$
01
00
#1875735
08
#1875745
0:
#1879345
0=
1>
#1879351
1<
#1882703
17
15
1"
#1882801
16
14
1!
#1906250
1#
10
#1906879
18
#1910315
1=
0>
#1913759
07
05
0"
#1937500
0#
1$
11
00
#1938139
1:
#1938235
08
#1941479
0<
#1941981
0=
1>
#1944840
06
04
0!
#1945339
17
15
1"
#1968750
1#
10
#1969379
18
#1972815
1=
0>
#1976259
07
05
0"
#2000000
0#
0$
0&
0%
01
00
03
02
#2000735
0;
08
#2000745
0:
#2000755
09
#2004212
1<
#2004344
0<
#2004345
0=
1>
#2004715
1=
0>
#2007662
16
14
1!
#2007703
17
15
1"
#2007705
06
04
0!
#2008159
07
05
0"
#2031250
1#
10
#2031879
18
#2062500
0#
1$
11
00
#2063139
1:
#2063235
08
#2066479
0=
1>
#2066486
1<
#2066981
0<
#2069837
17
15
1"
#2069936
16
14
1!
#2070342
06
04
0!
#2093750
1#
10
#2094379
18
#2097819
1<
#2101269
16
14
1!
#2125000
0#
0$
01
00
#2125735
08
#2125745
0:
#2129344
0<
#2129351
1=
0>
#2132705
06
04
0!
#2132795
07
05
0"
#2156250
1#
10
#2156879
18
#2187500
0#
1$
11
00
#2188139
1:
#2188235
08
#2191479
0=
1>
#2191486
1<
#2191981
0<
#2194837
17
15
1"
#2194936
16
14
1!
#2195342
06
04
0!
#2218750
1#
10
#2219379
18
#2222819
1<
#2226269
16
14
1!
#2250000
0#
0$
1&
01
00
13
#2250629
1;
#2250735
08
#2250745
0:
#2253848
1=
0>
#2254344
0<
#2254345
0=
1>
#2257292
07
05
0"
#2257703
17
15
1"
#2257705
06
04
0!
#2281250
1#
10
#2281879
18
#2285319
1<
#2288769
16
14
1!
#2312500
0#
1$
11
00
#2313139
1:
#2313235
08
#2316485
1=
0>
#2316981
0<
#2319929
07
05
0"
#2320342
06
04
0!
#2343750
1#
10
#2344379
18
#2347819
1<
#2351269
16
14
1!
#2375000
0#
0$
01
00
#2375735
08
#2375745
0:
#2379344
0<
#2379345
0=
1>
#2382703
17
15
1"
#2382705
06
04
0!
#2406250
1#
10
#2406879
18
#2410319
1<
#2413769
16
14
1!
#2437500
0#
1$
11
00
#2438139
1:
#2438235
08
#2441485
1=
0>
#2441981
0<
#2444929
07
05
0"
#2445342
06
04
0!
#2468750
1#
10
#2469379
18
#2472819
1<
#2476269
16
14
1!
#2500000
0#
0$
0&
1%
01
00
03
12
#2500649
19
#2500735
0;
08
#2500745
0:
#2504344
0<
#2504345
0=
1>
#2507703
17
15
1"
#2507705
06
04
0!
#2531250
1#
10
#2531879
18
#2535315
1=
0>
#2535319
1<
#2538759
07
05
0"
#2538769
16
14
1!
#2562500
0#
1$
11
00
#2563139
1:
#2563235
08
#2593750
1#
10
#2594379
18
#2625000
0#
0$
01
00
#2625735
08
#2625745
0:
#2629344
0<
#2629345
0=
1>
#2632703
17
15
1"
#2632705
06
04
0!
#2656250
1#
10
#2656879
18
#2660315
1=
0>
#2660319
1<
#2663759
07
05
0"
#2663769
16
14
1!
#2687500
0#
1$
11
00
#2688139
1:
#2688235
08
#2718750
1#
10
#2719379
18
#2750000
0#
0$
1&
01
00
13
#2750629
1;
#2750735
08
#2750745
0:
#2753833
0<
#2754345
0=
1>
#2754351
1<
#2757194
06
04
0!
#2757703
17
15
1"
#2757801
16
14
1!
#2781250
1#
10
#2781879
18
#2785315
1=
0>
#2788759
07
05
0"
#2812500
0#
1$
11
00
#2813139
1:
#2813235
08
#2816479
0<
#2816981
0=
1>
#2819840
06
04
0!
#2820339
17
15
1"
#2843750
1#
10
#2844379
18
#2847815
1=
0>
#2851259
07
05
0"
#2875000
0#
0$
01
00
#2875735
08
#2875745
0:
#2879345
0=
1>
#2879351
1<
#2882703
17
15
1"
#2882801
16
14
1!
#2906250
1#
10
#2906879
18
#2910315
1=
0>
#2913759
07
05
0"
#2937500
0#
1$
11
00
#2938139
1:
#2938235
08
#2941479
0<
#2941981
0=
1>
#2944840
06
04
0!
#2945339
17
15
1"
#2968750
1#
10
#2969379
18
#2972815
1=
0>
#2976259
07
05
0"
#3000000
0#
0$
0&
0%
01
00
03
02
#3000735
0;
08
#3000745
0:
#3000755
09
#3004212
1<
#3004344
0<
#3004345
0=
1>
#3004715
1=
0>
#3007662
16
14
1!
#3007703
17
15
1"
#3007705
06
04
0!
#3008159
07
05
0"
#3031250
1#
10
#3031879
18
#3062500
0#
1$
11
00
#3063139
1:
#3063235
08
#3066479
0=
1>
#3066486
1<
#3066981
0<
#3069837
17
15
1"
#3069936
16
14
1!
#3070342
06
04
0!
#3093750
1#
10
#3094379
18
#3097819
1<
#3101269
16
14
1!
#3125000
0#
0$
01
00
#3125735
08
#3125745
0:
#3129344
0<
#3129351
1=
0>
#3132705
06
04
0!
#3132795
07
05
0"
#3156250
1#
10
#3156879
18
#3187500
0#
1$
11
00
#3188139
1:
#3188235
08
#3191479
0=
1>
#3191486
1<
#3191981
0<
#3194837
17
15
1"
#3194936
16
14
1!
#3195342
06
04
0!
#3218750
1#
10
#3219379
18
#3222819
1<
#3226269
16
14
1!
#3250000
0#
0$
1&
01
00
13
#3250629
1;
#3250735
08
#3250745
0:
#3253848
1=
0>
#3254344
0<
#3254345
0=
1>
#3257292
07
05
0"
#3257703
17
15
1"
#3257705
06
04
0!
#3281250
1#
10
#3281879
18
#3285319
1<
#3288769
16
14
1!
#3312500
0#
1$
11
00
#3313139
1:
#3313235
08
#3316485
1=
0>
#3316981
0<
#3319929
07
05
0"
#3320342
06
04
0!
#3343750
1#
10
#3344379
18
#3347819
1<
#3351269
16
14
1!
#3375000
0#
0$
01
00
#3375735
08
#3375745
0:
#3379344
0<
#3379345
0=
1>
#3382703
17
15
1"
#3382705
06
04
0!
#3406250
1#
10
#3406879
18
#3410319
1<
#3413769
16
14
1!
#3437500
0#
1$
11
00
#3438139
1:
#3438235
08
#3441485
1=
0>
#3441981
0<
#3444929
07
05
0"
#3445342
06
04
0!
#3468750
1#
10
#3469379
18
#3472819
1<
#3476269
16
14
1!
#3500000
0#
0$
0&
1%
01
00
03
12
#3500649
19
#3500735
0;
08
#3500745
0:
#3504344
0<
#3504345
0=
1>
#3507703
17
15
1"
#3507705
06
04
0!
#3531250
1#
10
#3531879
18
#3535315
1=
0>
#3535319
1<
#3538759
07
05
0"
#3538769
16
14
1!
#3562500
0#
1$
11
00
#3563139
1:
#3563235
08
#3593750
1#
10
#3594379
18
#3625000
0#
0$
01
00
#3625735
08
#3625745
0:
#3629344
0<
#3629345
0=
1>
#3632703
17
15
1"
#3632705
06
04
0!
#3656250
1#
10
#3656879
18
#3660315
1=
0>
#3660319
1<
#3663759
07
05
0"
#3663769
16
14
1!
#3687500
0#
1$
11
00
#3688139
1:
#3688235
08
#3718750
1#
10
#3719379
18
#3750000
0#
0$
1&
01
00
13
#3750629
1;
#3750735
08
#3750745
0:
#3753833
0<
#3754345
0=
1>
#3754351
1<
#3757194
06
04
0!
#3757703
17
15
1"
#3757801
16
14
1!
#3781250
1#
10
#3781879
18
#3785315
1=
0>
#3788759
07
05
0"
#3812500
0#
1$
11
00
#3813139
1:
#3813235
08
#3816479
0<
#3816981
0=
1>
#3819840
06
04
0!
#3820339
17
15
1"
#3843750
1#
10
#3844379
18
#3847815
1=
0>
#3851259
07
05
0"
#3875000
0#
0$
01
00
#3875735
08
#3875745
0:
#3879345
0=
1>
#3879351
1<
#3882703
17
15
1"
#3882801
16
14
1!
#3906250
1#
10
#3906879
18
#3910315
1=
0>
#3913759
07
05
0"
#3937500
0#
1$
11
00
#3938139
1:
#3938235
08
#3941479
0<
#3941981
0=
1>
#3944840
06
04
0!
#3945339
17
15
1"
#3968750
1#
10
#3969379
18
#3972815
1=
0>
#3976259
07
05
0"
#4000000
0#
0$
0&
0%
01
00
03
02
#4000735
0;
08
#4000745
0:
#4000755
09
#4004212
1<
#4004344
0<
#4004345
0=
1>
#4004715
1=
0>
#4007662
16
14
1!
#4007703
17
15
1"
#4007705
06
04
0!
#4008159
07
05
0"
#4031250
1#
10
#4031879
18
#4062500
0#
1$
11
00
#4063139
1:
#4063235
08
#4066479
0=
1>
#4066486
1<
#4066981
0<
#4069837
17
15
1"
#4069936
16
14
1!
#4070342
06
04
0!
#4093750
1#
10
#4094379
18
#4097819
1<
#4101269
16
14
1!
#4125000
0#
0$
01
00
#4125735
08
#4125745
0:
#4129344
0<
#4129351
1=
0>
#4132705
06
04
0!
#4132795
07
05
0"
#4156250
1#
10
#4156879
18
#4187500
0#
1$
11
00
#4188139
1:
#4188235
08
#4191479
0=
1>
#4191486
1<
#4191981
0<
#4194837
17
15
1"
#4194936
16
14
1!
#4195342
06
04
0!
#4218750
1#
10
#4219379
18
#4222819
1<
#4226269
16
14
1!
#4250000
0#
0$
1&
01
00
13
#4250629
1;
#4250735
08
#4250745
0:
#4253848
1=
0>
#4254344
0<
#4254345
0=
1>
#4257292
07
05
0"
#4257703
17
15
1"
#4257705
06
04
0!
#4281250
1#
10
#4281879
18
#4285319
1<
#4288769
16
14
1!
#4312500
0#
1$
11
00
#4313139
1:
#4313235
08
#4316485
1=
0>
#4316981
0<
#4319929
07
05
0"
#4320342
06
04
0!
#4343750
1#
10
#4344379
18
#4347819
1<
#4351269
16
14
1!
#4375000
0#
0$
01
00
#4375735
08
#4375745
0:
#4379344
0<
#4379345
0=
1>
#4382703
17
15
1"
#4382705
06
04
0!
#4406250
1#
10
#4406879
18
#4410319
1<
#4413769
16
14
1!
#4437500
0#
1$
11
00
#4438139
1:
#4438235
08
#4441485
1=
0>
#4441981
0<
#4444929
07
05
0"
#4445342
06
04
0!
#4468750
1#
10
#4469379
18
#4472819
1<
#4476269
16
14
1!
#4500000
0#
0$
0&
1%
01
00
03
12
#4500649
19
#4500735
0;
08
#4500745
0:
#4504344
0<
#4504345
0=
1>
#4507703
17
15
1"
#4507705
06
04
0!
#4531250
1#
10
#4531879
18
#4535315
1=
0>
#4535319
1<
#4538759
07
05
0"
#4538769
16
14
1!
#4562500
0#
1$
11
00
#4563139
1:
#4563235
08
#4593750
1#
10
#4594379
18
#4625000
0#
0$
01
00
#4625735
08
#4625745
0:
#4629344
0<
#4629345
0=
1>
#4632703
17
15
1"
#4632705
06
04
0!
#4656250
1#
10
#4656879
18
#4660315
1=
0>
#4660319
1<
#4663759
07
05
0"
#4663769
16
14
1!
#4687500
0#
1$
11
00
#4688139
1:
#4688235
08
#4718750
1#
10
#4719379
18
#4750000
0#
0$
1&
01
00
13
#4750629
1;
#4750735
08
#4750745
0:
#4753833
0<
#4754345
0=
1>
#4754351
1<
#4757194
06
04
0!
#4757703
17
15
1"
#4757801
16
14
1!
#4781250
1#
10
#4781879
18
#4785315
1=
0>
#4788759
07
05
0"
#4812500
0#
1$
11
00
#4813139
1:
#4813235
08
#4816479
0<
#4816981
0=
1>
#4819840
06
04
0!
#4820339
17
15
1"
#4843750
1#
10
#4844379
18
#4847815
1=
0>
#4851259
07
05
0"
#4875000
0#
0$
01
00
#4875735
08
#4875745
0:
#4879345
0=
1>
#4879351
1<
#4882703
17
15
1"
#4882801
16
14
1!
#4906250
1#
10
#4906879
18
#4910315
1=
0>
#4913759
07
05
0"
#4937500
0#
1$
11
00
#4938139
1:
#4938235
08
#4941479
0<
#4941981
0=
1>
#4944840
06
04
0!
#4945339
17
15
1"
#4968750
1#
10
#4969379
18
#4972815
1=
0>
#4976259
07
05
0"
#5000000
0#
0$
0&
0%
01
00
03
02
#5000735
0;
08
#5000745
0:
#5000755
09
#5004212
1<
#5004344
0<
#5004345
0=
1>
#5004715
1=
0>
#5007662
16
14
1!
#5007703
17
15
1"
#5007705
06
04
0!
#5008159
07
05
0"
#5031250
1#
10
#5031879
18
#5062500
0#
1$
11
00
#5063139
1:
#5063235
08
#5066479
0=
1>
#5066486
1<
#5066981
0<
#5069837
17
15
1"
#5069936
16
14
1!
#5070342
06
04
0!
#5093750
1#
10
#5094379
18
#5097819
1<
#5101269
16
14
1!
#5125000
0#
0$
01
00
#5125735
08
#5125745
0:
#5129344
0<
#5129351
1=
0>
#5132705
06
04
0!
#5132795
07
05
0"
#5156250
1#
10
#5156879
18
#5187500
0#
1$
11
00
#5188139
1:
#5188235
08
#5191479
0=
1>
#5191486
1<
#5191981
0<
#5194837
17
15
1"
#5194936
16
14
1!
#5195342
06
04
0!
#5218750
1#
10
#5219379
18
#5222819
1<
#5226269
16
14
1!
#5250000
0#
0$
1&
01
00
13
#5250629
1;
#5250735
08
#5250745
0:
#5253848
1=
0>
#5254344
0<
#5254345
0=
1>
#5257292
07
05
0"
#5257703
17
15
1"
#5257705
06
04
0!
#5281250
1#
10
#5281879
18
#5285319
1<
#5288769
16
14
1!
#5312500
0#
1$
11
00
#5313139
1:
#5313235
08
#5316485
1=
0>
#5316981
0<
#5319929
07
05
0"
#5320342
06
04
0!
#5343750
1#
10
#5344379
18
#5347819
1<
#5351269
16
14
1!
#5375000
0#
0$
01
00
#5375735
08
#5375745
0:
#5379344
0<
#5379345
0=
1>
#5382703
17
15
1"
#5382705
06
04
0!
#5406250
1#
10
#5406879
18
#5410319
1<
#5413769
16
14
1!
#5437500
0#
1$
11
00
#5438139
1:
#5438235
08
#5441485
1=
0>
#5441981
0<
#5444929
07
05
0"
#5445342
06
04
0!
#5468750
1#
10
#5469379
18
#5472819
1<
#5476269
16
14
1!
#5500000
0#
0$
0&
1%
01
00
03
12
#5500649
19
#5500735
0;
08
#5500745
0:
#5504344
0<
#5504345
0=
1>
#5507703
17
15
1"
#5507705
06
04
0!
#5531250
1#
10
#5531879
18
#5535315
1=
0>
#5535319
1<
#5538759
07
05
0"
#5538769
16
14
1!
#5562500
0#
1$
11
00
#5563139
1:
#5563235
08
#5593750
1#
10
#5594379
18
#5625000
0#
0$
01
00
#5625735
08
#5625745
0:
#5629344
0<
#5629345
0=
1>
#5632703
17
15
1"
#5632705
06
04
0!
#5656250
1#
10
#5656879
18
#5660315
1=
0>
#5660319
1<
#5663759
07
05
0"
#5663769
16
14
1!
#5687500
0#
1$
11
00
#5688139
1:
#5688235
08
#5718750
1#
10
#5719379
18
#5750000
0#
0$
1&
01
00
13
#5750629
1;
#5750735
08
#5750745
0:
#5753833
0<
#5754345
0=
1>
#5754351
1<
#5757194
06
04
0!
#5757703
17
15
1"
#5757801
16
14
1!
#5781250
1#
10
#5781879
18
#5785315
1=
0>
#5788759
07
05
0"
#5812500
0#
1$
11
00
#5813139
1:
#5813235
08
#5816479
0<
#5816981
0=
1>
#5819840
06
04
0!
#5820339
17
15
1"
#5843750
1#
10
#5844379
18
#5847815
1=
0>
#5851259
07
05
0"
#5875000
0#
0$
01
00
#5875735
08
#5875745
0:
#5879345
0=
1>
#5879351
1<
#5882703
17
15
1"
#5882801
16
14
1!
#5906250
1#
10
#5906879
18
#5910315
1=
0>
#5913759
07
05
0"
#5937500
0#
1$
11
00
#5938139
1:
#5938235
08
#5941479
0<
#5941981
0=
1>
#5944840
06
04
0!
#5945339
17
15
1"
#5968750
1#
10
#5969379
18
#5972815
1=
0>
#5976259
07
05
0"
#6000000
0#
0$
0&
0%
01
00
03
02
#6000735
0;
08
#6000745
0:
#6000755
09
#6004212
1<
#6004344
0<
#6004345
0=
1>
#6004715
1=
0>
#6007662
16
14
1!
#6007703
17
15
1"
#6007705
06
04
0!
#6008159
07
05
0"
#6031250
1#
10
#6031879
18
#6062500
0#
1$
11
00
#6063139
1:
#6063235
08
#6066479
0=
1>
#6066486
1<
#6066981
0<
#6069837
17
15
1"
#6069936
16
14
1!
#6070342
06
04
0!
#6093750
1#
10
#6094379
18
#6097819
1<
#6101269
16
14
1!
#6125000
0#
0$
01
00
#6125735
08
#6125745
0:
#6129344
0<
#6129351
1=
0>
#6132705
06
04
0!
#6132795
07
05
0"
#6156250
1#
10
#6156879
18
#6187500
0#
1$
11
00
#6188139
1:
#6188235
08
#6191479
0=
1>
#6191486
1<
#6191981
0<
#6194837
17
15
1"
#6194936
16
14
1!
#6195342
06
04
0!
#6218750
1#
10
#6219379
18
#6222819
1<
#6226269
16
14
1!
#6250000
0#
0$
1&
01
00
13
#6250629
1;
#6250735
08
#6250745
0:
#6253848
1=
0>
#6254344
0<
#6254345
0=
1>
#6257292
07
05
0"
#6257703
17
15
1"
#6257705
06
04
0!
#6281250
1#
10
#6281879
18
#6285319
1<
#6288769
16
14
1!
#6312500
0#
1$
11
00
#6313139
1:
#6313235
08
#6316485
1=
0>
#6316981
0<
#6319929
07
05
0"
#6320342
06
04
0!
#6343750
1#
10
#6344379
18
#6347819
1<
#6351269
16
14
1!
#6375000
0#
0$
01
00
#6375735
08
#6375745
0:
#6379344
0<
#6379345
0=
1>
#6382703
17
15
1"
#6382705
06
04
0!
#6406250
1#
10
#6406879
18
#6410319
1<
#6413769
16
14
1!
#6437500
0#
1$
11
00
#6438139
1:
#6438235
08
#6441485
1=
0>
#6441981
0<
#6444929
07
05
0"
#6445342
06
04
0!
#6468750
1#
10
#6469379
18
#6472819
1<
#6476269
16
14
1!
#6500000
0#
0$
0&
1%
01
00
03
12
#6500649
19
#6500735
0;
08
#6500745
0:
#6504344
0<
#6504345
0=
1>
#6507703
17
15
1"
#6507705
06
04
0!
#6531250
1#
10
#6531879
18
#6535315
1=
0>
#6535319
1<
#6538759
07
05
0"
#6538769
16
14
1!
#6562500
0#
1$
11
00
#6563139
1:
#6563235
08
#6593750
1#
10
#6594379
18
#6625000
0#
0$
01
00
#6625735
08
#6625745
0:
#6629344
0<
#6629345
0=
1>
#6632703
17
15
1"
#6632705
06
04
0!
#6656250
1#
10
#6656879
18
#6660315
1=
0>
#6660319
1<
#6663759
07
05
0"
#6663769
16
14
1!
#6687500
0#
1$
11
00
#6688139
1:
#6688235
08
#6718750
1#
10
#6719379
18
#6750000
0#
0$
1&
01
00
13
#6750629
1;
#6750735
08
#6750745
0:
#6753833
0<
#6754345
0=
1>
#6754351
1<
#6757194
06
04
0!
#6757703
17
15
1"
#6757801
16
14
1!
#6781250
1#
10
#6781879
18
#6785315
1=
0>
#6788759
07
05
0"
#6812500
0#
1$
11
00
#6813139
1:
#6813235
08
#6816479
0<
#6816981
0=
1>
#6819840
06
04
0!
#6820339
17
15
1"
#6843750
1#
10
#6844379
18
#6847815
1=
0>
#6851259
07
05
0"
#6875000
0#
0$
01
00
#6875735
08
#6875745
0:
#6879345
0=
1>
#6879351
1<
#6882703
17
15
1"
#6882801
16
14
1!
#6906250
1#
10
#6906879
18
#6910315
1=
0>
#6913759
07
05
0"
#6937500
0#
1$
11
00
#6938139
1:
#6938235
08
#6941479
0<
#6941981
0=
1>
#6944840
06
04
0!
#6945339
17
15
1"
#6968750
1#
10
#6969379
18
#6972815
1=
0>
#6976259
07
05
0"
#7000000
0#
0$
0&
0%
01
00
03
02
#7000735
0;
08
#7000745
0:
#7000755
09
#7004212
1<
#7004344
0<
#7004345
0=
1>
#7004715
1=
0>
#7007662
16
14
1!
#7007703
17
15
1"
#7007705
06
04
0!
#7008159
07
05
0"
#7031250
1#
10
#7031879
18
#7062500
0#
1$
11
00
#7063139
1:
#7063235
08
#7066479
0=
1>
#7066486
1<
#7066981
0<
#7069837
17
15
1"
#7069936
16
14
1!
#7070342
06
04
0!
#7093750
1#
10
#7094379
18
#7097819
1<
#7101269
16
14
1!
#7125000
0#
0$
01
00
#7125735
08
#7125745
0:
#7129344
0<
#7129351
1=
0>
#7132705
06
04
0!
#7132795
07
05
0"
#7156250
1#
10
#7156879
18
#7187500
0#
1$
11
00
#7188139
1:
#7188235
08
#7191479
0=
1>
#7191486
1<
#7191981
0<
#7194837
17
15
1"
#7194936
16
14
1!
#7195342
06
04
0!
#7218750
1#
10
#7219379
18
#7222819
1<
#7226269
16
14
1!
#7250000
0#
0$
1&
01
00
13
#7250629
1;
#7250735
08
#7250745
0:
#7253848
1=
0>
#7254344
0<
#7254345
0=
1>
#7257292
07
05
0"
#7257703
17
15
1"
#7257705
06
04
0!
#7281250
1#
10
#7281879
18
#7285319
1<
#7288769
16
14
1!
#7312500
0#
1$
11
00
#7313139
1:
#7313235
08
#7316485
1=
0>
#7316981
0<
#7319929
07
05
0"
#7320342
06
04
0!
#7343750
1#
10
#7344379
18
#7347819
1<
#7351269
16
14
1!
#7375000
0#
0$
01
00
#7375735
08
#7375745
0:
#7379344
0<
#7379345
0=
1>
#7382703
17
15
1"
#7382705
06
04
0!
#7406250
1#
10
#7406879
18
#7410319
1<
#7413769
16
14
1!
#7437500
0#
1$
11
00
#7438139
1:
#7438235
08
#7441485
1=
0>
#7441981
0<
#7444929
07
05
0"
#7445342
06
04
0!
#7468750
1#
10
#7469379
18
#7472819
1<
#7476269
16
14
1!
#7500000
0#
0$
0&
1%
01
00
03
12
#7500649
19
#7500735
0;
08
#7500745
0:
#7504344
0<
#7504345
0=
1>
#7507703
17
15
1"
#7507705
06
04
0!
#7531250
1#
10
#7531879
18
#7535315
1=
0>
#7535319
1<
#7538759
07
05
0"
#7538769
16
14
1!
#7562500
0#
1$
11
00
#7563139
1:
#7563235
08
#7593750
1#
10
#7594379
18
#7625000
0#
0$
01
00
#7625735
08
#7625745
0:
#7629344
0<
#7629345
0=
1>
#7632703
17
15
1"
#7632705
06
04
0!
#7656250
1#
10
#7656879
18
#7660315
1=
0>
#7660319
1<
#7663759
07
05
0"
#7663769
16
14
1!
#7687500
0#
1$
11
00
#7688139
1:
#7688235
08
#7718750
1#
10
#7719379
18
#7750000
0#
0$
1&
01
00
13
#7750629
1;
#7750735
08
#7750745
0:
#7753833
0<
#7754345
0=
1>
#7754351
1<
#7757194
06
04
0!
#7757703
17
15
1"
#7757801
16
14
1!
#7781250
1#
10
