lab 3/task 2/simulation/qsim/lab3_task2.msim.vcd
$comment
	File created using the following command:
		vcd file lab3_task2.msim.vcd -direction
$end
$date
	Mon Oct 16 09:11:11 2017
$end
$version
	ModelSim Version 10.5b
$end
$timescale
	1ps
$end

$scope module compare_signed_2bit_pkg_vhd_vec_tst $end
$var wire 1 ! A [1] $end
$var wire 1 " A [0] $end
$var wire 1 # B [1] $end
$var wire 1 $ B [0] $end
$var wire 1 % E $end
$var wire 1 & G $end
$var wire 1 ' L $end

$scope module i1 $end
$var wire 1 ( gnd $end
$var wire 1 ) vcc $end
$var wire 1 * unknown $end
$var wire 1 + devoe $end
$var wire 1 , devclrn $end
$var wire 1 - devpor $end
$var wire 1 . ww_devoe $end
$var wire 1 / ww_devclrn $end
$var wire 1 0 ww_devpor $end
$var wire 1 1 ww_A [1] $end
$var wire 1 2 ww_A [0] $end
$var wire 1 3 ww_B [1] $end
$var wire 1 4 ww_B [0] $end
$var wire 1 5 ww_L $end
$var wire 1 6 ww_E $end
$var wire 1 7 ww_G $end
$var wire 1 8 \L~output_o\ $end
$var wire 1 9 \E~output_o\ $end
$var wire 1 : \G~output_o\ $end
$var wire 1 ; \B[0]~input_o\ $end
$var wire 1 < \A[1]~input_o\ $end
$var wire 1 = \A[0]~input_o\ $end
$var wire 1 > \B[1]~input_o\ $end
$var wire 1 ? \mux0|f~0_combout\ $end
$var wire 1 @ \E~0_combout\ $end
$var wire 1 A \mux1|f~0_combout\ $end
$var wire 1 B \ALT_INV_E~0_combout\ $end
$upscope $end
$upscope $end
$enddefinitions $end
#0
$dumpvars
0%
0&
0'
0(
1)
x*
1+
1,
1-
1.
1/
10
05
06
07
08
09
0:
x;
x<
x=
x>
x?
x@
xA
xB
0!
0"
0#
0$
01
02
03
04
$end
#736
0<
#766
0=
#786
0;
0>
#3285
x:
x7
x&
#3566
x9
x6
x%
#3574
x8
x5
x'
#4271
0A
#4272
0@
0?
1B
#7521
0:
07
0&
#7804
08
05
0'
#7826
19
16
1%
#125000
1$
14
#125680
1;
#128929
1?
#128930
1@
0B
#132503
18
15
1'
#132521
09
06
0%
#250000
0$
1#
04
13
#250680
1>
#250786
0;
#253912
0?
#253927
1A
#257212
1:
17
1&
#257444
08
05
0'
#375000
1$
14
#375680
1;
#500000
0$
0#
1"
04
03
12
#500660
1=
#500786
0>
0;
#625000
1$
14
#625680
1;
#628909
0A
#628917
0@
1B
#632159
0:
07
0&
#632471
19
16
1%
#750000
0$
1#
04
13
#750680
1>
#750786
0;
#753927
1A
1@
0B
#757212
1:
17
1&
#757518
09
06
0%
#875000
1$
14
#875680
1;
#1000000
0$
0#
0"
1!
04
03
02
11
#1000630
1<
#1000766
0=
#1000786
0>
0;
#1004159
0@
1B
#1004164
0A
#1004270
1A
#1004271
0A
#1004288
1?
1@
0B
#1007414
0:
07
0&
#1007713
19
16
1%
#1007862
18
15
1'
#1007879
09
06
0%
#1125000
1$
14
#1125680
1;
#1250000
0$
1#
04
13
#1250680
1>
#1250786
0;
#1254282
0?
#1254283
0@
1B
#1257814
08
05
0'
#1257837
19
16
1%
#1375000
1$
14
#1375680
1;
#1378929
1?
#1378930
1@
0B
#1382503
18
15
1'
#1382521
09
06
0%
#1500000
0$
0#
1"
04
03
12
#1500660
1=
#1500786
0>
0;
#1504038
0?
#1504039
0@
1B
#1504270
1A
#1504271
0A
#1504288
1@
1?
0B
#1507570
08
05
0'
#1507593
19
16
1%
#1507862
18
15
1'
#1507879
09
06
0%
#1625000
1$
14
#1625680
1;
#1750000
0$
1#
04
13
#1750680
1>
#1750786
0;
#1753911
0@
1B
#1753912
0?
#1754270
1A
#1754296
1@
0B
#1757444
08
05
0'
#1757465
19
16
1%
#1757555
1:
17
1&
#1757887
09
06
0%
#1875000
1$
14
#1875680
1;
#1878909
0A
#1878917
0@
1B
#1882159
0:
07
0&
#1882471
19
16
1%
