lab 7/task 2/simulation/qsim/lab7_task2.msim.vcd
$comment
	File created using the following command:
		vcd file lab7_task2.msim.vcd -direction
$end
$date
	Wed Nov 08 16:08:35 2017
$end
$version
	ModelSim Version 10.5b
$end
$timescale
	1ps
$end

$scope module data_reg_nbit_vhd_vec_tst $end
$var wire 1 ! clk $end
$var wire 1 " D [3] $end
$var wire 1 # D [2] $end
$var wire 1 $ D [1] $end
$var wire 1 % D [0] $end
$var wire 1 & EN $end
$var wire 1 ' Q [3] $end
$var wire 1 ( Q [2] $end
$var wire 1 ) Q [1] $end
$var wire 1 * Q [0] $end
$var wire 1 + rst $end

$scope module i1 $end
$var wire 1 , gnd $end
$var wire 1 - vcc $end
$var wire 1 . unknown $end
$var wire 1 / devoe $end
$var wire 1 0 devclrn $end
$var wire 1 1 devpor $end
$var wire 1 2 ww_devoe $end
$var wire 1 3 ww_devclrn $end
$var wire 1 4 ww_devpor $end
$var wire 1 5 ww_clk $end
$var wire 1 6 ww_rst $end
$var wire 1 7 ww_EN $end
$var wire 1 8 ww_D [3] $end
$var wire 1 9 ww_D [2] $end
$var wire 1 : ww_D [1] $end
$var wire 1 ; ww_D [0] $end
$var wire 1 < ww_Q [3] $end
$var wire 1 = ww_Q [2] $end
$var wire 1 > ww_Q [1] $end
$var wire 1 ? ww_Q [0] $end
$var wire 1 @ \Q[0]~output_o\ $end
$var wire 1 A \Q[1]~output_o\ $end
$var wire 1 B \Q[2]~output_o\ $end
$var wire 1 C \Q[3]~output_o\ $end
$var wire 1 D \clk~input_o\ $end
$var wire 1 E \D[0]~input_o\ $end
$var wire 1 F \rst~input_o\ $end
$var wire 1 G \JKFF_stages:0:JKFF|Qtemp~0_combout\ $end
$var wire 1 H \EN~input_o\ $end
$var wire 1 I \JKFF_stages:0:JKFF|Qtemp~1_combout\ $end
$var wire 1 J \JKFF_stages:0:JKFF|Qtemp~q\ $end
$var wire 1 K \D[1]~input_o\ $end
$var wire 1 L \JKFF_stages:1:JKFF|Qtemp~0_combout\ $end
$var wire 1 M \JKFF_stages:1:JKFF|Qtemp~q\ $end
$var wire 1 N \D[2]~input_o\ $end
$var wire 1 O \JKFF_stages:2:JKFF|Qtemp~0_combout\ $end
$var wire 1 P \JKFF_stages:2:JKFF|Qtemp~q\ $end
$var wire 1 Q \D[3]~input_o\ $end
$var wire 1 R \JKFF_stages:3:JKFF|Qtemp~0_combout\ $end
$var wire 1 S \JKFF_stages:3:JKFF|Qtemp~q\ $end
$var wire 1 T \ALT_INV_clk~input_o\ $end
$upscope $end
$upscope $end
$enddefinitions $end
#0
$dumpvars
1!
1&
0+
0,
1-
x.
1/
10
11
12
13
14
15
06
17
0@
0A
0B
0C
1D
1E
0F
1G
1H
1I
0J
1K
1L
0M
0N
0O
0P
0Q
0R
0S
0T
0"
0#
1$
1%
08
09
1:
1;
0<
0=
0>
0?
0'
0(
0)
0*
$end
#1000
0!
05
0D
1T
1J
1M
1A
1@
1>
1?
1*
1)
#62500
1#
0$
0:
19
1N
0K
0L
1O
#63500
1!
15
1D
0T
#125000
0#
0%
1+
0;
09
16
1F
0N
0E
0G
0O
#126000
0!
05
0D
1T
0J
0M
0A
0@
0>
0?
0*
0)
#187500
1#
0&
19
07
0H
1N
#188500
1!
15
1D
0T
#250000
1&
1%
0+
1$
17
1;
1:
06
0F
1K
1E
1H
1G
1L
1O
#251000
0!
05
0D
1T
1J
1M
1P
1B
1A
1@
1=
1>
1?
1*
1)
1(
#312500
0&
0$
07
0:
0K
0H
0I
0L
#313500
1!
15
1D
0T
#375000
1$
0#
1"
1:
09
18
1Q
0N
1K
1L
0O
1R
#376000
0!
05
0D
1T
#437500
0$
1#
0"
1&
0:
19
08
17
1H
0Q
1N
0K
0L
1O
0R
1I
#438500
1!
15
1D
0T
#500000
0%
0;
0E
0G
#501000
0!
05
0D
1T
0J
0M
0A
0@
0>
0?
0*
0)
#562500
1%
1$
0&
1;
1:
07
0H
1K
1E
1G
1L
0I
#563500
1!
15
1D
0T
#625000
0%
0$
1&
0;
0:
17
1H
0K
0E
0G
0L
1I
#626000
0!
05
0D
1T
#687500
1%
1$
1;
1:
1K
1E
1G
1L
#688500
1!
15
1D
0T
#750000
1"
18
1Q
1R
#751000
0!
05
0D
1T
1J
1M
1S
1C
1A
1@
1<
1>
1?
1*
1)
1'
#812500
0"
0&
08
07
0H
0Q
0R
0I
#813500
1!
15
1D
0T
#875000
1"
18
1Q
1R
#876000
0!
05
0D
1T
#937500
0"
0%
0$
0#
0;
0:
09
08
0Q
0N
0K
0E
0G
0L
0O
0R
#938500
1!
15
1D
0T
#1000000
1$
1#
1&
1:
19
17
1H
1N
1K
1L
1O
1I
#1001000
0!
05
0D
1T
0J
0S
0C
0@
0<
0?
0*
0'
#1063500
1!
15
1D
0T
#1125000
1"
18
1Q
1R
#1126000
0!
05
0D
1T
1S
1C
1<
1'
#1187500
0"
0#
0&
1%
1;
09
08
07
0H
0Q
0N
1E
1G
0O
0R
0I
#1188500
1!
15
1D
0T
#1251000
0!
05
0D
1T
#1312500
1"
1#
1&
0%
0$
0;
0:
19
18
17
1H
1Q
1N
0K
0E
0G
0L
1O
1R
1I
#1313500
1!
15
1D
0T
#1375000
0"
0#
0&
1%
1$
1;
1:
09
08
07
0H
0Q
0N
1K
1E
1G
1L
0O
0R
0I
#1376000
0!
05
0D
1T
#1437500
1"
18
1Q
1R
#1438500
1!
15
1D
0T
#1500000
0"
0%
0$
0;
0:
08
0Q
0K
0E
0G
0L
0R
#1501000
0!
05
0D
1T
#1562500
1"
1$
1:
18
1Q
1K
1L
1R
#1563500
1!
15
1D
0T
#1625000
0"
0$
1&
0:
08
17
1H
0Q
0K
0L
0R
1I
#1626000
0!
05
0D
1T
0M
0P
0S
0C
0B
0A
0<
0=
0>
0)
0(
0'
#1687500
1"
1$
1:
18
1Q
1K
1L
1R
#1688500
1!
15
1D
0T
#1751000
0!
05
0D
1T
1M
1S
1C
1A
1<
1>
1)
1'
#1812500
0"
0$
0&
1%
1#
1;
0:
19
08
07
0H
0Q
1N
0K
1E
1G
0L
1O
0R
0I
#1813500
1!
15
1D
0T
#1875000
1$
1&
0#
1:
09
17
1H
0N
1K
1L
0O
1I
#1876000
0!
05
0D
1T
1J
0S
0C
1@
0<
1?
1*
0'
#1937500
0$
1#
1"
0%
0;
0:
19
18
1Q
1N
0K
0E
0G
0L
1O
1R
#1938500
1!
15
1D
0T
#2000000
1$
0#
0"
1%
1;
1:
09
08
0Q
0N
1K
1E
1G
1L
0O
0R
#2001000
0!
05
0D
1T
#2062500
0%
0&
0;
07
0H
0E
0G
0I
#2063500
1!
15
1D
0T
#2125000
1&
0$
1"
17
0:
18
1Q
0K
1H
1I
0L
1R
#2126000
0!
05
0D
1T
0J
0M
1S
1C
0A
0@
1<
0>
0?
0*
0)
1'
#2187500
0"
08
0Q
0R
#2188500
1!
15
1D
0T
#2250000
1"
1%
1;
18
1Q
1E
1G
1R
#2251000
0!
05
0D
1T
1J
1@
1?
1*
#2312500
0"
0&
08
07
0H
0Q
0R
0I
#2313500
1!
15
1D
0T
#2375000
1"
1$
1#
1:
19
18
1Q
1N
1K
1L
1O
1R
#2376000
0!
05
0D
1T
#2437500
0"
0#
1&
0%
0;
09
08
17
1H
0Q
0N
0E
0G
0O
0R
1I
#2438500
1!
15
1D
0T
#2500000
1"
0&
18
07
0H
1Q
1R
0I
#2501000
0!
05
0D
1T
#2562500
0"
1&
1%
1;
08
17
1H
0Q
1E
1G
0R
1I
#2563500
1!
15
1D
0T
#2625000
0%
1#
0$
0;
0:
19
1N
0K
0E
0G
0L
1O
#2626000
0!
05
0D
1T
0J
1P
0S
0C
1B
0@
0<
1=
0?
0*
1(
0'
#2687500
1%
0#
1$
1"
0&
1;
1:
09
18
07
0H
1Q
0N
1K
1E
1G
1L
0O
1R
0I
#2688500
1!
15
1D
0T
#2750000
1#
0"
1&
19
08
17
1H
0Q
1N
1O
0R
1I
#2751000
0!
05
0D
1T
1J
1M
1A
1@
1>
1?
1*
1)
#2812500
1"
0%
0$
0;
0:
18
1Q
0K
0E
0G
0L
1R
#2813500
1!
15
1D
0T
#2875000
1%
0&
1;
07
0H
1E
1G
0I
#2876000
0!
05
0D
1T
#2937500
1&
0"
17
08
0Q
1H
1I
0R
#2938500
1!
15
1D
0T
#3000000
0#
09
0N
0O
#3001000
0!
05
0D
1T
0M
0P
0B
0A
0=
0>
0)
0(
#3062500
1"
1$
1:
18
1Q
1K
1L
1R
#3063500
1!
15
1D
0T
#3125000
0$
0:
0K
0L
#3126000
0!
05
0D
1T
1S
1C
1<
1'
#3188500
1!
15
1D
0T
#3250000
1$
0"
0%
0;
1:
08
0Q
1K
0E
0G
1L
0R
#3251000
0!
05
0D
1T
0J
1M
0S
0C
1A
0@
0<
1>
0?
0*
1)
0'
#3312500
1"
1#
0&
19
18
07
0H
1Q
1N
1O
1R
0I
#3313500
1!
15
1D
0T
#3375000
0"
0#
0$
0:
09
08
0Q
0N
0K
0L
0O
0R
#3376000
0!
05
0D
1T
#3437500
1"
1$
1&
1:
18
17
1H
1Q
1K
1L
1R
1I
#3438500
1!
15
1D
0T
#3500000
0&
1#
1%
07
1;
19
1N
1E
0H
0I
1G
1O
#3501000
0!
05
0D
1T
#3562500
0#
0"
0$
0:
09
08
0Q
0N
0K
0L
0O
0R
#3563500
1!
15
1D
0T
#3625000
1$
1&
1:
17
1H
1K
1L
1I
#3626000
0!
05
0D
1T
1J
1@
1?
1*
#3688500
1!
15
1D
0T
#3751000
0!
05
0D
1T
#3812500
0$
0&
0:
07
0H
0K
0L
0I
#3813500
1!
15
1D
0T
#3875000
1&
1#
0%
17
0;
19
1N
0E
1H
1I
0G
1O
#3876000
0!
05
0D
1T
0J
0M
1P
1B
0A
0@
1=
0>
0?
0*
0)
1(
#3937500
0&
0#
1%
1"
07
1;
09
18
1Q
0N
1E
0H
0I
1G
0O
1R
#3938500
1!
15
1D
0T
#4000000
1#
1$
1:
19
1N
1K
1L
1O
#4001000
0!
05
0D
1T
#4062500
0#
0$
1&
0:
09
17
1H
0N
0K
0L
0O
1I
#4063500
1!
15
1D
0T
#4125000
0&
07
0H
0I
#4126000
0!
05
0D
1T
#4187500
1&
1#
1$
0%
0"
17
0;
1:
19
08
0Q
1N
1K
0E
1H
1I
0G
1L
1O
0R
#4188500
1!
15
1D
0T
#4250000
0$
1%
1;
0:
0K
1E
1G
0L
#4251000
0!
05
0D
1T
1J
1@
1?
1*
#4312500
1$
0&
0#
1:
09
07
0H
0N
1K
1L
0O
0I
#4313500
1!
15
1D
0T
#4375000
1"
18
1Q
1R
#4376000
0!
05
0D
1T
#4437500
0$
0:
0K
0L
#4438500
1!
15
1D
0T
#4500000
1&
17
1H
1I
#4501000
0!
05
0D
1T
0P
1S
1C
0B
1<
0=
0(
1'
#4562500
0&
1$
0"
1#
07
1:
19
08
0Q
1N
1K
0H
0I
1L
1O
0R
#4563500
1!
15
1D
0T
#4625000
1&
0#
17
09
0N
1H
1I
0O
#4626000
0!
05
0D
1T
1M
0S
0C
1A
0<
1>
1)
0'
#4687500
0&
0$
0%
07
0;
0:
0K
0E
0H
0I
0G
0L
#4688500
1!
15
1D
0T
#4750000
1&
1$
1#
17
1:
19
1N
1K
1H
1I
1L
1O
#4751000
0!
05
0D
1T
0J
1P
1B
0@
1=
0?
0*
1(
#4812500
0&
07
0H
0I
#4813500
1!
15
1D
0T
#4875000
1&
0$
1%
1"
17
1;
0:
18
1Q
0K
1E
1H
1I
1G
0L
1R
#4876000
0!
05
0D
1T
1J
0M
1S
1C
0A
1@
1<
0>
1?
1*
0)
1'
#4937500
0&
0"
07
08
0Q
0H
0I
0R
#4938500
1!
15
1D
0T
#5000000
0%
0#
0;
09
0N
0E
0G
0O
#5001000
0!
05
0D
1T
#5063500
1!
15
1D
0T
#5125000
1#
1&
1$
1:
19
17
1H
1N
1K
1L
1O
1I
#5126000
0!
05
0D
1T
0J
1M
0S
0C
1A
0@
0<
1>
0?
0*
1)
0'
#5187500
0#
0&
1"
09
18
07
0H
1Q
0N
0O
1R
0I
#5188500
1!
15
1D
0T
#5250000
1#
1&
1%
1;
19
17
1H
1N
1E
1G
1O
1I
#5251000
0!
05
0D
1T
1J
1S
1C
1@
1<
1?
1*
1'
#5312500
0#
0%
0"
0$
0;
0:
09
08
0Q
0N
0K
0E
0G
0L
0O
0R
#5313500
1!
15
1D
0T
#5376000
0!
05
0D
1T
0J
0M
0P
0S
0C
0B
0A
0@
0<
0=
0>
0?
0*
0)
0(
0'
#5437500
1"
1$
1:
18
1Q
1K
1L
1R
#5438500
1!
15
1D
0T
#5500000
0$
1#
0&
0:
19
07
0H
1N
0K
0L
1O
0I
#5501000
0!
05
0D
1T
#5562500
1$
0#
1&
0"
1%
1;
1:
09
08
17
1H
0Q
0N
1K
1E
1G
1L
0O
0R
1I
#5563500
1!
15
1D
0T
#5625000
0&
07
0H
0I
#5626000
0!
05
0D
1T
#5687500
0$
1"
0%
0;
0:
18
1Q
0K
0E
0G
0L
1R
#5688500
1!
15
1D
0T
#5750000
1$
0"
1:
08
0Q
1K
1L
0R
#5751000
0!
05
0D
1T
#5812500
1&
17
1H
1I
#5813500
1!
15
1D
0T
#5875000
0$
1%
1#
1;
0:
19
1N
0K
1E
1G
0L
1O
#5876000
0!
05
0D
1T
1J
1P
1B
1@
1=
1?
1*
1(
#5937500
1$
0%
0#
1"
0;
1:
09
18
1Q
0N
1K
0E
0G
1L
0O
1R
#5938500
1!
15
1D
0T
#6000000
0$
0"
0:
08
0Q
0K
0L
0R
#6001000
0!
05
0D
1T
0J
0P
0B
0@
0=
0?
0*
0(
#6062500
1$
1"
1%
0&
1;
1:
18
07
0H
1Q
1K
1E
1G
1L
1R
0I
#6063500
1!
15
1D
0T
#6125000
0$
0"
0:
08
0Q
0K
0L
0R
#6126000
0!
05
0D
1T
#6187500
1$
1"
1&
1:
18
17
1H
1Q
1K
1L
1R
1I
#6188500
1!
15
1D
0T
#6250000
0$
0"
0&
0%
0;
0:
08
07
0H
0Q
0K
0E
0G
0L
0R
0I
#6251000
0!
05
0D
1T
#6312500
1&
1%
1#
17
1;
19
1N
1E
1H
1I
1G
1O
#6313500
1!
15
1D
0T
#6376000
0!
05
0D
1T
1J
1P
1B
1@
1=
1?
1*
1(
#6437500
0&
0%
07
0;
0E
0H
0I
0G
#6438500
1!
15
1D
0T
#6500000
0#
1"
09
18
1Q
0N
0O
1R
#6501000
0!
05
0D
1T
#6562500
1#
1%
1$
1;
1:
19
1N
1K
1E
1G
1L
1O
#6563500
1!
15
1D
0T
#6625000
0#
0%
0;
09
0N
0E
0G
0O
#6626000
0!
05
0D
1T
#6687500
0$
0:
0K
0L
#6688500
1!
15
1D
0T
#6750000
1%
0"
1&
1;
08
17
1H
0Q
1E
1G
0R
1I
#6751000
0!
05
0D
1T
0P
0B
0=
0(
#6812500
0%
1"
0&
1$
0;
1:
18
07
0H
1Q
1K
0E
0G
1L
1R
0I
#6813500
1!
15
1D
0T
#6875000
1&
17
1H
1I
#6876000
0!
05
0D
1T
0J
1M
1S
1C
1A
0@
1<
1>
0?
0*
1)
1'
#6937500
0$
1#
0:
19
1N
0K
0L
1O
#6938500
1!
15
1D
0T
#7000000
0#
0"
1+
09
08
16
1F
0Q
0N
0O
0R
#7001000
0!
05
0D
1T
0M
0S
0C
0A
0<
0>
0)
0'
#7062500
1#
0+
1$
1:
19
06
0F
1N
1K
1L
1O
#7063500
1!
15
1D
0T
#7125000
0#
1"
0&
09
18
07
0H
1Q
0N
0O
1R
0I
#7126000
0!
05
0D
1T
#7187500
1#
0"
1&
0$
0:
19
08
17
1H
0Q
1N
0K
0L
1O
0R
1I
#7188500
1!
15
1D
0T
#7250000
0&
1%
07
1;
1E
0H
0I
1G
#7251000
0!
05
0D
1T
#7312500
1&
0#
1$
17
1:
09
0N
1K
1H
1I
1L
0O
#7313500
1!
15
1D
0T
#7375000
0&
1#
07
19
1N
0H
0I
1O
#7376000
0!
05
0D
1T
#7437500
0#
09
0N
0O
#7438500
1!
15
1D
0T
#7500000
1#
1&
0$
0%
1"
0;
0:
19
18
17
1H
1Q
1N
0K
0E
0G
0L
1O
1R
1I
#7501000
0!
05
0D
1T
1P
1S
1C
1B
1<
1=
1(
1'
#7562500
0&
1$
07
1:
1K
0H
0I
1L
#7563500
1!
15
1D
0T
#7625000
0$
0#
0"
0:
09
08
0Q
0N
0K
0L
0O
0R
#7626000
0!
05
0D
1T
#7687500
1$
1"
1:
18
1Q
1K
1L
1R
#7688500
1!
15
1D
0T
#7750000
1#
1%
1;
19
1N
1E
1G
1O
#7751000
0!
05
0D
1T
#7812500
0#
0$
0"
1&
0:
09
08
17
1H
0Q
0N
0K
0L
0O
0R
1I
#7813500
1!
15
1D
0T
#7875000
1"
0&
18
07
0H
1Q
1R
0I
#7876000
0!
05
0D
1T
#7937500
1$
1:
1K
1L
#7938500
1!
15
1D
0T
