Midterm review/task 1/simulation/qsim/review1_task1.msim.vcd
$comment
	File created using the following command:
		vcd file review1_task1.msim.vcd -direction
$end
$date
	Thu Nov 02 13:28:44 2017
$end
$version
	ModelSim Version 10.5b
$end
$timescale
	1ps
$end

$scope module mux_4to1_vhd_vec_tst $end
$var wire 1 ! f $end
$var wire 1 " s [1] $end
$var wire 1 # s [0] $end
$var wire 1 $ w0 $end
$var wire 1 % w1 $end
$var wire 1 & w2 $end
$var wire 1 ' w3 $end

$scope module i1 $end
$var wire 1 ( gnd $end
$var wire 1 ) vcc $end
$var wire 1 * unknown $end
$var wire 1 + devoe $end
$var wire 1 , devclrn $end
$var wire 1 - devpor $end
$var wire 1 . ww_devoe $end
$var wire 1 / ww_devclrn $end
$var wire 1 0 ww_devpor $end
$var wire 1 1 ww_s [1] $end
$var wire 1 2 ww_s [0] $end
$var wire 1 3 ww_w0 $end
$var wire 1 4 ww_w1 $end
$var wire 1 5 ww_w2 $end
$var wire 1 6 ww_w3 $end
$var wire 1 7 ww_f $end
$var wire 1 8 \f~output_o\ $end
$var wire 1 9 \w2~input_o\ $end
$var wire 1 : \w0~input_o\ $end
$var wire 1 ; \s[0]~input_o\ $end
$var wire 1 < \s[1]~input_o\ $end
$var wire 1 = \w3~input_o\ $end
$var wire 1 > \w1~input_o\ $end
$var wire 1 ? \f~0_combout\ $end
$var wire 1 @ \f~1_combout\ $end
$upscope $end
$upscope $end
$enddefinitions $end
#0
$dumpvars
0!
0$
0%
0&
0'
0(
1)
x*
1+
1,
1-
1.
1/
10
03
04
05
06
07
08
09
0:
0;
0<
0=
0>
0?
0@
0"
0#
01
02
$end
#31250
1'
16
1=
#62500
0'
1&
06
15
19
0=
#93750
1'
16
1=
#125000
0'
0&
1%
06
05
14
1>
09
0=
#156250
1'
16
1=
#187500
0'
1&
06
15
19
0=
#218750
1'
16
1=
#250000
0'
0&
0%
1$
06
05
04
13
1:
0>
09
0=
1@
18
17
1!
#281250
1'
16
1=
#312500
0'
1&
06
15
19
0=
#343750
1'
16
1=
#375000
0'
0&
1%
06
05
14
1>
09
0=
#406250
1'
16
1=
#437500
0'
1&
06
15
19
0=
#468750
1'
16
1=
#500000
0'
0&
0%
0$
1#
06
05
04
03
12
1;
0:
0>
09
0=
0@
08
07
0!
#531250
1'
16
1=
#562500
0'
1&
06
15
19
0=
#593750
1'
16
1=
#625000
0'
0&
1%
06
05
14
1>
09
0=
1?
1@
18
17
1!
#656250
1'
16
1=
#687500
0'
1&
06
15
19
0=
#718750
1'
16
1=
#750000
0'
0&
0%
1$
06
05
04
13
1:
0>
09
0=
0?
0@
08
07
0!
#781250
1'
16
1=
#812500
0'
1&
06
15
19
0=
#843750
1'
16
1=
#875000
0'
0&
1%
06
05
14
1>
09
0=
1?
1@
18
17
1!
#906250
1'
16
1=
#937500
0'
1&
06
15
19
0=
#968750
1'
16
1=
#1000000
0'
0&
0%
0$
0#
1"
06
05
04
03
02
11
1<
0;
0:
0>
09
0=
0@
08
07
0!
#1031250
1'
16
1=
#1062500
0'
1&
06
15
19
0=
1@
18
17
1!
#1093750
1'
16
1=
#1125000
0'
0&
1%
06
05
14
1>
09
0=
0@
08
07
0!
#1156250
1'
16
1=
#1187500
0'
1&
06
15
19
0=
1@
18
17
1!
#1218750
1'
16
1=
#1250000
0'
0&
0%
1$
06
05
04
13
1:
0>
09
0=
0@
08
07
0!
#1281250
1'
16
1=
#1312500
0'
1&
06
15
19
0=
1@
18
17
1!
#1343750
1'
16
1=
#1375000
0'
0&
1%
06
05
14
1>
09
0=
0@
08
07
0!
#1406250
1'
16
1=
#1437500
0'
1&
06
15
19
0=
1@
18
17
1!
#1468750
1'
16
1=
#1500000
0'
0&
0%
0$
1#
06
05
04
03
12
1;
0:
0>
09
0=
0?
0@
08
07
0!
#1531250
1'
16
1=
1?
1@
18
17
1!
#1562500
0'
1&
06
15
19
0=
0?
0@
08
07
0!
#1593750
1'
16
1=
1?
1@
18
17
1!
#1625000
0'
0&
1%
06
05
14
1>
09
0=
0?
0@
08
07
0!
#1656250
1'
16
1=
1?
1@
18
17
1!
#1687500
0'
1&
06
15
19
0=
0?
0@
08
07
0!
#1718750
1'
16
1=
1?
1@
18
17
1!
#1750000
0'
0&
0%
1$
06
05
04
13
1:
0>
09
0=
0?
0@
08
07
0!
#1781250
1'
16
1=
1?
1@
18
17
1!
#1812500
0'
1&
06
15
19
0=
0?
0@
08
07
0!
#1843750
1'
16
1=
1?
1@
18
17
1!
#1875000
0'
0&
1%
06
05
14
1>
09
0=
0?
0@
08
07
0!
#1906250
1'
16
1=
1?
1@
18
17
1!
#1937500
0'
1&
06
15
19
0=
0?
0@
08
07
0!
#1968750
1'
16
1=
1?
1@
18
17
1!
