lab 7/task 1/simulation/qsim/lab7_task1.msim.vcd
$comment
	File created using the following command:
		vcd file lab7_task1.msim.vcd -direction
$end
$date
	Tue Nov 07 16:21:10 2017
$end
$version
	ModelSim Version 10.5b
$end
$timescale
	1ps
$end

$scope module jk_flop_vhd_vec_tst $end
$var wire 1 ! clk $end
$var wire 1 " EN $end
$var wire 1 # J $end
$var wire 1 $ K $end
$var wire 1 % Q $end
$var wire 1 & Qbar $end
$var wire 1 ' rst $end

$scope module i1 $end
$var wire 1 ( gnd $end
$var wire 1 ) vcc $end
$var wire 1 * unknown $end
$var wire 1 + devoe $end
$var wire 1 , devclrn $end
$var wire 1 - devpor $end
$var wire 1 . ww_devoe $end
$var wire 1 / ww_devclrn $end
$var wire 1 0 ww_devpor $end
$var wire 1 1 ww_clk $end
$var wire 1 2 ww_rst $end
$var wire 1 3 ww_EN $end
$var wire 1 4 ww_J $end
$var wire 1 5 ww_K $end
$var wire 1 6 ww_Q $end
$var wire 1 7 ww_Qbar $end
$var wire 1 8 \Q~output_o\ $end
$var wire 1 9 \Qbar~output_o\ $end
$var wire 1 : \clk~input_o\ $end
$var wire 1 ; \EN~input_o\ $end
$var wire 1 < \K~input_o\ $end
$var wire 1 = \J~input_o\ $end
$var wire 1 > \rst~input_o\ $end
$var wire 1 ? \Qtemp~0_combout\ $end
$var wire 1 @ \Qtemp~1_combout\ $end
$var wire 1 A \Qtemp~q\ $end
$var wire 1 B \ALT_INV_Qtemp~q\ $end
$var wire 1 C \ALT_INV_clk~input_o\ $end
$upscope $end
$upscope $end
$enddefinitions $end
#0
$dumpvars
1!
1"
0#
1$
0%
1&
1'
0(
1)
x*
1+
1,
1-
1.
1/
10
11
12
13
04
15
06
17
08
19
1:
1;
1<
0=
1>
0?
0@
0A
1B
0C
$end
#62500
0!
01
0:
1C
#125000
1!
0"
0$
11
03
05
0<
0;
1:
0C
#187500
0!
0'
01
02
0>
0:
1C
#250000
1!
1#
11
14
1=
1:
0C
1?
#312500
0!
01
0:
1C
#375000
1!
1"
1$
11
13
15
1<
1;
1:
0C
1@
#437500
0!
01
0:
1C
1A
0B
0?
0@
18
09
16
07
1%
0&
#500000
1!
0$
11
05
0<
1:
0C
1@
#562500
0!
01
0:
1C
#625000
1!
1$
0"
0#
11
15
03
04
0=
0;
1<
1:
0C
#687500
0!
01
0:
1C
#750000
1!
11
1:
0C
#812500
0!
01
0:
1C
#875000
1!
0$
1"
1#
11
05
13
14
1=
1;
0<
1:
0C
#937500
0!
01
0:
1C
#1000000
1!
1$
0"
0#
11
15
03
04
0=
0;
1<
1:
0C
#1062500
0!
01
0:
1C
#1125000
1!
0$
1"
11
05
13
1;
0<
1:
0C
#1187500
0!
01
0:
1C
#1250000
1!
1$
0"
11
15
03
0;
1<
1:
0C
#1312500
0!
01
0:
1C
#1375000
1!
1#
11
14
1=
1:
0C
#1437500
0!
01
0:
1C
#1500000
1!
0$
11
05
0<
1:
0C
#1562500
0!
01
0:
1C
#1625000
1!
11
1:
0C
#1687500
0!
01
0:
1C
#1750000
1!
1$
0#
11
15
04
0=
1<
1:
0C
#1812500
0!
01
0:
1C
#1875000
1!
0$
11
05
0<
1:
0C
#1937500
0!
01
0:
1C
#2000000
1!
1$
1#
11
15
14
1=
1<
1:
0C
#2062500
0!
01
0:
1C
#2125000
1!
1"
11
13
1;
1:
0C
0@
#2187500
0!
01
0:
1C
0A
1B
1?
1@
08
19
06
17
0%
1&
#2250000
1!
0$
11
05
0<
1:
0C
#2312500
0!
01
0:
1C
1A
0B
0?
0@
1@
18
09
16
07
1%
0&
#2375000
1!
1$
0#
11
15
04
0=
1<
1:
0C
0@
#2437500
0!
01
0:
1C
0A
1B
08
19
06
17
0%
1&
#2500000
1!
0$
1#
0"
11
05
14
03
0;
1=
0<
1:
0C
1?
#2562500
0!
01
0:
1C
#2625000
1!
1"
11
13
1;
1:
0C
1@
#2687500
0!
01
0:
1C
1A
0B
0?
0@
1@
18
09
16
07
1%
0&
#2750000
1!
0"
1$
11
03
15
1<
0;
1:
0C
#2812500
0!
01
0:
1C
#2875000
1!
0$
0#
11
05
04
0=
0<
1:
0C
#2937500
0!
01
0:
1C
#3000000
1!
1#
11
14
1=
1:
0C
#3062500
0!
01
0:
1C
#3125000
1!
1$
11
15
1<
1:
0C
#3187500
0!
01
0:
1C
#3250000
1!
0#
11
04
0=
1:
0C
#3312500
0!
01
0:
1C
#3375000
1!
1#
11
14
1=
1:
0C
#3437500
0!
01
0:
1C
#3500000
1!
0#
0$
1"
11
04
05
13
1;
0<
0=
1:
0C
#3562500
0!
01
0:
1C
#3625000
1!
11
1:
0C
#3687500
0!
01
0:
1C
#3750000
1!
1#
0"
11
14
03
0;
1=
1:
0C
#3812500
0!
01
0:
1C
#3875000
1!
1$
11
15
1<
1:
0C
#3937500
0!
01
0:
1C
#4000000
1!
0$
0#
1"
11
05
04
13
1;
0=
0<
1:
0C
#4062500
0!
01
0:
1C
#4125000
1!
1#
11
14
1=
1:
0C
#4187500
0!
01
0:
1C
#4250000
1!
0#
0"
11
04
03
0;
0=
1:
0C
#4312500
0!
01
0:
1C
#4375000
1!
1#
1$
11
14
15
1<
1=
1:
0C
#4437500
0!
01
0:
1C
#4500000
1!
0#
0$
11
04
05
0<
0=
1:
0C
#4562500
0!
01
0:
1C
#4625000
1!
1#
1$
11
14
15
1<
1=
1:
0C
#4687500
0!
01
0:
1C
#4750000
1!
11
1:
0C
#4812500
0!
01
0:
1C
#4875000
1!
11
1:
0C
#4937500
0!
01
0:
1C
#5000000
1!
0#
1"
11
04
13
1;
0=
1:
0C
0@
#5062500
0!
01
0:
1C
0A
1B
08
19
06
17
0%
1&
#5125000
1!
1#
0"
0$
11
14
03
05
0<
0;
1=
1:
0C
1?
#5187500
0!
01
0:
1C
#5250000
1!
11
1:
0C
#5312500
0!
01
0:
1C
#5375000
1!
0#
1$
11
04
15
1<
0=
1:
0C
0?
#5437500
0!
01
0:
1C
#5500000
1!
0$
1"
11
05
13
1;
0<
1:
0C
#5562500
0!
01
0:
1C
#5625000
1!
0"
1#
11
03
14
1=
0;
1:
0C
1?
#5687500
0!
01
0:
1C
#5750000
1!
0#
11
04
0=
1:
0C
0?
#5812500
0!
01
0:
1C
#5875000
1!
1#
1"
11
14
13
1;
1=
1:
0C
1?
1@
#5937500
0!
01
0:
1C
1A
0B
0?
0@
1@
18
09
16
07
1%
0&
#6000000
1!
1$
11
15
1<
1:
0C
0@
#6062500
0!
01
0:
1C
0A
1B
1?
1@
08
19
06
17
0%
1&
#6125000
1!
0#
0"
11
04
03
0;
0=
1:
0C
0?
0@
#6187500
0!
01
0:
1C
#6250000
1!
0$
11
05
0<
1:
0C
#6312500
0!
01
0:
1C
#6375000
1!
1$
1#
11
15
14
1=
1<
1:
0C
1?
#6437500
0!
01
0:
1C
#6500000
1!
0$
11
05
0<
1:
0C
#6562500
0!
01
0:
1C
#6625000
1!
1$
1"
11
15
13
1;
1<
1:
0C
1@
#6687500
0!
01
0:
1C
1A
0B
0?
0@
18
09
16
07
1%
0&
#6750000
1!
0"
11
03
0;
1:
0C
1@
#6812500
0!
01
0:
1C
#6875000
1!
1"
0$
11
13
05
0<
1;
1:
0C
#6937500
0!
01
0:
1C
#7000000
1!
0"
1$
1'
11
03
15
12
1>
1<
0;
1:
0C
1?
0@
#7062500
0!
0'
01
02
0>
0:
1C
0?
0A
1@
1B
1?
0@
08
19
06
17
0%
1&
#7125000
1!
0$
11
05
0<
1:
0C
#7187500
0!
01
0:
1C
#7250000
1!
1$
0#
11
15
04
0=
1<
1:
0C
0?
#7312500
0!
01
0:
1C
#7375000
1!
1#
11
14
1=
1:
0C
1?
#7437500
0!
01
0:
1C
#7500000
1!
0#
0$
1"
11
04
05
13
1;
0<
0=
1:
0C
0?
1@
0@
#7562500
0!
01
0:
1C
#7625000
1!
1#
1$
11
14
15
1<
1=
1:
0C
1?
1@
#7687500
0!
01
0:
1C
1A
0B
0?
0@
18
09
16
07
1%
0&
#7750000
1!
0#
0$
11
04
05
0<
0=
1:
0C
1@
#7812500
0!
01
0:
1C
#7875000
1!
1#
1$
11
14
15
1<
1=
1:
0C
0@
#7937500
0!
01
0:
1C
0A
1B
1?
1@
08
19
06
17
0%
1&
