lab 4/task 2/simulation/qsim/lab4_task2.msim.vcd
$comment
	File created using the following command:
		vcd file lab4_task2.msim.vcd -direction
$end
$date
	Tue Oct 17 19:28:31 2017
$end
$version
	ModelSim Version 10.5b
$end
$timescale
	1ps
$end

$scope module compare_signed_2bit_cssa_vhd_vec_tst $end
$var wire 1 ! A [1] $end
$var wire 1 " A [0] $end
$var wire 1 # B [1] $end
$var wire 1 $ B [0] $end
$var wire 1 % E $end
$var wire 1 & G $end
$var wire 1 ' L $end

$scope module i1 $end
$var wire 1 ( gnd $end
$var wire 1 ) vcc $end
$var wire 1 * unknown $end
$var wire 1 + devoe $end
$var wire 1 , devclrn $end
$var wire 1 - devpor $end
$var wire 1 . ww_devoe $end
$var wire 1 / ww_devclrn $end
$var wire 1 0 ww_devpor $end
$var wire 1 1 ww_A [1] $end
$var wire 1 2 ww_A [0] $end
$var wire 1 3 ww_B [1] $end
$var wire 1 4 ww_B [0] $end
$var wire 1 5 ww_L $end
$var wire 1 6 ww_E $end
$var wire 1 7 ww_G $end
$var wire 1 8 \L~output_o\ $end
$var wire 1 9 \E~output_o\ $end
$var wire 1 : \G~output_o\ $end
$var wire 1 ; \B[1]~input_o\ $end
$var wire 1 < \B[0]~input_o\ $end
$var wire 1 = \A[0]~input_o\ $end
$var wire 1 > \A[1]~input_o\ $end
$var wire 1 ? \Mux0~0_combout\ $end
$var wire 1 @ \Mux2~0_combout\ $end
$var wire 1 A \Mux1~0_combout\ $end
$var wire 1 B \ALT_INV_Mux2~0_combout\ $end
$upscope $end
$upscope $end
$enddefinitions $end
#0
$dumpvars
0%
0&
0'
0(
1)
x*
1+
1,
1-
1.
1/
10
05
06
07
08
09
0:
x;
x<
x=
x>
x?
x@
xA
xB
0!
0"
0#
0$
01
02
03
04
$end
#736
0<
#766
0=
#786
0;
0>
#3285
x:
x7
x&
#3566
x9
x6
x%
#3574
x8
x5
x'
#4271
0A
#4272
0@
0?
1B
#7521
0:
07
0&
#7804
08
05
0'
#7826
19
16
1%
#125000
1$
14
#125630
1<
#129173
1@
1?
0B
#132747
18
15
1'
#132764
09
06
0%
#250000
0$
1#
04
13
#250680
1;
#250736
0<
#253930
1A
#253949
0?
#257215
1:
17
1&
#257481
08
05
0'
#375000
1$
14
#375630
1<
#500000
0$
0#
1"
04
03
12
#500660
1=
#500736
0<
#500786
0;
#504283
0@
1B
#504303
0A
#504504
1A
#504530
1@
0B
#507553
0:
07
0&
#507789
1:
17
1&
#507837
19
16
1%
#508121
09
06
0%
#625000
1$
14
#625630
1<
#629164
0A
0@
1B
#632414
0:
07
0&
#632718
19
16
1%
#750000
0$
1#
04
13
#750680
1;
#750736
0<
#753930
1A
1@
0B
#757215
1:
17
1&
#757521
09
06
0%
#875000
1$
14
#875630
1<
#1000000
0$
0#
0"
1!
04
03
02
11
#1000680
1>
#1000736
0<
#1000766
0=
#1000786
0;
#1003911
0A
0@
1B
#1004296
1@
0B
#1004307
1?
#1007161
0:
07
0&
#1007465
19
16
1%
#1007881
18
15
1'
#1007887
09
06
0%
#1125000
1$
14
#1125630
1<
#1250000
0$
1#
04
13
#1250680
1;
#1250736
0<
#1254516
0?
#1254521
0@
1B
#1258048
08
05
0'
#1258075
19
16
1%
#1375000
1$
14
#1375630
1<
#1379173
1@
1?
0B
#1382747
18
15
1'
#1382764
09
06
0%
#1500000
0$
0#
1"
04
03
12
#1500660
1=
#1500736
0<
#1500786
0;
#1504038
0?
#1504039
0@
1B
#1504296
1@
0B
#1504307
1?
#1507570
08
05
0'
#1507593
19
16
1%
#1507881
18
15
1'
#1507887
09
06
0%
#1625000
1$
14
#1625630
1<
#1750000
0$
1#
04
13
#1750680
1;
#1750736
0<
#1753917
0@
1B
#1753949
0?
#1754504
1A
#1754530
1@
0B
#1757471
19
16
1%
#1757481
08
05
0'
#1757789
1:
17
1&
#1758121
09
06
0%
#1875000
1$
14
#1875630
1<
#1879164
0A
0@
1B
#1882414
0:
07
0&
#1882718
19
16
1%
