lab 4/task 2/simulation/qsim/lab4_task2.msim.vcd
$comment
	File created using the following command:
		vcd file lab4_task2.msim.vcd -direction
$end
$date
	Wed Oct 18 09:00:42 2017
$end
$version
	ModelSim Version 10.5b
$end
$timescale
	1ps
$end

$scope module compare_signed_2bit_cssa_vhd_vec_tst $end
$var wire 1 ! A [1] $end
$var wire 1 " A [0] $end
$var wire 1 # B [1] $end
$var wire 1 $ B [0] $end
$var wire 1 % E $end
$var wire 1 & G $end
$var wire 1 ' L $end

$scope module i1 $end
$var wire 1 ( gnd $end
$var wire 1 ) vcc $end
$var wire 1 * unknown $end
$var wire 1 + devoe $end
$var wire 1 , devclrn $end
$var wire 1 - devpor $end
$var wire 1 . ww_devoe $end
$var wire 1 / ww_devclrn $end
$var wire 1 0 ww_devpor $end
$var wire 1 1 ww_A [1] $end
$var wire 1 2 ww_A [0] $end
$var wire 1 3 ww_B [1] $end
$var wire 1 4 ww_B [0] $end
$var wire 1 5 ww_L $end
$var wire 1 6 ww_E $end
$var wire 1 7 ww_G $end
$var wire 1 8 \~QUARTUS_CREATED_GND~I_combout\ $end
$var wire 1 9 \~ALTERA_ASDO_DATA1~~ibuf_o\ $end
$var wire 1 : \~ALTERA_ASDO_DATA1~~padout\ $end
$var wire 1 ; \~ALTERA_FLASH_nCE_nCSO~~ibuf_o\ $end
$var wire 1 < \~ALTERA_FLASH_nCE_nCSO~~padout\ $end
$var wire 1 = \~ALTERA_DCLK~~padout\ $end
$var wire 1 > \~ALTERA_DATA0~~ibuf_o\ $end
$var wire 1 ? \~ALTERA_DATA0~~padout\ $end
$var wire 1 @ \~ALTERA_nCEO~~padout\ $end
$var wire 1 A \~ALTERA_DCLK~~obuf_o\ $end
$var wire 1 B \~ALTERA_nCEO~~obuf_o\ $end
$var wire 1 C \B[0]~input_o\ $end
$var wire 1 D \B[1]~input_o\ $end
$var wire 1 E \A[0]~input_o\ $end
$var wire 1 F \A[1]~input_o\ $end
$var wire 1 G \Mux0~0_combout\ $end
$var wire 1 H \Mux2~0_combout\ $end
$var wire 1 I \Mux1~0_combout\ $end
$var wire 1 J \ALT_INV_Mux2~0_combout\ $end
$upscope $end
$upscope $end
$enddefinitions $end
#0
$dumpvars
1%
0&
0'
0(
1)
x*
1+
1,
1-
1.
1/
10
05
16
07
x8
x9
x:
x;
x<
x=
x>
x?
x@
xA
xB
0C
0D
0E
0F
0G
0H
0I
1J
0!
0"
0#
0$
01
02
03
04
$end
#125000
1$
14
1C
1G
1H
0J
15
06
1'
0%
#250000
0$
1#
04
13
1D
0C
0G
1I
17
05
1&
0'
#375000
1$
14
1C
#500000
0$
0#
1"
04
03
12
1E
0D
0C
#625000
1$
14
1C
0H
0I
1J
07
16
0&
1%
#750000
0$
1#
04
13
1D
0C
1H
1I
0J
17
06
1&
0%
#875000
1$
14
1C
#1000000
0$
0#
0"
1!
04
03
02
11
1F
0E
0D
0C
1G
0I
07
15
0&
1'
#1125000
1$
14
1C
#1250000
0$
1#
04
13
1D
0C
0G
0H
1J
05
16
0'
1%
#1375000
1$
14
1C
1G
1H
0J
15
06
1'
0%
#1500000
0$
0#
1"
04
03
12
1E
0D
0C
#1625000
1$
14
1C
#1750000
0$
1#
04
13
1D
0C
0G
1I
17
05
1&
0'
#1875000
1$
14
1C
0H
0I
1J
07
16
0&
1%
