lab 5/task 2/simulation/qsim/lab5_task2.msim.vcd
$comment
	File created using the following command:
		vcd file lab5_task2.msim.vcd -direction
$end
$date
	Wed Oct 25 10:55:07 2017
$end
$version
	ModelSim Version 10.5b
$end
$timescale
	1ps
$end

$scope module combo_arbiter_msb_8bit_vhd_vec_tst $end
$var wire 1 ! grant [7] $end
$var wire 1 " grant [6] $end
$var wire 1 # grant [5] $end
$var wire 1 $ grant [4] $end
$var wire 1 % grant [3] $end
$var wire 1 & grant [2] $end
$var wire 1 ' grant [1] $end
$var wire 1 ( grant [0] $end
$var wire 1 ) req [7] $end
$var wire 1 * req [6] $end
$var wire 1 + req [5] $end
$var wire 1 , req [4] $end
$var wire 1 - req [3] $end
$var wire 1 . req [2] $end
$var wire 1 / req [1] $end
$var wire 1 0 req [0] $end
$var wire 1 1 zero $end

$scope module i1 $end
$var wire 1 2 gnd $end
$var wire 1 3 vcc $end
$var wire 1 4 unknown $end
$var wire 1 5 devoe $end
$var wire 1 6 devclrn $end
$var wire 1 7 devpor $end
$var wire 1 8 ww_devoe $end
$var wire 1 9 ww_devclrn $end
$var wire 1 : ww_devpor $end
$var wire 1 ; ww_req [7] $end
$var wire 1 < ww_req [6] $end
$var wire 1 = ww_req [5] $end
$var wire 1 > ww_req [4] $end
$var wire 1 ? ww_req [3] $end
$var wire 1 @ ww_req [2] $end
$var wire 1 A ww_req [1] $end
$var wire 1 B ww_req [0] $end
$var wire 1 C ww_grant [7] $end
$var wire 1 D ww_grant [6] $end
$var wire 1 E ww_grant [5] $end
$var wire 1 F ww_grant [4] $end
$var wire 1 G ww_grant [3] $end
$var wire 1 H ww_grant [2] $end
$var wire 1 I ww_grant [1] $end
$var wire 1 J ww_grant [0] $end
$var wire 1 K ww_zero $end
$var wire 1 L \grant[0]~output_o\ $end
$var wire 1 M \grant[1]~output_o\ $end
$var wire 1 N \grant[2]~output_o\ $end
$var wire 1 O \grant[3]~output_o\ $end
$var wire 1 P \grant[4]~output_o\ $end
$var wire 1 Q \grant[5]~output_o\ $end
$var wire 1 R \grant[6]~output_o\ $end
$var wire 1 S \grant[7]~output_o\ $end
$var wire 1 T \zero~output_o\ $end
$var wire 1 U \req[0]~input_o\ $end
$var wire 1 V \req[4]~input_o\ $end
$var wire 1 W \req[5]~input_o\ $end
$var wire 1 X \req[6]~input_o\ $end
$var wire 1 Y \req[7]~input_o\ $end
$var wire 1 Z \grant~0_combout\ $end
$var wire 1 [ \req[1]~input_o\ $end
$var wire 1 \ \req[2]~input_o\ $end
$var wire 1 ] \req[3]~input_o\ $end
$var wire 1 ^ \Mux0~0_combout\ $end
$var wire 1 _ \grant~1_combout\ $end
$var wire 1 ` \grant~2_combout\ $end
$var wire 1 a \grant~3_combout\ $end
$var wire 1 b \grant~4_combout\ $end
$var wire 1 c \grant~5_combout\ $end
$var wire 1 d \grant~6_combout\ $end
$var wire 1 e \grant~7_combout\ $end
$var wire 1 f \Mux0~1_combout\ $end
$upscope $end
$upscope $end
$enddefinitions $end
#0
$dumpvars
11
02
13
x4
15
16
17
18
19
1:
1K
0L
0M
0N
0O
0P
0Q
0R
0S
1T
0U
0V
0W
0X
0Y
1Z
0[
0\
0]
1^
0_
0`
0a
0b
0c
0d
0e
1f
0)
0*
0+
0,
0-
0.
0/
00
0;
0<
0=
0>
0?
0@
0A
0B
0C
0D
0E
0F
0G
0H
0I
0J
0!
0"
0#
0$
0%
0&
0'
0(
$end
#250000
10
1B
1U
1_
0f
0T
1L
0K
1J
01
1(
#500000
00
1/
0B
1A
1[
0U
0_
1f
0^
1`
0f
1M
1T
0L
1I
1K
0J
0T
0(
1'
11
0K
01
#750000
10
1B
1U
#1000000
00
0/
1.
0B
0A
1@
1\
0[
0U
0`
1a
1N
0M
1H
0I
0'
1&
#1250000
10
1B
1U
#1500000
00
1/
0B
1A
1[
0U
#1750000
10
1B
1U
#2000000
00
0/
0.
1-
0B
0A
0@
1?
1]
0\
0[
0U
0a
1b
1O
0N
1G
0H
0&
1%
#2250000
10
1B
1U
#2500000
00
1/
0B
1A
1[
0U
#2750000
10
1B
1U
#3000000
00
0/
1.
0B
0A
1@
1\
0[
0U
#3250000
10
1B
1U
#3500000
00
1/
0B
1A
1[
0U
#3750000
10
1B
1U
#4000000
00
0/
0.
0-
1,
0B
0A
0@
0?
1>
1V
0]
0\
0[
0U
1^
0b
0Z
1c
0^
1f
0f
1P
0O
1F
0G
1T
0%
1$
1K
0T
11
0K
01
#4250000
10
1B
1U
#4500000
00
1/
0B
1A
1[
0U
#4750000
10
1B
1U
#5000000
00
0/
1.
0B
0A
1@
1\
0[
0U
#5250000
10
1B
1U
#5500000
00
1/
0B
1A
1[
0U
#5750000
10
1B
1U
#6000000
00
0/
0.
1-
0B
0A
0@
1?
1]
0\
0[
0U
#6250000
10
1B
1U
#6500000
00
1/
0B
1A
1[
0U
#6750000
10
1B
1U
#7000000
00
0/
1.
0B
0A
1@
1\
0[
0U
#7250000
10
1B
1U
#7500000
00
1/
0B
1A
1[
0U
#7750000
10
1B
1U
#8000000
00
0/
0.
0-
0,
1+
0B
0A
0@
0?
0>
1=
1W
0V
0]
0\
0[
0U
0c
1d
1Q
0P
1E
0F
0$
1#
#8250000
10
1B
1U
#8500000
00
1/
0B
1A
1[
0U
#8750000
10
1B
1U
#9000000
00
0/
1.
0B
0A
1@
1\
0[
0U
#9250000
10
1B
1U
#9500000
00
1/
0B
1A
1[
0U
#9750000
10
1B
1U
#10000000
00
0/
0.
1-
0B
0A
0@
1?
1]
0\
0[
0U
#10250000
10
1B
1U
#10500000
00
1/
0B
1A
1[
0U
#10750000
10
1B
1U
#11000000
00
0/
1.
0B
0A
1@
1\
0[
0U
#11250000
10
1B
1U
#11500000
00
1/
0B
1A
1[
0U
#11750000
10
1B
1U
#12000000
00
0/
0.
0-
1,
0B
0A
0@
0?
1>
1V
0]
0\
0[
0U
#12250000
10
1B
1U
#12500000
00
1/
0B
1A
1[
0U
#12750000
10
1B
1U
#13000000
00
0/
1.
0B
0A
1@
1\
0[
0U
#13250000
10
1B
1U
#13500000
00
1/
0B
1A
1[
0U
#13750000
10
1B
1U
#14000000
00
0/
0.
1-
0B
0A
0@
1?
1]
0\
0[
0U
#14250000
10
1B
1U
#14500000
00
1/
0B
1A
1[
0U
#14750000
10
1B
1U
#15000000
00
0/
1.
0B
0A
1@
1\
0[
0U
#15250000
10
1B
1U
#15500000
00
1/
0B
1A
1[
0U
#15750000
10
1B
1U
#16000000
00
0/
0.
0-
0,
0+
1*
0B
0A
0@
0?
0>
0=
1<
1X
0W
0V
0]
0\
0[
0U
0d
1e
1R
0Q
1D
0E
0#
1"
#16250000
10
1B
1U
#16500000
00
1/
0B
1A
1[
0U
#16750000
10
1B
1U
#17000000
00
0/
1.
0B
0A
1@
1\
0[
0U
#17250000
10
1B
1U
#17500000
00
1/
0B
1A
1[
0U
#17750000
10
1B
1U
#18000000
00
0/
0.
1-
0B
0A
0@
1?
1]
0\
0[
0U
#18250000
10
1B
1U
#18500000
00
1/
0B
1A
1[
0U
#18750000
10
1B
1U
#19000000
00
0/
1.
0B
0A
1@
1\
0[
0U
#19250000
10
1B
1U
#19500000
00
1/
0B
1A
1[
0U
#19750000
10
1B
1U
#20000000
00
0/
0.
0-
1,
0B
0A
0@
0?
1>
1V
0]
0\
0[
0U
#20250000
10
1B
1U
#20500000
00
1/
0B
1A
1[
0U
#20750000
10
1B
1U
#21000000
00
0/
1.
0B
0A
1@
1\
0[
0U
#21250000
10
1B
1U
#21500000
00
1/
0B
1A
1[
0U
#21750000
10
1B
1U
#22000000
00
0/
0.
1-
0B
0A
0@
1?
1]
0\
0[
0U
#22250000
10
1B
1U
#22500000
00
1/
0B
1A
1[
0U
#22750000
10
1B
1U
#23000000
00
0/
1.
0B
0A
1@
1\
0[
0U
#23250000
10
1B
1U
#23500000
00
1/
0B
1A
1[
0U
#23750000
10
1B
1U
#24000000
00
0/
0.
0-
0,
1+
0B
0A
0@
0?
0>
1=
1W
0V
0]
0\
0[
0U
#24250000
10
1B
1U
#24500000
00
1/
0B
1A
1[
0U
#24750000
10
1B
1U
#25000000
00
0/
1.
0B
0A
1@
1\
0[
0U
#25250000
10
1B
1U
#25500000
00
1/
0B
1A
1[
0U
#25750000
10
1B
1U
#26000000
00
0/
0.
1-
0B
0A
0@
1?
1]
0\
0[
0U
#26250000
10
1B
1U
#26500000
00
1/
0B
1A
1[
0U
#26750000
10
1B
1U
#27000000
00
0/
1.
0B
0A
1@
1\
0[
0U
#27250000
10
1B
1U
#27500000
00
1/
0B
1A
1[
0U
#27750000
10
1B
1U
#28000000
00
0/
0.
0-
1,
0B
0A
0@
0?
1>
1V
0]
0\
0[
0U
#28250000
10
1B
1U
#28500000
00
1/
0B
1A
1[
0U
#28750000
10
1B
1U
#29000000
00
0/
1.
0B
0A
1@
1\
0[
0U
#29250000
10
1B
1U
#29500000
00
1/
0B
1A
1[
0U
#29750000
10
1B
1U
#30000000
00
0/
0.
1-
0B
0A
0@
1?
1]
0\
0[
0U
#30250000
10
1B
1U
#30500000
00
1/
0B
1A
1[
0U
#30750000
10
1B
1U
#31000000
00
0/
1.
0B
0A
1@
1\
0[
0U
#31250000
10
1B
1U
#31500000
00
1/
0B
1A
1[
0U
#31750000
10
1B
1U
#32000000
00
0/
0.
0-
0,
0+
0*
1)
0B
0A
0@
0?
0>
0=
0<
1;
1Y
0X
0W
0V
0]
0\
0[
0U
0e
1S
1C
0R
1!
0D
0"
#32250000
10
1B
1U
#32500000
00
1/
0B
1A
1[
0U
#32750000
10
1B
1U
#33000000
00
0/
1.
0B
0A
1@
1\
0[
0U
#33250000
10
1B
1U
#33500000
00
1/
0B
1A
1[
0U
#33750000
10
1B
1U
#34000000
00
0/
0.
1-
0B
0A
0@
1?
1]
0\
0[
0U
#34250000
10
1B
1U
#34500000
00
1/
0B
1A
1[
0U
#34750000
10
1B
1U
#35000000
00
0/
1.
0B
0A
1@
1\
0[
0U
#35250000
10
1B
1U
#35500000
00
1/
0B
1A
1[
0U
#35750000
10
1B
1U
#36000000
00
0/
0.
0-
1,
0B
0A
0@
0?
1>
1V
0]
0\
0[
0U
#36250000
10
1B
1U
#36500000
00
1/
0B
1A
1[
0U
#36750000
10
1B
1U
#37000000
00
0/
1.
0B
0A
1@
1\
0[
0U
#37250000
10
1B
1U
#37500000
00
1/
0B
1A
1[
0U
#37750000
10
1B
1U
#38000000
00
0/
0.
1-
0B
0A
0@
1?
1]
0\
0[
0U
#38250000
10
1B
1U
#38500000
00
1/
0B
1A
1[
0U
#38750000
10
1B
1U
#39000000
00
0/
1.
0B
0A
1@
1\
0[
0U
#39250000
10
1B
1U
#39500000
00
1/
0B
1A
1[
0U
#39750000
10
1B
1U
#40000000
00
0/
0.
0-
0,
1+
0B
0A
0@
0?
0>
1=
1W
0V
0]
0\
0[
0U
#40250000
10
1B
1U
#40500000
00
1/
0B
1A
1[
0U
#40750000
10
1B
1U
#41000000
00
0/
1.
0B
0A
1@
1\
0[
0U
#41250000
10
1B
1U
#41500000
00
1/
0B
1A
1[
0U
#41750000
10
1B
1U
#42000000
00
0/
0.
1-
0B
0A
0@
1?
1]
0\
0[
0U
#42250000
10
1B
1U
#42500000
00
1/
0B
1A
1[
0U
#42750000
10
1B
1U
#43000000
00
0/
1.
0B
0A
1@
1\
0[
0U
#43250000
10
1B
1U
#43500000
00
1/
0B
1A
1[
0U
#43750000
10
1B
1U
#44000000
00
0/
0.
0-
1,
0B
0A
0@
0?
1>
1V
0]
0\
0[
0U
#44250000
10
1B
1U
#44500000
00
1/
0B
1A
1[
0U
#44750000
10
1B
1U
#45000000
00
0/
1.
0B
0A
1@
1\
0[
0U
#45250000
10
1B
1U
#45500000
00
1/
0B
1A
1[
0U
#45750000
10
1B
1U
#46000000
00
0/
0.
1-
0B
0A
0@
1?
1]
0\
0[
0U
#46250000
10
1B
1U
#46500000
00
1/
0B
1A
1[
0U
#46750000
10
1B
1U
#47000000
00
0/
1.
0B
0A
1@
1\
0[
0U
#47250000
10
1B
1U
#47500000
00
1/
0B
1A
1[
0U
#47750000
10
1B
1U
#48000000
00
0/
0.
0-
0,
0+
1*
0B
0A
0@
0?
0>
0=
1<
1X
0W
0V
0]
0\
0[
0U
#48250000
10
1B
1U
#48500000
00
1/
0B
1A
1[
0U
#48750000
10
1B
1U
#49000000
00
0/
1.
0B
0A
1@
1\
0[
0U
#49250000
10
1B
1U
#49500000
00
1/
0B
1A
1[
0U
#49750000
10
1B
1U
#50000000
00
0/
0.
1-
0B
0A
0@
1?
1]
0\
0[
0U
#50250000
10
1B
1U
#50500000
00
1/
0B
1A
1[
0U
#50750000
10
1B
1U
#51000000
00
0/
1.
0B
0A
1@
1\
0[
0U
#51250000
10
1B
1U
#51500000
00
1/
0B
1A
1[
0U
#51750000
10
1B
1U
#52000000
00
0/
0.
0-
1,
0B
0A
0@
0?
1>
1V
0]
0\
0[
0U
#52250000
10
1B
1U
#52500000
00
1/
0B
1A
1[
0U
#52750000
10
1B
1U
#53000000
00
0/
1.
0B
0A
1@
1\
0[
0U
#53250000
10
1B
1U
#53500000
00
1/
0B
1A
1[
0U
#53750000
10
1B
1U
#54000000
00
0/
0.
1-
0B
0A
0@
1?
1]
0\
0[
0U
#54250000
10
1B
1U
#54500000
00
1/
0B
1A
1[
0U
#54750000
10
1B
1U
#55000000
00
0/
1.
0B
0A
1@
1\
0[
0U
#55250000
10
1B
1U
#55500000
00
1/
0B
1A
1[
0U
#55750000
10
1B
1U
#56000000
00
0/
0.
0-
0,
1+
0B
0A
0@
0?
0>
1=
1W
0V
0]
0\
0[
0U
#56250000
10
1B
1U
#56500000
00
1/
0B
1A
1[
0U
#56750000
10
1B
1U
#57000000
00
0/
1.
0B
0A
1@
1\
0[
0U
#57250000
10
1B
1U
#57500000
00
1/
0B
1A
1[
0U
#57750000
10
1B
1U
#58000000
00
0/
0.
1-
0B
0A
0@
1?
1]
0\
0[
0U
#58250000
10
1B
1U
#58500000
00
1/
0B
1A
1[
0U
#58750000
10
1B
1U
#59000000
00
0/
1.
0B
0A
1@
1\
0[
0U
#59250000
10
1B
1U
#59500000
00
1/
0B
1A
1[
0U
#59750000
10
1B
1U
#60000000
00
0/
0.
0-
1,
0B
0A
0@
0?
1>
1V
0]
0\
0[
0U
#60250000
10
1B
1U
#60500000
00
1/
0B
1A
1[
0U
#60750000
10
1B
1U
#61000000
00
0/
1.
0B
0A
1@
1\
0[
0U
#61250000
10
1B
1U
#61500000
00
1/
0B
1A
1[
0U
#61750000
10
1B
1U
#62000000
00
0/
0.
1-
0B
0A
0@
1?
1]
0\
0[
0U
#62250000
10
1B
1U
#62500000
00
1/
0B
1A
1[
0U
#62750000
10
1B
1U
#63000000
00
0/
1.
0B
0A
1@
1\
0[
0U
#63250000
10
1B
1U
#63500000
00
1/
0B
1A
1[
0U
#63750000
10
1B
1U
