lab 2/simulation/qsim/lab2_task1.msim.vcd
$comment
	File created using the following command:
		vcd file lab2_task1.msim.vcd -direction
$end
$date
	Tue Oct 03 19:27:46 2017
$end
$version
	ModelSim Version 10.5b
$end
$timescale
	1ps
$end

$scope module asu_comp_3bit_vhd_vec_tst $end
$var wire 1 ! arith $end
$var wire 1 " r [2] $end
$var wire 1 # r [1] $end
$var wire 1 $ r [0] $end
$var wire 1 % sub $end
$var wire 1 & v $end
$var wire 1 ' x [2] $end
$var wire 1 ( x [1] $end
$var wire 1 ) x [0] $end
$var wire 1 * y [2] $end
$var wire 1 + y [1] $end
$var wire 1 , y [0] $end

$scope module i1 $end
$var wire 1 - gnd $end
$var wire 1 . vcc $end
$var wire 1 / unknown $end
$var wire 1 0 devoe $end
$var wire 1 1 devclrn $end
$var wire 1 2 devpor $end
$var wire 1 3 ww_devoe $end
$var wire 1 4 ww_devclrn $end
$var wire 1 5 ww_devpor $end
$var wire 1 6 ww_arith $end
$var wire 1 7 ww_sub $end
$var wire 1 8 ww_x [2] $end
$var wire 1 9 ww_x [1] $end
$var wire 1 : ww_x [0] $end
$var wire 1 ; ww_y [2] $end
$var wire 1 < ww_y [1] $end
$var wire 1 = ww_y [0] $end
$var wire 1 > ww_r [2] $end
$var wire 1 ? ww_r [1] $end
$var wire 1 @ ww_r [0] $end
$var wire 1 A ww_v $end
$var wire 1 B \r[0]~output_o\ $end
$var wire 1 C \r[1]~output_o\ $end
$var wire 1 D \r[2]~output_o\ $end
$var wire 1 E \v~output_o\ $end
$var wire 1 F \x[0]~input_o\ $end
$var wire 1 G \y[0]~input_o\ $end
$var wire 1 H \FA0|sum~0_combout\ $end
$var wire 1 I \sub~input_o\ $end
$var wire 1 J \FA0|cout~0_combout\ $end
$var wire 1 K \x[1]~input_o\ $end
$var wire 1 L \y[1]~input_o\ $end
$var wire 1 M \xor_sig1~combout\ $end
$var wire 1 N \FA0|g~combout\ $end
$var wire 1 O \FA1|sum~combout\ $end
$var wire 1 P \x[2]~input_o\ $end
$var wire 1 Q \y[2]~input_o\ $end
$var wire 1 R \FA1|cout~0_combout\ $end
$var wire 1 S \FA2|sum~0_combout\ $end
$var wire 1 T \FA2|cout~0_combout\ $end
$var wire 1 U \arith~input_o\ $end
$var wire 1 V \v~0_combout\ $end
$upscope $end
$upscope $end
$enddefinitions $end
#0
$dumpvars
1!
0%
0&
0-
1.
x/
10
11
12
13
14
15
16
07
0A
0B
0C
0D
0E
0F
0G
0H
0I
0J
0K
0L
0M
0N
0O
0P
0Q
0R
0S
0T
1U
0V
0'
0(
0)
0*
0+
0,
08
09
0:
0;
0<
0=
0>
0?
0@
0"
0#
0$
$end
#62500
1,
1=
1G
1H
1B
1@
1$
#125000
0,
1+
0=
1<
1L
0G
0H
1M
1O
0B
0@
1C
0$
1?
1#
#187500
1,
1=
1G
1H
1B
1@
1$
#250000
0,
0+
1*
0=
0<
1;
1Q
0L
0G
0H
0M
1S
0O
1D
0B
1>
0@
0C
0$
1"
0?
0#
#312500
1,
1=
1G
1H
1B
1@
1$
#375000
0,
1+
0=
1<
1L
0G
0H
1M
1O
0B
0@
1C
0$
1?
1#
#437500
1,
1=
1G
1H
1B
1@
1$
#500000
0,
0+
0*
1)
0=
0<
0;
1:
1F
0Q
0L
0G
0M
0S
0O
0D
0>
0C
0"
0?
0#
#562500
1,
1=
1G
0H
1N
1O
0B
0@
1C
0$
1?
1#
#625000
0,
1+
0=
1<
1L
0G
1H
0N
1M
1B
1@
1$
#687500
1,
1=
1G
0H
1N
0O
1R
1S
1V
0B
0@
0C
0$
0?
1E
1D
0#
1A
1>
1&
1"
#750000
0,
0+
1*
0=
0<
1;
1Q
0L
0G
1H
0N
0M
0S
1T
0V
0R
1S
0T
1V
0D
1B
0V
0>
1@
0E
1$
0"
0A
1E
1D
0&
1A
1>
0E
1&
1"
0A
0&
#812500
1,
1=
1G
0H
1N
1O
0B
0@
1C
0$
1?
1#
#875000
0,
1+
0=
1<
1L
0G
1H
0N
1M
1B
1@
1$
#937500
1,
1=
1G
0H
1N
0O
1R
0S
1T
1V
0B
0V
0@
0C
0$
0?
1E
0D
0#
1A
0>
0E
1&
0"
0A
0&
#1000000
0,
0+
0*
0)
1(
0=
0<
0;
0:
19
1K
0F
0Q
0L
0G
0M
1S
0T
0N
1O
1V
0R
0S
0V
1C
1D
1?
1>
1E
1#
1"
1A
0E
0D
1&
0A
0>
0&
0"
#1062500
1,
1=
1G
1H
1B
1@
1$
#1125000
0,
1+
0=
1<
1L
0G
0H
1M
0O
1R
1S
1V
0B
0@
0C
0$
0?
1E
1D
0#
1A
1>
1&
1"
#1187500
1,
1=
1G
1H
1B
1@
1$
#1250000
0,
0+
1*
0=
0<
1;
1Q
0L
0G
0H
0M
0S
1T
0V
1O
0R
1S
0T
1V
0D
0B
0V
0>
0@
1C
0E
0$
0"
1?
0A
1E
1D
1#
0&
1A
1>
0E
1&
1"
0A
0&
#1312500
1,
1=
1G
1H
1B
1@
1$
#1375000
0,
1+
0=
1<
1L
0G
0H
1M
0O
1R
0S
1T
1V
0B
0V
0@
0C
0$
0?
1E
0D
0#
1A
0>
0E
1&
0"
0A
0&
#1437500
1,
1=
1G
1H
1B
1@
1$
#1500000
0,
0+
0*
1)
0=
0<
0;
1:
1F
0Q
0L
0G
0M
1S
0T
1V
1O
0R
0S
0V
1D
1>
1C
1E
1"
1?
1A
0E
0D
1#
1&
0A
0>
0&
0"
#1562500
1,
1=
1G
0H
1N
0O
1R
1S
1V
0B
0@
0C
0$
0?
1E
1D
0#
1A
1>
1&
1"
#1625000
0,
1+
0=
1<
1L
0G
1H
0N
1M
1B
1@
1$
#1687500
1,
1=
1G
0H
1N
1O
0B
0@
1C
0$
1?
1#
#1750000
0,
0+
1*
0=
0<
1;
1Q
0L
0G
1H
0N
0M
0S
1T
0V
0R
1S
0T
1V
0D
1B
0V
0>
1@
0E
1$
0"
0A
1E
1D
0&
1A
1>
0E
1&
1"
0A
0&
#1812500
1,
1=
1G
0H
1N
0O
1R
0S
1T
1V
0B
0V
0@
0C
0$
0?
1E
0D
0#
1A
0>
0E
1&
0"
0A
0&
#1875000
0,
1+
0=
1<
1L
0G
1H
0N
1M
1B
1@
1$
#1937500
1,
1=
1G
0H
1N
1O
0B
0@
1C
0$
1?
1#
#2000000
0,
0+
0*
0)
0(
1'
0=
0<
0;
0:
09
18
1P
0K
0F
0Q
0L
0G
0M
0N
0O
0R
1S
0T
1V
0C
0V
0?
0#
1E
1D
1A
1>
0E
1&
1"
0A
0&
#2062500
1,
1=
1G
1H
1B
1@
1$
#2125000
0,
1+
0=
1<
1L
0G
0H
1M
1O
0B
0@
1C
0$
1?
1#
#2187500
1,
1=
1G
1H
1B
1@
1$
#2250000
0,
0+
1*
0=
0<
1;
1Q
0L
0G
0H
0M
0S
1T
1V
0O
0D
0B
0>
0@
0C
1E
0$
0"
0?
1A
0#
1&
#2312500
1,
1=
1G
1H
1B
1@
1$
#2375000
0,
1+
0=
1<
1L
0G
0H
1M
1O
0B
0@
1C
0$
1?
1#
#2437500
1,
1=
1G
1H
1B
1@
1$
#2500000
0,
0+
0*
1)
0=
0<
0;
1:
1F
0Q
0L
0G
0M
1S
0T
0V
0O
1D
1>
0C
0E
1"
0?
0A
0#
0&
#2562500
1,
1=
1G
0H
1N
1O
0B
0@
1C
0$
1?
1#
#2625000
0,
1+
0=
1<
1L
0G
1H
0N
1M
1B
1@
1$
#2687500
1,
1=
1G
0H
1N
0O
1R
0S
1T
1V
0B
0V
0@
0C
0$
0?
1E
0D
0#
1A
0>
0E
1&
0"
0A
0&
#2750000
0,
0+
1*
0=
0<
1;
1Q
0L
0G
1H
0N
0M
1S
0R
0S
1V
1D
1B
1>
1@
1$
1"
1E
0D
1A
0>
1&
0"
#2812500
1,
1=
1G
0H
1N
1O
0B
0@
1C
0$
1?
1#
#2875000
0,
1+
0=
1<
1L
0G
1H
0N
1M
1B
1@
1$
#2937500
1,
1=
1G
0H
1N
0O
1R
1S
0V
0B
0@
0C
0$
0?
0E
1D
0#
0A
1>
0&
1"
#3000000
0,
0+
0*
0)
1(
0=
0<
0;
0:
19
1K
0F
0Q
0L
0G
0M
0S
0N
1O
0R
1S
0T
1V
1C
0D
0V
1?
0>
1#
0"
1E
1D
1A
1>
0E
1&
1"
0A
0&
#3062500
1,
1=
1G
1H
1B
1@
1$
#3125000
0,
1+
0=
1<
1L
0G
0H
1M
0O
1R
0S
1T
1V
0B
0V
0@
0C
0$
0?
1E
0D
0#
1A
0>
0E
1&
0"
0A
0&
#3187500
1,
1=
1G
1H
1B
1@
1$
#3250000
0,
0+
1*
0=
0<
1;
1Q
0L
0G
0H
0M
1S
1O
0R
0S
1V
1D
0B
1>
0@
1C
0$
1"
1?
1E
0D
1#
1A
0>
1&
0"
#3312500
1,
1=
1G
1H
1B
1@
1$
#3375000
0,
1+
0=
1<
1L
0G
0H
1M
0O
1R
1S
0V
0B
0@
0C
0$
0?
0E
1D
0#
0A
1>
0&
1"
#3437500
1,
1=
1G
1H
1B
1@
1$
#3500000
0,
0+
0*
1)
0=
0<
0;
1:
1F
0Q
0L
0G
0M
0S
1O
0R
1S
0T
1V
0D
0V
0>
1C
0"
1?
1E
1D
1#
1A
1>
0E
1&
1"
0A
0&
#3562500
1,
1=
1G
0H
1N
0O
1R
0S
1T
1V
0B
0V
0@
0C
0$
0?
1E
0D
0#
1A
0>
0E
1&
0"
0A
0&
#3625000
0,
1+
0=
1<
1L
0G
1H
0N
1M
1B
1@
1$
#3687500
1,
1=
1G
0H
1N
1O
0B
0@
1C
0$
1?
1#
#3750000
0,
0+
1*
0=
0<
1;
1Q
0L
0G
1H
0N
0M
1S
0R
0S
1V
1D
1B
1>
1@
1$
1"
1E
0D
1A
0>
1&
0"
#3812500
1,
1=
1G
0H
1N
0O
1R
1S
0V
0B
0@
0C
0$
0?
0E
1D
0#
0A
1>
0&
1"
#3875000
0,
1+
0=
1<
1L
0G
1H
0N
1M
1B
1@
1$
#3937500
1,
1=
1G
0H
1N
1O
0B
0@
1C
0$
1?
1#
#4000000
0,
0+
0*
0)
0(
0'
1%
0=
0<
0;
0:
09
08
17
1I
0P
0K
0F
0Q
0L
0G
0O
1J
0N
0S
0D
0C
0>
0?
0#
0"
#4062500
1,
1=
1G
1H
0J
1O
0R
1S
0T
1V
1B
0V
1@
1C
1$
1?
1E
1D
1#
1A
1>
0E
1&
1"
0A
0&
#4125000
0,
1+
0=
1<
1L
0G
0H
1J
0M
0B
0@
0$
#4187500
1,
1=
1G
1H
0J
0O
1B
1@
0C
1$
0?
0#
#4250000
0,
0+
1*
0=
0<
1;
1Q
0L
0G
0H
1J
1M
0S
1R
1S
1V
0D
0B
0>
0@
0$
0"
1E
1D
1A
1>
1&
1"
#4312500
1,
1=
1G
1H
0J
1O
0R
0S
0V
1B
1@
1C
1$
1?
0E
0D
1#
0A
0>
0&
0"
#4375000
0,
1+
0=
1<
1L
0G
0H
1J
0M
0B
0@
0$
#4437500
1,
1=
1G
1H
0J
0O
1B
1@
0C
1$
0?
0#
#4500000
0,
0+
0*
1)
0=
0<
0;
1:
1F
0Q
0L
0G
1M
1S
1N
1R
0S
1T
1V
1D
0V
1>
1"
1E
0D
1A
0>
0E
1&
0"
0A
0&
#4562500
1,
1=
1G
0H
1J
0N
0B
0@
0$
#4625000
0,
1+
0=
1<
1L
0G
1H
0J
1N
0M
1O
0R
1S
0T
1V
1B
0V
1@
1C
1$
1?
1E
1D
1#
1A
1>
0E
1&
1"
0A
0&
#4687500
1,
1=
1G
0H
1J
0N
0B
0@
0$
#4750000
0,
0+
1*
0=
0<
1;
1Q
0L
0G
1H
0J
1N
1M
0S
0O
1R
1S
1V
0D
1B
0>
1@
0C
1$
0"
0?
1E
1D
0#
1A
1>
1&
1"
#4812500
1,
1=
1G
0H
1J
0N
0B
0@
0$
#4875000
0,
1+
0=
1<
1L
0G
1H
0J
1N
0M
1O
0R
0S
0V
1B
1@
1C
1$
1?
0E
0D
1#
0A
0>
0&
0"
#4937500
1,
1=
1G
0H
1J
0N
0B
0@
0$
#5000000
0,
0+
0*
0)
1(
0=
0<
0;
0:
19
1K
0F
0Q
0L
0G
1M
1S
0O
1R
0S
1T
1V
1O
0V
0C
1D
0?
1>
1C
1E
0D
0#
1"
1?
1A
0>
0E
1#
0"
1&
0A
0&
#5062500
1,
1=
1G
1H
0J
0O
1B
1@
0C
1$
0?
0#
#5125000
0,
1+
0=
1<
1L
0G
0H
1J
0M
0B
0@
0$
#5187500
1,
1=
1G
1H
0J
1O
0R
1S
0T
1V
1B
0V
1@
1C
1$
1?
1E
1D
1#
1A
1>
0E
1&
1"
0A
0&
#5250000
0,
0+
1*
0=
0<
1;
1Q
0L
0G
0H
1J
1M
0S
1R
1S
1V
0D
0B
0>
0@
0$
0"
1E
1D
1A
1>
1&
1"
#5312500
1,
1=
1G
1H
0J
0O
1B
1@
0C
1$
0?
0#
#5375000
0,
1+
0=
1<
1L
0G
0H
1J
0M
0B
0@
0$
#5437500
1,
1=
1G
1H
0J
1O
0R
0S
0V
1B
1@
1C
1$
1?
0E
0D
1#
0A
0>
0&
0"
#5500000
0,
0+
0*
1)
0=
0<
0;
1:
1F
0Q
0L
0G
1M
1S
1N
1R
0S
1T
1V
1D
0V
1>
1"
1E
0D
1A
0>
0E
1&
0"
0A
0&
#5562500
1,
1=
1G
0H
1J
0N
0B
0@
0$
#5625000
0,
1+
0=
1<
1L
0G
1H
0J
1N
0M
0O
1B
1@
0C
1$
0?
0#
#5687500
1,
1=
1G
0H
1J
0N
0B
0@
0$
#5750000
0,
0+
1*
0=
0<
1;
1Q
0L
0G
1H
0J
1N
1M
1S
0T
1V
1O
1D
1B
1>
1@
1C
1E
1$
1"
1?
1A
1#
1&
#5812500
1,
1=
1G
0H
1J
0N
0B
0@
0$
#5875000
0,
1+
0=
1<
1L
0G
1H
0J
1N
0M
0O
1B
1@
0C
1$
0?
0#
#5937500
1,
1=
1G
0H
1J
0N
0B
0@
0$
#6000000
0,
0+
0*
0)
0(
1'
0=
0<
0;
0:
09
18
1P
0K
0F
0Q
0L
0G
1M
1O
0R
1T
0S
0O
1R
1S
0V
1C
1?
0C
0D
1#
0?
0>
0E
1D
0#
0"
0A
1>
0&
1"
#6062500
1,
1=
1G
1H
0J
1O
0R
0S
1V
1B
1@
1C
1$
1?
1E
0D
1#
1A
0>
1&
0"
#6125000
0,
1+
0=
1<
1L
0G
0H
1J
0M
0B
0@
0$
#6187500
1,
1=
1G
1H
0J
0O
1B
1@
0C
1$
0?
0#
#6250000
0,
0+
1*
0=
0<
1;
1Q
0L
0G
0H
1J
1M
1S
0T
0V
1R
0S
1T
1V
1D
0B
0V
1>
0@
0E
0$
1"
0A
1E
0D
0&
1A
0>
0E
1&
0"
0A
0&
#6312500
1,
1=
1G
1H
0J
1O
0R
1S
0T
1V
1B
0V
1@
1C
1$
1?
1E
1D
1#
1A
1>
0E
1&
1"
0A
0&
#6375000
0,
1+
0=
1<
1L
0G
0H
1J
0M
0B
0@
0$
#6437500
1,
1=
1G
1H
0J
0O
1B
1@
0C
1$
0?
0#
#6500000
0,
0+
0*
1)
0=
0<
0;
1:
1F
0Q
0L
0G
1M
0S
1T
1N
1V
1R
1S
0V
0D
0>
1E
0"
1A
0E
1D
1&
0A
1>
0&
1"
#6562500
1,
1=
1G
0H
1J
0N
0B
0@
0$
#6625000
0,
1+
0=
1<
1L
0G
1H
0J
1N
0M
1O
0R
0S
1V
1B
1@
1C
1$
1?
1E
0D
1#
1A
0>
1&
0"
#6687500
1,
1=
1G
0H
1J
0N
0B
0@
0$
#6750000
0,
0+
1*
0=
0<
1;
1Q
0L
0G
1H
0J
1N
1M
1S
0T
0V
0O
1R
0S
1T
1V
1D
1B
0V
1>
1@
0C
0E
1$
1"
0?
0A
1E
0D
0#
0&
1A
0>
0E
1&
0"
0A
0&
#6812500
1,
1=
1G
0H
1J
0N
0B
0@
0$
#6875000
0,
1+
0=
1<
1L
0G
1H
0J
1N
0M
1O
0R
1S
0T
1V
1B
0V
1@
1C
1$
1?
1E
1D
1#
1A
1>
0E
1&
1"
0A
0&
#6937500
1,
1=
1G
0H
1J
0N
0B
0@
0$
#7000000
0,
0+
0*
0)
1(
0=
0<
0;
0:
19
1K
0F
0Q
0L
0G
1M
0S
1T
0O
1R
1S
1O
0C
0D
0?
0>
1C
1D
0#
0"
1?
1>
1#
1"
#7062500
1,
1=
1G
1H
0J
0O
1B
1@
0C
1$
0?
0#
#7125000
0,
1+
0=
1<
1L
0G
0H
1J
0M
0B
0@
0$
#7187500
1,
1=
1G
1H
0J
1O
0R
0S
1V
1B
1@
1C
1$
1?
1E
0D
1#
1A
0>
1&
0"
#7250000
0,
0+
1*
0=
0<
1;
1Q
0L
0G
0H
1J
1M
1S
0T
0V
1R
0S
1T
1V
1D
0B
0V
1>
0@
0E
0$
1"
0A
1E
0D
0&
1A
0>
0E
1&
0"
0A
0&
#7312500
1,
1=
1G
1H
0J
0O
1B
1@
0C
1$
0?
0#
#7375000
0,
1+
0=
1<
1L
0G
0H
1J
0M
0B
0@
0$
#7437500
1,
1=
1G
1H
0J
1O
0R
1S
0T
1V
1B
0V
1@
1C
1$
1?
1E
1D
1#
1A
1>
0E
1&
1"
0A
0&
#7500000
0,
0+
0*
1)
0=
0<
0;
1:
1F
0Q
0L
0G
1M
0S
1T
1N
1V
1R
1S
0V
0D
0>
1E
0"
1A
0E
1D
1&
0A
1>
0&
1"
#7562500
1,
1=
1G
0H
1J
0N
0B
0@
0$
#7625000
0,
1+
0=
1<
1L
0G
1H
0J
1N
0M
0O
1B
1@
0C
1$
0?
0#
#7687500
1,
1=
1G
0H
1J
0N
0B
0@
0$
#7750000
0,
0+
1*
0=
0<
1;
1Q
0L
0G
1H
0J
1N
1M
0S
1O
0D
1B
0>
1@
1C
1$
0"
1?
1#
#7812500
1,
1=
1G
0H
1J
0N
0B
0@
0$
#7875000
0,
1+
0=
1<
1L
0G
1H
0J
1N
0M
0O
1B
1@
0C
1$
0?
0#
#7937500
1,
1=
1G
0H
1J
0N
0B
0@
0$
